<?xml version="1.0" encoding="UTF-8" standalone="no"?>
<!-- Generator: Adobe Illustrator 15.1.0, SVG Export Plug-In . SVG Version: 6.00 Build 0)  -->

<svg
   xmlns:dc="http://purl.org/dc/elements/1.1/"
   xmlns:cc="http://creativecommons.org/ns#"
   xmlns:rdf="http://www.w3.org/1999/02/22-rdf-syntax-ns#"
   xmlns:svg="http://www.w3.org/2000/svg"
   xmlns="http://www.w3.org/2000/svg"
   xmlns:xlink="http://www.w3.org/1999/xlink"
   xmlns:sodipodi="http://sodipodi.sourceforge.net/DTD/sodipodi-0.dtd"
   xmlns:inkscape="http://www.inkscape.org/namespaces/inkscape"
   version="1.1"
   id="Layer_1"
   x="0px"
   y="0px"
   width="327.88107"
   height="235.92723"
   viewBox="0 0 327.88107 235.92722"
   enable-background="new 0 0 612 792"
   xml:space="preserve"
   inkscape:version="0.91 "
   sodipodi:docname="exeas_area_shem.svg"><metadata
   id="metadata283"><rdf:RDF><cc:Work
       rdf:about=""><dc:format>image/svg+xml</dc:format><dc:type
         rdf:resource="http://purl.org/dc/dcmitype/StillImage" /><dc:title></dc:title></cc:Work></rdf:RDF></metadata><defs
   id="defs281"><marker
   inkscape:stockid="DotM"
   orient="auto"
   refY="0"
   refX="0"
   id="marker4919"
   style="overflow:visible"
   inkscape:isstock="true"><path
     id="path4921"
     d="m -2.5,-1 c 0,2.76 -2.24,5 -5,5 -2.76,0 -5,-2.24 -5,-5 0,-2.76 2.24,-5 5,-5 2.76,0 5,2.24 5,5 z"
     style="fill:#000000;fill-opacity:1;fill-rule:evenodd;stroke:#000000;stroke-width:1pt;stroke-opacity:1"
     transform="matrix(0.4,0,0,0.4,2.96,0.4)"
     inkscape:connector-curvature="0" /></marker><marker
   inkscape:isstock="true"
   style="overflow:visible"
   id="marker4873"
   refX="0"
   refY="0"
   orient="auto"
   inkscape:stockid="DotM"
   inkscape:collect="always"><path
     transform="matrix(0.4,0,0,0.4,2.96,0.4)"
     style="fill:#000000;fill-opacity:1;fill-rule:evenodd;stroke:#000000;stroke-width:1pt;stroke-opacity:1"
     d="m -2.5,-1 c 0,2.76 -2.24,5 -5,5 -2.76,0 -5,-2.24 -5,-5 0,-2.76 2.24,-5 5,-5 2.76,0 5,2.24 5,5 z"
     id="path4875"
     inkscape:connector-curvature="0" /></marker>
	
	
	
	
	
	
	
	
	
	
	
	
	
	
	
	
	
	
	
	
	
	
	
	
	
	
	
	
	
	
	
	
	
	
	
	
	
	
	
	
	
	
	
	
	
	
	
	
	
	
	
	
	
	
	
	
	
	
	
	
	
	
</defs><sodipodi:namedview
   pagecolor="#ffffff"
   bordercolor="#666666"
   borderopacity="1"
   objecttolerance="10"
   gridtolerance="10"
   guidetolerance="10"
   inkscape:pageopacity="0"
   inkscape:pageshadow="2"
   inkscape:window-width="1828"
   inkscape:window-height="1051"
   id="namedview279"
   showgrid="false"
   inkscape:zoom="3.3712566"
   inkscape:cx="197.44299"
   inkscape:cy="108.43231"
   inkscape:window-x="83"
   inkscape:window-y="-9"
   inkscape:window-maximized="1"
   inkscape:current-layer="Layer_1"
   fit-margin-top="0"
   fit-margin-left="0"
   fit-margin-right="0"
   fit-margin-bottom="0" />
<path
   style="fill:#bfeaff;fill-opacity:1"
   inkscape:connector-curvature="0"
   id="path5"
   d="m 47.06585,102.24778 c 4.75,-7.499998 0.75,-17.749998 -2,-19.249998 -2.75,-1.5 51.499997,19.249998 51.499997,19.249998 l 4.249993,-7.749998 -3.499989,-43.75 -15.500001,-35.500004 153.99999,0 -17.5,87.000002 53.25,-19.249998 c 0,0 -10.75,11.5 -5,19.249998 l -54.875,22 -54.875,0 -54.87499,0 -54.875,-22"
   sodipodi:nodetypes="cscccccccccccc" /><path
   inkscape:connector-curvature="0"
   id="path7"
   d="m 46.56585,101.99778 c 1.5,-2.499998 2.25,-4.999998 2.25,-7.749998 0,-2.5 -0.75,-5 -1.5,-7 -0.5,-1 -0.75,-2 -1.25,-2.5 -0.5,-0.75 -1,-1.25 -1.25,-1.25 -0.25,-0.25 -0.25,-0.25 -0.25,-0.25 l 0,0 0,0 c -0.25,-0.25 -0.25,-0.25 -0.25,-0.5 0,0 0,-0.25 0.25,-0.25 0,0 0.25,0 0.25,-0.25 l 0,0 c 0.25,0 0.25,0.25 0.25,0.25 0.25,0 0.5,0 1,0.25 7.5,2.5 50.499997,18.999988 50.749997,18.999988 -0.25,0.50001 -0.25,0.50001 -0.25,0.50001 -0.5,-0.25 -0.5,-0.25 -0.5,-0.25 4.249993,-7.499998 4.249993,-7.499998 4.249993,-7.499998 -3.499993,-43.5 -3.499993,-43.5 -3.499993,-43.5 C 81.06585,14.747778 81.06585,14.747778 81.06585,14.747778 c 155.49999,0 155.49999,0 155.49999,0 -17.5,86.749992 -17.5,86.749992 -17.5,86.749992 54.25,-19.749988 54.25,-19.749988 54.25,-19.749988 -1.25,1.5 -1.25,1.5 -1.25,1.5 -0.25,0.25 -0.25,0.25 -0.25,0.25 -0.25,0.25 -2,2 -3.5,4.75 -1.5,2.5 -3,5.5 -3,8.75 0,1.75 0.5,3.499988 1.75,4.999998 -0.75,0.5 -0.75,0.5 -0.75,0.5 -1.5,-1.75001 -2,-3.749998 -2,-5.499998 0,-3.75 1.75,-7.25 3.5,-10 1.75,-2.5 3.5,-4.25 3.5,-4.5 0.25,0.5 0.25,0.5 0.25,0.5 0.25,0.5 0.25,0.5 0.25,0.5 -54,19.499998 -54,19.499998 -54,19.499998 17.5,-87.250002 17.5,-87.250002 17.5,-87.250002 -152.74999,0 -152.74999,0 -152.74999,0 15.250001,35.000004 15.250001,35.000004 15.250001,35.000004 3.749989,44 3.749989,44 3.749989,44 -4.749993,7.999998 -4.749993,7.999998 -4.749993,7.999998 -0.5,0 -0.5,0 -0.5,0 0,0 -0.75,-0.25 -2.25,-0.75 C 89.31585,99.997782 77.06585,95.497782 66.06585,91.247782 c -5.5,-2 -10.75,-4 -14.5,-5.5 -2,-0.75 -3.75,-1.25 -4.75,-1.75 -0.75,-0.25 -1.25,-0.5 -1.5,-0.5 -0.25,0 -0.25,0 -0.25,0 -0.25,-0.25 -0.25,-0.25 -0.25,-0.25 l 0,0 c 0,-0.25 0,-0.25 0,-0.25 0,0.25 0,0.25 0,0.25 l 0,0 c 0,-0.25 0,-0.25 0,-0.25 0,0.25 0,0.25 0,0.25 0,-0.25 0,-0.25 0,-0.25 0.25,0.25 0.25,0.25 0.25,0.25 l -0.25,0 c 0,-0.25 0,-0.25 0,-0.25 0.25,0.25 0.25,0.25 0.25,0.25 -0.25,-0.5 -0.25,-0.5 -0.25,-0.5 0.5,0.5 0.5,0.5 0.5,0.5 -0.25,0 -0.25,0 -0.25,0 -0.25,-0.5 -0.25,-0.5 -0.25,-0.5 0.5,0.5 0.5,0.5 0.5,0.5 -0.5,-0.5 -0.5,-0.5 -0.5,-0.5 0.5,0 0.5,0 0.5,0 0,0.25 0,0.25 0,0.5 -0.5,-0.5 -0.5,-0.5 -0.5,-0.5 0.5,0 0.5,0 0.5,0 -0.5,0 -0.5,0 -0.5,0 0.5,-0.25 0.5,-0.25 0.5,-0.25 0,0.25 0,0.25 0,0.25 -0.5,0 -0.5,0 -0.5,0 0.5,-0.25 0.5,-0.25 0.5,-0.25 -0.5,0.25 -0.5,0.25 -0.5,0.25 0.5,-0.25 0.5,-0.25 0.5,-0.25 l 0,0 c -0.5,0.25 -0.5,0.25 -0.5,0.25 0.5,-0.25 0.5,-0.25 0.5,-0.25 -0.25,0.25 -0.25,0.25 -0.25,0.25 0.25,-0.25 0.25,-0.25 0.25,-0.25 l 0,0 c -0.25,0.25 -0.25,0.25 -0.25,0.25 0.25,-0.25 0.25,-0.25 0.25,-0.25 -0.25,0 -0.25,0 -0.25,0 l 0,0 c 0.25,0 0.25,0 0.25,0 -0.25,0 -0.25,0 -0.25,0 l 0,0 c 0.25,0 0.25,0 0.25,0 0.5,0.25 1,0.75 1.5,1.5 1.5,2.25 3,6.25 3,10.25 0,2.75 -0.75,5.75 -2.25,8.249998 -1,-0.5 -1,-0.5 -1,-0.5 l 0,0" /><g
   id="g9"
   style="fill:#5d9ebd;fill-opacity:1;stroke:none;stroke-width:0.5;stroke-miterlimit:4;stroke-dasharray:none;stroke-opacity:1"
   transform="matrix(1,0,0,-1,-150.12616,509.15979)">
		<defs
   id="defs11">
			<path
   inkscape:connector-curvature="0"
   d="m 205.692,406.912 c 4.5,7.5 0.75,13.75 -2,15.25 -2.5,1.5 46.5,-15.25 46.5,-15.25 l 4,7.75 -3.25,43.75 -15,35.5 147,0 -16.5,-87 49.75,17.25 c 0,0 -15.25,-9.5 -9.5,-17.25 l -201,0"
   id="SVGID_1_" />
		</defs>
		<clipPath
   id="SVGID_2_">
			<use
   height="100%"
   width="100%"
   y="0"
   x="0"
   style="overflow:visible"
   id="use15"
   overflow="visible"
   xlink:href="#SVGID_1_" />
		</clipPath>
		<path
   style="fill:#5d9ebd;fill-opacity:1;stroke:none;stroke-width:0.5;stroke-miterlimit:4;stroke-dasharray:none;stroke-opacity:1"
   inkscape:connector-curvature="0"
   id="path17"
   d="m 405.942,408.662 c -8.5,0 -8.5,0 -8.5,0 0,1 0,1 0,1 8,0 8,0 8,0 0.25,-0.5 0.25,-0.75 0.5,-1"
   clip-path="url(#SVGID_2_)" />
		<polygon
   style="fill:#5d9ebd;fill-opacity:1;stroke:none;stroke-width:0.5;stroke-miterlimit:4;stroke-dasharray:none;stroke-opacity:1"
   id="polygon19"
   points="374.442,409.662 373.442,409.162 373.442,409.162 373.442,409.412 373.942,409.662 "
   clip-path="url(#SVGID_2_)" />
		<polygon
   style="fill:#5d9ebd;fill-opacity:1;stroke:none;stroke-width:0.5;stroke-miterlimit:4;stroke-dasharray:none;stroke-opacity:1"
   id="polygon21"
   points="385.442,409.662 385.442,408.662 385.442,408.662 374.692,408.662 377.442,409.662 "
   clip-path="url(#SVGID_2_)" />
		<polygon
   id="polygon23"
   points="374.442,409.662 377.442,409.662 374.692,408.662 374.692,408.662 373.442,408.662 373.442,409.162 "
   clip-path="url(#SVGID_2_)"
   style="fill:#5d9ebd;fill-opacity:1;stroke:none;stroke-width:0.5;stroke-miterlimit:4;stroke-dasharray:none;stroke-opacity:1" />
		<path
   style="fill:#5d9ebd;fill-opacity:1;stroke:none;stroke-width:0.5;stroke-miterlimit:4;stroke-dasharray:none;stroke-opacity:1"
   inkscape:connector-curvature="0"
   id="path25"
   d="m 265.442,408.662 -12,0 0,1 12,0 0,-1 0,0 z m 24,0 -12,0 0,1 12,0 0,-1 0,0 z m 24,0 -12,0 0,1 12,0 0,-1 0,0 z m 24,0 -12,0 0,1 12,0 0,-1 0,0 z m 24,0 -12,0 0,1 12,0 0,-1 0,0 z"
   clip-path="url(#SVGID_2_)" />
		<path
   style="fill:#5d9ebd;fill-opacity:1;stroke:none;stroke-width:0.5;stroke-miterlimit:4;stroke-dasharray:none;stroke-opacity:1"
   inkscape:connector-curvature="0"
   id="path27"
   d="m 241.442,409.412 c -0.25,0 -0.25,0 -0.25,0.25 0.25,0 0.25,0 0.25,0 0,-0.25 0,-0.25 0,-0.25"
   clip-path="url(#SVGID_2_)" />
		<path
   style="fill:#5d9ebd;fill-opacity:1;stroke:none;stroke-width:0.5;stroke-miterlimit:4;stroke-dasharray:none;stroke-opacity:1"
   inkscape:connector-curvature="0"
   id="path29"
   d="m 240.942,408.662 c -11.5,0 -11.5,0 -11.5,0 0,1 0,1 0,1 8.75,0 8.75,0 8.75,0 1,-0.5 2,-0.75 2.75,-1"
   clip-path="url(#SVGID_2_)" />
		<path
   inkscape:connector-curvature="0"
   id="path31"
   d="m 241.442,408.662 c -0.5,0 -0.5,0 -0.5,0 -0.75,0.25 -1.75,0.5 -2.75,1 3,0 3,0 3,0 0,-0.25 0,-0.25 0.25,-0.25 0,-0.75 0,-0.75 0,-0.75"
   clip-path="url(#SVGID_2_)"
   style="fill:#5d9ebd;fill-opacity:1;stroke:none;stroke-width:0.5;stroke-miterlimit:4;stroke-dasharray:none;stroke-opacity:1" />
		<path
   style="fill:#5d9ebd;fill-opacity:1;stroke:none;stroke-width:0.5;stroke-miterlimit:4;stroke-dasharray:none;stroke-opacity:1"
   inkscape:connector-curvature="0"
   id="path33"
   d="m 217.442,408.662 c -10.75,0 -10.75,0 -10.75,0 0,0.25 0.25,0.5 0.25,1 10.5,0 10.5,0 10.5,0 0,-1 0,-1 0,-1"
   clip-path="url(#SVGID_2_)" />
		<polygon
   style="fill:#5d9ebd;fill-opacity:1;stroke:none;stroke-width:0.5;stroke-miterlimit:4;stroke-dasharray:none;stroke-opacity:1"
   id="polygon35"
   points="405.192,417.162 405.192,416.162 405.192,416.162 395.442,416.162 398.192,417.162 "
   clip-path="url(#SVGID_2_)" />
		<polygon
   id="polygon37"
   points="395.692,417.162 398.192,417.162 395.442,416.162 395.442,416.162 393.192,416.162 393.192,416.162 "
   clip-path="url(#SVGID_2_)"
   style="fill:#5d9ebd;fill-opacity:1;stroke:none;stroke-width:0.5;stroke-miterlimit:4;stroke-dasharray:none;stroke-opacity:1" />
		<path
   style="fill:#5d9ebd;fill-opacity:1;stroke:none;stroke-width:0.5;stroke-miterlimit:4;stroke-dasharray:none;stroke-opacity:1"
   inkscape:connector-curvature="0"
   id="path39"
   d="m 213.192,416.162 c -5.75,0 -5.75,0 -5.75,0 0,0.25 0,0.5 0,1 5.75,0 5.75,0 5.75,0 0,-1 0,-1 0,-1 m 48,0 c -7,0 -7,0 -7,0 0,1 0,1 0,1 7,0 7,0 7,0 0,-1 0,-1 0,-1 m 24,0 c -12,0 -12,0 -12,0 0,1 0,1 0,1 12,0 12,0 12,0 0,-1 0,-1 0,-1 m 24,0 c -12,0 -12,0 -12,0 0,1 0,1 0,1 12,0 12,0 12,0 0,-1 0,-1 0,-1 m 24,0 c -12,0 -12,0 -12,0 0,1 0,1 0,1 12,0 12,0 12,0 0,-1 0,-1 0,-1 m 24,0 c -12,0 -12,0 -12,0 0,1 0,1 0,1 12,0 12,0 12,0 0,-1 0,-1 0,-1"
   clip-path="url(#SVGID_2_)" />
		<path
   style="fill:#5d9ebd;fill-opacity:1;stroke:none;stroke-width:0.5;stroke-miterlimit:4;stroke-dasharray:none;stroke-opacity:1"
   inkscape:connector-curvature="0"
   id="path41"
   d="m 264.192,423.662 -10.5,0 -0.25,1 10.75,0 0,-1 0,0 z m 24,0 -12,0 0,1 12,0 0,-1 0,0 z m 24,0 -12,0 0,1 12,0 0,-1 0,0 z m 24,0 -12,0 0,1 12,0 0,-1 0,0 z m 24,0 -12,0 0,1 12,0 0,-1 0,0 z"
   clip-path="url(#SVGID_2_)" />
		<path
   style="fill:#5d9ebd;fill-opacity:1;stroke:none;stroke-width:0.5;stroke-miterlimit:4;stroke-dasharray:none;stroke-opacity:1"
   inkscape:connector-curvature="0"
   id="path43"
   d="m 271.692,431.162 -12,0 0,1 12,0 0,-1 0,0 z m 24,0 -12,0 0,1 12,0 0,-1 0,0 z m 24,0 -12,0 0,1 12,0 0,-1 0,0 z m 24,0 -12,0 0,1 12,0 0,-1 0,0 z m 24,0 -12,0 0,1 12,0 0,-1 0,0 z"
   clip-path="url(#SVGID_2_)" />
		<path
   style="fill:#5d9ebd;fill-opacity:1;stroke:none;stroke-width:0.5;stroke-miterlimit:4;stroke-dasharray:none;stroke-opacity:1"
   inkscape:connector-curvature="0"
   id="path45"
   d="m 264.192,438.662 -11.75,0 -0.25,1 12,0 0,-1 0,0 z m 24,0 -12,0 0,1 12,0 0,-1 0,0 z m 24,0 -12,0 0,1 12,0 0,-1 0,0 z m 24,0 -12,0 0,1 12,0 0,-1 0,0 z m 24,0 -12,0 0,1 12,0 0,-1 0,0 z m 12.25,0 -0.25,0 0,1 0.5,0 -0.25,-1 0,0 z"
   clip-path="url(#SVGID_2_)" />
		<path
   style="fill:#5d9ebd;fill-opacity:1;stroke:none;stroke-width:0.5;stroke-miterlimit:4;stroke-dasharray:none;stroke-opacity:1"
   inkscape:connector-curvature="0"
   id="path47"
   d="m 271.692,446.162 -12,0 0,1 12,0 0,-1 0,0 z m 24,0 -12,0 0,1 12,0 0,-1 0,0 z m 24,0 -12,0 0,1 12,0 0,-1 0,0 z m 24,0 -12,0 0,1 12,0 0,-1 0,0 z m 24,0 -12,0 0,1 12,0 0,-1 0,0 z"
   clip-path="url(#SVGID_2_)" />
		<path
   style="fill:#5d9ebd;fill-opacity:1;stroke:none;stroke-width:0.5;stroke-miterlimit:4;stroke-dasharray:none;stroke-opacity:1"
   inkscape:connector-curvature="0"
   id="path49"
   d="m 264.192,453.662 -12,0 0,1 12,0 0,-1 0,0 z m 24,0 -12,0 0,1 12,0 0,-1 0,0 z m 24,0 -12,0 0,1 12,0 0,-1 0,0 z m 24,0 -12,0 0,1 12,0 0,-1 0,0 z m 24,0 -12,0 0,1 12,0 0,-1 0,0 z m 15.25,0 -3.25,0 0,1 3.25,0 0,-1 0,0 z"
   clip-path="url(#SVGID_2_)" />
		<path
   style="fill:#5d9ebd;fill-opacity:1;stroke:none;stroke-width:0.5;stroke-miterlimit:4;stroke-dasharray:none;stroke-opacity:1"
   inkscape:connector-curvature="0"
   id="path51"
   d="m 271.692,461.162 -12,0 0,1 12,0 0,-1 0,0 z m 24,0 -12,0 0,1 12,0 0,-1 0,0 z m 24,0 -12,0 0,1 12,0 0,-1 0,0 z m 24,0 -12,0 0,1 12,0 0,-1 0,0 z m 24,0 -12,0 0,1 12,0 0,-1 0,0 z"
   clip-path="url(#SVGID_2_)" />
		<path
   style="fill:#5d9ebd;fill-opacity:1;stroke:none;stroke-width:0.5;stroke-miterlimit:4;stroke-dasharray:none;stroke-opacity:1"
   inkscape:connector-curvature="0"
   id="path53"
   d="m 264.192,468.662 -12,0 0,1 12,0 0,-1 0,0 z m 24,0 -12,0 0,1 12,0 0,-1 0,0 z m 24,0 -12,0 0,1 12,0 0,-1 0,0 z m 24,0 -12,0 0,1 12,0 0,-1 0,0 z m 24,0 -12,0 0,1 12,0 0,-1 0,0 z m 18,0 -6,0 0,1 6.25,0 -0.25,-1 0,0 z"
   clip-path="url(#SVGID_2_)" />
		<path
   style="fill:#5d9ebd;fill-opacity:1;stroke:none;stroke-width:0.5;stroke-miterlimit:4;stroke-dasharray:none;stroke-opacity:1"
   inkscape:connector-curvature="0"
   id="path55"
   d="m 379.692,476.662 0,0.5 0.25,0 -0.25,-0.5 0,0 z m -132,-0.5 -4.25,0 -0.5,1 4.75,0 0,-1 0,0 z m 24,0 -12,0 0,1 12,0 0,-1 0,0 z m 24,0 -12,0 0,1 12,0 0,-1 0,0 z m 24,0 -12,0 0,1 12,0 0,-1 0,0 z m 24,0 -12,0 0,1 12,0 0,-1 0,0 z m 24,0 -12,0 0,1 12,0 0,-1 0,0 z"
   clip-path="url(#SVGID_2_)" />
		<path
   style="fill:#5d9ebd;fill-opacity:1;stroke:none;stroke-width:0.5;stroke-miterlimit:4;stroke-dasharray:none;stroke-opacity:1"
   inkscape:connector-curvature="0"
   id="path57"
   d="m 240.192,484.162 -0.25,0.5 0.25,0 0,-0.5 0,0 z m 24,-0.5 -12,0 0,1 12,0 0,-1 0,0 z m 24,0 -12,0 0,1 12,0 0,-1 0,0 z m 24,0 -12,0 0,1 12,0 0,-1 0,0 z m 24,0 -12,0 0,1 12,0 0,-1 0,0 z m 24,0 -12,0 0,1 12,0 0,-1 0,0 z m 21,0 -9,0 0,1 9,0 0,-1 0,0 z"
   clip-path="url(#SVGID_2_)" />
		<path
   style="fill:#5d9ebd;fill-opacity:1;stroke:none;stroke-width:0.5;stroke-miterlimit:4;stroke-dasharray:none;stroke-opacity:1"
   inkscape:connector-curvature="0"
   id="path59"
   d="m 247.692,491.162 -10.5,0 -0.5,1 11,0 0,-1 0,0 z m 24,0 -12,0 0,1 12,0 0,-1 0,0 z m 24,0 -12,0 0,1 12,0 0,-1 0,0 z m 24,0 -12,0 0,1 12,0 0,-1 0,0 z m 24,0 -12,0 0,1 12,0 0,-1 0,0 z m 24,0 -12,0 0,1 12,0 0,-1 0,0 z m 14.75,0 -2.75,0 0,1 3,0 -0.25,-1 0,0 z"
   clip-path="url(#SVGID_2_)" />
	<path
   clip-path="url(#SVGID_2_)"
   d="m 265.442,408.662 -12,0 0,1 12,0 0,-1 0,0 z m 24,0 -12,0 0,1 12,0 0,-1 0,0 z m 24,0 -12,0 0,1 12,0 0,-1 0,0 z m 24,0 -12,0 0,1 12,0 0,-1 0,0 z m 24,0 -12,0 0,1 12,0 0,-1 0,0 z"
   id="path4568"
   inkscape:connector-curvature="0"
   style="fill:#5d9ebd;fill-opacity:1;stroke:none;stroke-width:0.5;stroke-miterlimit:4;stroke-dasharray:none;stroke-opacity:1"
   transform="translate(-10,-7.3707627)" /><path
   transform="translate(0,-13.692797)"
   style="fill:#5d9ebd;fill-opacity:1;stroke:none;stroke-width:0.5;stroke-miterlimit:4;stroke-dasharray:none;stroke-opacity:1"
   inkscape:connector-curvature="0"
   id="path4570"
   d="m 265.442,408.662 -12,0 0,1 12,0 0,-1 0,0 z m 24,0 -12,0 0,1 12,0 0,-1 0,0 z m 24,0 -12,0 0,1 12,0 0,-1 0,0 z m 24,0 -12,0 0,1 12,0 0,-1 0,0 z m 24,0 -12,0 0,1 12,0 0,-1 0,0 z"
   clip-path="url(#SVGID_2_)" /></g><path
   style="fill:#808285"
   inkscape:connector-curvature="0"
   id="path61"
   d="m 87.06585,15.247778 c -31,0 -31,0 -31,0 -35.5,0 -35.5,0 -35.5,0 0,50.750004 0,50.750004 0,50.750004 0,0 42.5,36.249998 68.5,35.999998 3.75,0 6.749997,0.75 9.250001,-0.50001 10.999989,-4.999988 15.999989,-11.499988 15.999989,-51.749988 0,-18.500004 -0.75,-34.500004 -0.75,-34.500004 l -26.49999,0 z" /><path
   inkscape:connector-curvature="0"
   id="path63"
   d="m 87.06585,15.247778 c 0,0.5 0,0.5 0,0.5 -31,0 -31,0 -31,0 -35,0 -35,0 -35,0 0,50.250004 0,50.250004 0,50.250004 -0.5,0 -0.5,0 -0.5,0 0.25,-0.25 0.25,-0.25 0.25,-0.25 0,0 0.25,0 0.5,0.25 2.5,2 13.25,11 26.5,19.25 6.75,4.25 14,8.25 21,11.25 7.25,3 14.25,4.999988 20.25,4.999988 l 0,0 c 0.25,0 0.25,0 0.25,0 2,0 3.75,0.25 5.249997,0.25 1.5,0 2.5,0 3.500004,-0.5 2.749989,-1.499988 5.249989,-2.749988 6.999989,-4.749988 3,-2.75 5.25,-6.75 6.75,-14 1.25,-7.25 2,-17.5 2,-32.75 0,-9.250004 -0.25,-17.750004 -0.25,-24.250004 -0.25,-3 -0.25,-5.75 -0.25,-7.5 0,-1.75 -0.25,-2.75 -0.25,-2.75 0.5,0 0.5,0 0.5,0 0,0.5 0,0.5 0,0.5 -26.49999,0 -26.49999,0 -26.49999,0 0,-0.5 0,-0.5 0,-0.5 0,-0.5 0,-0.5 0,-0.5 26.99999,0 26.99999,0 26.99999,0 0,0.25 0,0.25 0,0.25 0,0.25 0.75,16.25 0.75,34.750004 0,20.25 -1.25,32 -3.75,39.25 -1.5,3.75 -3,6.25 -5.25,8.25 -2,2 -4.5,3.499988 -7.249989,4.749998 -1.25,0.75 -2.500004,0.75 -4.000004,0.75 -1.499997,0 -3.249997,-0.25 -5.249997,-0.25 -0.25,0 -0.25,0 -0.25,0 l 0,0 c -6.75,0 -14.25,-2.25001 -22,-5.499998 -23,-10.25 -46.75,-30.5 -46.75,-30.5 -0.25,-0.25 -0.25,-0.25 -0.25,-0.25 0,-51.500004 0,-51.500004 0,-51.500004 36,0 36,0 36,0 31,0 31,0 31,0 l 0,0.5 z" /><path
   style="fill:#808285"
   inkscape:connector-curvature="0"
   id="path65"
   d="m 229.06584,15.247778 c 30.75,0 30.75,0 30.75,0 35.75,0 35.75,0 35.75,0 0,50.750004 0,50.750004 0,50.750004 0,0 -42.5,36.249998 -68.75,35.999998 -3.5,0 -6.75,0.75 -9,-0.50001 -11.25,-5.249988 -16,-11.499988 -16,-51.749988 0,-18.500004 0.5,-34.500004 0.5,-34.500004 l 26.75,0 z" /><path
   inkscape:connector-curvature="0"
   id="path67"
   d="m 229.06584,15.247778 c 0,-0.5 0,-0.5 0,-0.5 30.75,0 30.75,0 30.75,0 36.25,0 36.25,0 36.25,0 0,51.500004 0,51.500004 0,51.500004 -0.25,0.25 -0.25,0.25 -0.25,0.25 0,0 -10.5,9 -24.5,18 -7,4.5 -14.75,9 -22.25,12.5 -7.75,3.249988 -15.25,5.499998 -22,5.499998 -0.25,0 -0.25,0 -0.25,0 l 0,0 c -2,0 -3.75,0.25 -5.5,0.25 -1.25,0 -2.5,-0.25 -3.75,-0.75 -2.75,-1.25001 -5.25,-2.749998 -7.5,-4.749998 -3,-3 -5.25,-7.25 -6.75,-14.75 -1.5,-7.25 -2,-17.5 -2,-32.75 0,-18.500004 0.5,-34.750004 0.5,-34.750004 0,-0.25 0,-0.25 0,-0.25 27.25,0 27.25,0 27.25,0 0,0.5 0,0.5 0,0.5 0,0.5 0,0.5 0,0.5 -26.75,0 -26.75,0 -26.75,0 0,-0.5 0,-0.5 0,-0.5 0.5,0 0.5,0 0.5,0 0,0 0,1 0,2.75 -0.25,5.5 -0.5,18 -0.5,31.750004 0,20.25 1.25,31.75 3.75,39 1.25,3.5 2.75,6 4.75,7.75 2,2 4.25,3.25 7,4.749988 1,0.25 2.25,0.5 3.5,0.5 1.75,0 3.5,-0.25 5.5,-0.25 l 0,0 c 0.25,0 0.25,0 0.25,0 6.5,0 14,-2.249988 21.5,-5.499988 11.5,-5 23,-12.75 32,-19 4.25,-3.25 8,-6 10.5,-8 1.25,-1 2.25,-2 3,-2.5 0.75,-0.5 1,-0.75 1,-0.75 0.5,0.25 0.5,0.25 0.5,0.25 -0.5,0 -0.5,0 -0.5,0 0,-50.250004 0,-50.250004 0,-50.250004 -35.25,0 -35.25,0 -35.25,0 -30.75,0 -30.75,0 -30.75,0 l 0,-0.5 z" /><g
   id="g4572"
   transform="matrix(1,0,0,-1,-1.2202484,22.445462)"><rect
     x="110.28609"
     y="-146.68202"
     width="1"
     height="34.75"
     id="rect75" /><rect
     x="204.53609"
     y="-146.68202"
     width="1"
     height="34.75"
     id="rect77" /><rect
     x="94.286102"
     y="-187.18202"
     width="1"
     height="75.25"
     id="rect79" /><rect
     x="222.53609"
     y="-187.18202"
     width="1"
     height="75.25"
     id="rect81" /><rect
     x="265.7861"
     y="-144.68602"
     width="1"
     height="32.753994"
     id="rect83" /><rect
     x="100.03609"
     y="-174.68202"
     width="116.75"
     height="1"
     id="rect85" /><polygon
     transform="translate(-148.90591,-501.09401)"
     points="242.692,326.912 250.442,324.912 250.442,328.912 250.442,328.912 "
     id="polygon87" /><polygon
     transform="translate(-148.90591,-501.09401)"
     points="371.942,326.912 364.192,324.912 364.192,328.912 364.192,328.912 "
     id="polygon89" /><rect
     x="118.03609"
     y="-137.68202"
     width="80.75"
     height="1"
     id="rect91" /><polygon
     transform="translate(-148.90591,-501.09401)"
     points="260.692,363.912 268.192,361.912 268.192,365.912 268.192,365.912 "
     id="polygon93" /><polygon
     transform="translate(-148.90591,-501.09401)"
     points="353.942,363.912 346.192,361.912 346.192,365.912 346.192,365.912 "
     id="polygon95" /><rect
     x="229.03609"
     y="-137.68202"
     width="31"
     height="1"
     id="rect97" /><polygon
     transform="translate(-148.90591,-501.09401)"
     points="371.942,363.912 379.442,361.912 379.442,365.912 379.442,365.912 "
     id="polygon99" /><polygon
     transform="translate(-148.90591,-501.09401)"
     points="415.192,363.912 407.442,361.912 407.442,365.912 407.442,365.912 "
     id="polygon101" /><rect
     x="60.786098"
     y="-125.18202"
     width="27.75"
     height="1"
     id="rect233" /><polygon
     transform="translate(-148.90591,-501.09401)"
     points="243.692,376.412 235.942,374.412 235.942,378.412 235.942,378.412 "
     id="polygon235" /><rect
     x="115.28609"
     y="-125.18202"
     width="10.5"
     height="1"
     id="rect237" /><polygon
     transform="translate(-148.90591,-501.09401)"
     points="257.942,376.412 265.692,378.412 265.692,374.412 265.692,374.412 "
     id="polygon239" /><rect
     x="90.536102"
     y="-125.18202"
     width="24.25"
     height="1"
     id="rect277" /></g>
<path
   style="fill:none;fill-rule:evenodd;stroke:#000000;stroke-width:1px;stroke-linecap:butt;stroke-linejoin:miter;stroke-opacity:1;marker-start:url(#marker4873)"
   d="m 289.48029,38.709948 20.15501,-15.4412"
   id="path4862"
   inkscape:connector-curvature="0" /><flowRoot
   xml:space="preserve"
   id="flowRoot4864"
   style="font-style:normal;font-weight:normal;font-size:10px;line-height:125%;font-family:sans-serif;text-align:start;letter-spacing:0px;word-spacing:0px;text-anchor:start;fill:#000000;fill-opacity:1;stroke:none;stroke-width:1px;stroke-linecap:butt;stroke-linejoin:miter;stroke-opacity:1"
   transform="translate(-151.90591,-218.63565)"><flowRegion
     id="flowRegion4866"><rect
       id="rect4868"
       width="187.46719"
       height="17.204268"
       x="465.10846"
       y="351.80804"
       style="text-align:start;text-anchor:start" /></flowRegion><flowPara
     id="flowPara4870">Образец</flowPara></flowRoot><flowRoot
   transform="translate(-151.90591,-334.95196)"
   style="font-style:normal;font-weight:normal;font-size:10px;line-height:125%;font-family:sans-serif;text-align:start;letter-spacing:0px;word-spacing:0px;text-anchor:start;fill:#000000;fill-opacity:1;stroke:none;stroke-width:1px;stroke-linecap:butt;stroke-linejoin:miter;stroke-opacity:1"
   id="flowRoot4872"
   xml:space="preserve"><flowRegion
     id="flowRegion4874"><rect
       style="text-align:start;text-anchor:start"
       y="351.80804"
       x="465.10846"
       height="17.204268"
       width="187.46719"
       id="rect4876" /></flowRegion><flowPara
     id="flowPara4878">Кольцо</flowPara></flowRoot><flowRoot
   transform="translate(-353.61112,-184.80406)"
   style="font-style:normal;font-weight:normal;font-size:10px;line-height:125%;font-family:sans-serif;text-align:start;letter-spacing:0px;word-spacing:0px;text-anchor:start;fill:#000000;fill-opacity:1;stroke:none;stroke-width:1px;stroke-linecap:butt;stroke-linejoin:miter;stroke-opacity:1"
   id="flowRoot4880"
   xml:space="preserve"><flowRegion
     id="flowRegion4882"><rect
       style="text-align:start;text-anchor:start"
       y="351.80804"
       x="465.10846"
       height="28.661673"
       width="91.33448"
       id="rect4884" /></flowRegion><flowPara
     id="flowPara4886"
     style="text-align:center;text-anchor:middle">Освещаемая область</flowPara></flowRoot><flowRoot
   xml:space="preserve"
   id="flowRoot4888"
   style="font-style:normal;font-weight:normal;font-size:10px;line-height:125%;font-family:sans-serif;text-align:start;letter-spacing:0px;word-spacing:0px;text-anchor:start;fill:#000000;fill-opacity:1;stroke:none;stroke-width:1px;stroke-linecap:butt;stroke-linejoin:miter;stroke-opacity:1"
   transform="translate(-352.42462,-149.75508)"><flowRegion
     id="flowRegion4890"><rect
       id="rect4892"
       width="91.33448"
       height="28.661673"
       x="465.10846"
       y="351.80804"
       style="text-align:start;text-anchor:start" /></flowRegion><flowPara
     style="text-align:center;text-anchor:middle"
     id="flowPara4894">Смачиваемая область</flowPara></flowRoot><flowRoot
   transform="translate(-234.961,-185.9237)"
   style="font-style:normal;font-weight:normal;font-size:10px;line-height:125%;font-family:sans-serif;text-align:start;letter-spacing:0px;word-spacing:0px;text-anchor:start;fill:#000000;fill-opacity:1;stroke:none;stroke-width:1px;stroke-linecap:butt;stroke-linejoin:miter;stroke-opacity:1"
   id="flowRoot4896"
   xml:space="preserve"><flowRegion
     id="flowRegion4898"><rect
       style="text-align:start;text-anchor:start"
       y="351.80804"
       x="465.10846"
       height="40.526684"
       width="94.300735"
       id="rect4900" /></flowRegion><flowPara
     id="flowPara4902"
     style="text-align:start;text-anchor:start">Внешняя избыточная область</flowPara></flowRoot><flowRoot
   xml:space="preserve"
   id="flowRoot4904"
   style="font-style:normal;font-weight:normal;font-size:10px;line-height:125%;font-family:sans-serif;text-align:start;letter-spacing:0px;word-spacing:0px;text-anchor:start;fill:#000000;fill-opacity:1;stroke:none;stroke-width:1px;stroke-linecap:butt;stroke-linejoin:miter;stroke-opacity:1"
   transform="translate(-472.26125,-198.65962)"><flowRegion
     id="flowRegion4906"><rect
       id="rect4908"
       width="91.33448"
       height="28.661673"
       x="465.10846"
       y="351.80804"
       style="text-align:start;text-anchor:start" /></flowRegion><flowPara
     style="text-align:end;text-anchor:end"
     id="flowPara4910">Избыточная область</flowPara></flowRoot><path
   style="fill:#dafad8;fill-opacity:1;fill-rule:evenodd;stroke:#000000;stroke-width:1px;stroke-linecap:butt;stroke-linejoin:miter;stroke-opacity:1"
   d="m 21.02665,102.83065 90.47071,0 0,10.67305 93.14035,0 0,-11.0916 90.17409,0 0,34.11191 -274.081776,0 z"
   id="path4566"
   inkscape:connector-curvature="0" /><path
   style="fill:#ffffff"
   inkscape:connector-curvature="0"
   id="path73"
   d="m 152.99553,12.497778 c -13.93535,23.893269 -4.91836,45.397212 7.1043,70.997148 12.02265,25.599944 -9.017,54.954514 -18.03399,70.655804 7.37754,1.36533 7.37754,1.36533 7.37754,1.36533 9.01699,-15.35996 30.05664,-45.05587 18.03399,-70.655804 -12.02266,-25.258604 -21.03965,-47.10388 -7.37754,-70.655816 l -7.1043,-1.706662 z" /><path
   style="fill:none;fill-rule:evenodd;stroke:#000000;stroke-width:1px;stroke-linecap:butt;stroke-linejoin:miter;stroke-opacity:1;marker-start:url(#marker4919)"
   d="m 285.91303,106.92543 23.13678,27.88278"
   id="path4860"
   inkscape:connector-curvature="0" /><path
   style="fill:none;fill-rule:evenodd;stroke:#000000;stroke-width:0.5;stroke-linecap:butt;stroke-linejoin:miter;stroke-miterlimit:4;stroke-dasharray:none;stroke-opacity:1"
   d="m 87.207838,158.21139 c 5.542109,-0.57624 11.550954,-1.96969 14.831262,-10.08526"
   id="path5095"
   inkscape:connector-curvature="0"
   sodipodi:nodetypes="cc" /></svg>