<?xml version="1.0" encoding="UTF-8" standalone="no"?>
<!-- Created with matplotlib (http://matplotlib.org/) -->

<svg
   xmlns:dc="http://purl.org/dc/elements/1.1/"
   xmlns:cc="http://creativecommons.org/ns#"
   xmlns:rdf="http://www.w3.org/1999/02/22-rdf-syntax-ns#"
   xmlns:svg="http://www.w3.org/2000/svg"
   xmlns="http://www.w3.org/2000/svg"
   xmlns:xlink="http://www.w3.org/1999/xlink"
   xmlns:sodipodi="http://sodipodi.sourceforge.net/DTD/sodipodi-0.dtd"
   xmlns:inkscape="http://www.inkscape.org/namespaces/inkscape"
   height="216pt"
   version="1.1"
   viewBox="0 0 144 216"
   width="144pt"
   id="svg2"
   inkscape:version="0.91 r13725"
   sodipodi:docname="IP_band_edge2p.svg">
  <metadata
     id="metadata112">
    <rdf:RDF>
      <cc:Work
         rdf:about="">
        <dc:format>image/svg+xml</dc:format>
        <dc:type
           rdf:resource="http://purl.org/dc/dcmitype/StillImage" />
      </cc:Work>
    </rdf:RDF>
  </metadata>
  <sodipodi:namedview
     pagecolor="#ffffff"
     bordercolor="#666666"
     borderopacity="1"
     objecttolerance="10"
     gridtolerance="10"
     guidetolerance="10"
     inkscape:pageopacity="0"
     inkscape:pageshadow="2"
     inkscape:window-width="1210"
     inkscape:window-height="722"
     id="namedview110"
     showgrid="false"
     inkscape:zoom="1.7481481"
     inkscape:cx="35.703287"
     inkscape:cy="172.26831"
     inkscape:window-x="184"
     inkscape:window-y="59"
     inkscape:window-maximized="0"
     inkscape:current-layer="axes_1"
     showguides="false" />
  <defs
     id="defs4">
    <style
       type="text/css"
       id="style6">
*{stroke-linecap:butt;stroke-linejoin:round;}
  </style>
  </defs>
  <g
     id="figure_1">
    <g
       id="patch_1">
      <path
         d=" M0 216 L144 216 L144 0 L0 0 z "
         style="fill:none;"
         id="path10" />
    </g>
    <g
       id="axes_1"
       transform="translate(-3.2,0)"
       style="stroke-linecap:butt;stroke-linejoin:round">
      <g
         id="PolyCollection_1"
         style="stroke-linecap:butt;stroke-linejoin:round">
        <defs
           id="defs14">
          <path
             d="m 36.6,-122.242 0,-6.658 1.1273,-0.916 1.1272,-0.878 1.1273,-0.786 1.1273,-0.681 1.1273,-0.589 1.1272,-0.513 1.1273,-0.451 1.1273,-0.399 1.1273,-0.355 1.1272,-0.318 1.1273,-0.287 1.1273,-0.258 1.1272,-0.235 1.1273,-0.214 1.1273,-0.194 1.1273,-0.178 1.1272,-0.163 1.1273,-0.15 1.1273,-0.138 1.1273,-0.127 1.1272,-0.117 1.1273,-0.108 1.1273,-0.1 1.1272,-0.092 1.1273,-0.086 1.1273,-0.079 1.1273,-0.074 1.1272,-0.069 1.1273,-0.063 1.1273,-0.059 1.1273,-0.055 1.1272,-0.052 1.1273,-0.047 1.1273,-0.045 1.1272,-0.041 1.1273,-0.039 1.1273,-0.036 1.1273,-0.034 1.1272,-0.031 1.1273,-0.029 1.1273,-0.028 1.1273,-0.025 1.1272,-0.024 1.1273,-0.022 1.1273,-0.021 1.1272,-0.02 1.1273,-0.018 1.1273,-0.017 1.1273,-0.016 1.1272,-0.015 1.1273,-0.014 1.1273,-0.013 1.1273,-0.013 1.1272,-0.011 1.1273,-0.011 1.1273,-0.01 1.1277,-0.01 1.127,-0.008 1.127,-0.009 1.127,-0.008 1.128,-0.007 1.127,-0.007 1.127,-0.006 1.127,-0.006 1.128,-0.006 1.127,-0.005 1.127,-0.005 1.128,-0.005 1.127,-0.004 1.127,-0.004 1.127,-0.004 1.128,-0.003 1.127,-0.004 1.127,-0.003 1.127,-0.003 1.128,-0.003 1.127,-0.002 1.127,-0.003 1.128,-0.002 1.127,-0.002 1.127,-0.002 1.127,-0.002 1.128,-0.002 1.127,-0.002 1.127,-0.002 1.127,-0.001 1.128,-0.002 1.127,-0.001 1.127,-0.002 1.128,-0.001 1.127,-0.002 1.127,-0.001 1.127,-0.001 1.128,-0.001 1.127,-0.001 1.127,-0.002 1.127,-0.001 1.128,-0.001 1.127,-0.001 0,6.658 0,0 -1.127,10e-4 -1.128,0.001 -1.127,0.001 -1.127,0.001 -1.127,0.002 -1.128,0.001 -1.127,0.001 -1.127,0.001 -1.127,0.002 -1.128,10e-4 -1.127,0.002 -1.127,0.001 -1.128,0.002 -1.127,10e-4 -1.127,0.002 -1.127,0.002 -1.128,0.002 -1.127,0.002 -1.127,0.002 -1.127,0.002 -1.128,0.002 -1.127,0.003 -1.127,0.002 -1.128,0.003 -1.127,0.003 -1.127,0.003 -1.127,0.004 -1.128,0.003 -1.127,0.004 -1.127,0.004 -1.127,0.004 -1.128,0.005 -1.127,0.005 -1.127,0.005 -1.128,0.006 -1.127,0.006 -1.127,0.006 -1.127,0.007 -1.128,0.007 -1.127,0.008 -1.127,0.008 -1.127,0.009 -1.1277,0.01 -1.1273,0.01 -1.1273,0.011 -1.1272,0.011 -1.1273,0.013 -1.1273,0.013 -1.1273,0.014 -1.1272,0.015 -1.1273,0.016 -1.1273,0.017 -1.1273,0.018 -1.1272,0.02 -1.1273,0.021 -1.1273,0.022 -1.1272,0.024 -1.1273,0.025 -1.1273,0.028 -1.1273,0.029 -1.1272,0.031 -1.1273,0.034 -1.1273,0.036 -1.1273,0.039 -1.1272,0.041 -1.1273,0.045 -1.1273,0.047 -1.1272,0.052 -1.1273,0.055 -1.1273,0.059 -1.1273,0.063 -1.1272,0.069 -1.1273,0.074 -1.1273,0.079 -1.1273,0.086 -1.1272,0.092 -1.1273,0.1 -1.1273,0.108 -1.1272,0.117 -1.1273,0.127 -1.1273,0.138 -1.1273,0.15 -1.1272,0.163 -1.1273,0.178 -1.1273,0.194 -1.1273,0.214 -1.1272,0.235 -1.1273,0.258 -1.1273,0.287 -1.1272,0.318 -1.1273,0.355 -1.1273,0.399 -1.1273,0.451 -1.1272,0.513 -1.1273,0.589 -1.1273,0.681 -1.1273,0.786 -1.1272,0.878 -1.1273,0.916 z"
             id="mbf4d397697"
             style="stroke:#000000;stroke-linecap:butt;stroke-linejoin:round;stroke-opacity:0"
             inkscape:connector-curvature="0" />
        </defs>
        <g
           clip-path="url(#p89b1df66ed)"
           id="g17"
           style="stroke-linecap:butt;stroke-linejoin:round">
          <use
             style="fill:#c2ebff;stroke:#000000;stroke-linecap:butt;stroke-linejoin:round;stroke-opacity:0"
             x="0"
             xlink:href="#mbf4d397697"
             y="216"
             id="use19"
             width="100%"
             height="100%" />
        </g>
      </g>
      <g
         id="line2d_1"
         style="stroke-linecap:butt;stroke-linejoin:round">
        <path
           clip-path="url(#p89b1df66ed)"
           d="m 36.6,53.7969 1.1273,-0.9163 1.1272,-0.8783 1.1273,-0.7855 1.1273,-0.6811 1.1273,-0.5891 1.1272,-0.513 1.1273,-0.4507 1.1273,-0.3989 1.1273,-0.3554 1.1272,-0.3182 1.1273,-0.2865 1.1273,-0.2588 1.1272,-0.2347 1.1273,-0.2134 1.1273,-0.1947 1.1273,-0.178 1.1272,-0.1632 1.1273,-0.1497 1.1273,-0.1378 1.1273,-0.1268 1.1272,-0.117 1.1273,-0.1081 1.1273,-0.0999 1.1272,-0.0925 1.1273,-0.0856 1.1273,-0.0795 1.1273,-0.0737 1.1272,-0.0684 1.1273,-0.0637 1.1273,-0.0591 1.1273,-0.055 1.1272,-0.0513 1.1273,-0.0477 1.1273,-0.0445 1.1272,-0.0414 1.1273,-0.0387 1.1273,-0.036 1.1273,-0.0337 1.1272,-0.0314 1.1273,-0.0293 1.1273,-0.0274 1.1273,-0.0255 1.1272,-0.0239 1.1273,-0.0224 1.1273,-0.0209 1.1272,-0.0195 1.1273,-0.0183 1.1273,-0.017 1.1273,-0.016 1.1272,-0.015 1.1273,-0.014 1.1273,-0.0132 1.1273,-0.0123 1.1272,-0.0116 1.1273,-0.0108 1.1273,-0.0101 1.1277,-0.0095 1.127,-0.0088 1.127,-0.0083 1.127,-0.0078 1.128,-0.0073 1.127,-0.0069 1.127,-0.0064 1.127,-0.006 1.128,-0.0056 1.127,-0.0052 1.127,-0.005 1.128,-0.0046 1.127,-0.0043 1.127,-0.0041 1.127,-0.0038 1.128,-0.0036 1.127,-0.0034 1.127,-0.0032 1.127,-0.003 1.128,-0.0028 1.127,-0.0027 1.127,-0.0025 1.128,-0.0023 1.127,-0.0021 1.127,-0.0021 1.127,-0.0019 1.128,-0.0019 1.127,-0.0017 1.127,-0.0017 1.127,-0.0016 1.128,-0.0016 1.127,-0.0015 1.127,-0.0014 1.128,-0.0014 1.127,-0.0014 1.127,-0.0013 1.127,-0.0012 1.128,-0.0012 1.127,-0.0012 1.127,-0.0012 0.182,-2e-4"
           style="fill:none;stroke:#0000ff;stroke-linecap:square;stroke-linejoin:round"
           id="path22"
           inkscape:connector-curvature="0" />
      </g>
      <g
         id="line2d_2"
         style="stroke-linecap:butt;stroke-linejoin:round">
        <path
           clip-path="url(#p89b1df66ed)"
           d="m 36.6,87.1003 1.1273,-0.9163 1.1272,-0.8783 1.1273,-0.7854 1.1273,-0.6812 1.1273,-0.589 1.1272,-0.5131 1.1273,-0.4507 1.1273,-0.3989 1.1273,-0.3553 1.1272,-0.3183 1.1273,-0.2864 1.1273,-0.2588 1.1272,-0.2347 1.1273,-0.2135 1.1273,-0.1947 1.1273,-0.178 1.1272,-0.1631 1.1273,-0.1498 1.1273,-0.1377 1.1273,-0.1269 1.1272,-0.117 1.1273,-0.108 1.1273,-0.1 1.1272,-0.0924 1.1273,-0.0857 1.1273,-0.0794 1.1273,-0.0738 1.1272,-0.0684 1.1273,-0.0636 1.1273,-0.0592 1.1273,-0.055 1.1272,-0.0512 1.1273,-0.0478 1.1273,-0.0444 1.1272,-0.0415 1.1273,-0.0387 1.1273,-0.036 1.1273,-0.0336 1.1272,-0.0314 1.1273,-0.0294 1.1273,-0.0273 1.1273,-0.0256 1.1272,-0.0239 1.1273,-0.0223 1.1273,-0.0209 1.1272,-0.0196 1.1273,-0.0182 1.1273,-0.0171 1.1273,-0.016 1.1272,-0.015 1.1273,-0.014 1.1273,-0.0132 1.1273,-0.0123 1.1272,-0.0116 1.1273,-0.0108 1.1273,-0.0101 1.1277,-0.0094 1.127,-0.0089 1.127,-0.0083 1.127,-0.0078 1.128,-0.0073 1.127,-0.0068 1.127,-0.0065 1.127,-0.006 1.128,-0.0055 1.127,-0.0053 1.127,-0.0049 1.128,-0.0047 1.127,-0.0043 1.127,-0.0041 1.127,-0.0038 1.128,-0.0036 1.127,-0.0034 1.127,-0.0031 1.127,-0.0031 1.128,-0.0028 1.127,-0.0026 1.127,-0.0025 1.128,-0.0024 1.127,-0.0021 1.127,-0.002 1.127,-0.002 1.128,-0.0018 1.127,-0.0018 1.127,-0.0017 1.127,-0.0016 1.128,-0.0015 1.127,-0.0016 1.127,-0.0014 1.128,-0.0014 1.127,-0.0013 1.127,-0.0013 1.127,-0.0013 1.128,-0.0012 1.127,-0.0012 1.127,-0.0012 0.182,-2e-4"
           style="fill:none;stroke:#0000ff;stroke-linecap:square;stroke-linejoin:round"
           id="path25"
           inkscape:connector-curvature="0" />
      </g>
      <g
         id="line2d_3"
         style="stroke-linecap:butt;stroke-linejoin:round">
        <path
           clip-path="url(#p89b1df66ed)"
           d="m 18,50.1341 111.6,0"
           style="fill:none;stroke:#ff0000;stroke-linecap:butt;stroke-linejoin:round;stroke-dasharray:6, 6;stroke-dashoffset:0"
           id="path28"
           inkscape:connector-curvature="0" />
      </g>
      <g
         id="line2d_4"
         style="stroke-linecap:butt;stroke-linejoin:round">
        <path
           clip-path="url(#p89b1df66ed)"
           d="m 36.6,94.4935 0,-50.7928"
           style="fill:none;stroke:#000000;stroke-linecap:square;stroke-linejoin:round"
           id="path31"
           inkscape:connector-curvature="0" />
      </g>
      <g
         id="line2d_5"
         style="stroke-linecap:butt;stroke-linejoin:round"
         transform="matrix(1.5942378,0,0,1.5942378,-21.749105,-18.78469)">
        <path
           clip-path="url(#p89b1df66ed)"
           d="M 36.6,31.1114 36.6,21.6"
           style="fill:none;stroke:#000000;stroke-width:0.62725896;stroke-linecap:square;stroke-linejoin:round"
           id="path34"
           inkscape:connector-curvature="0" />
      </g>
    </g>
    <g
       id="axes_2">
      <g
         id="PolyCollection_2"
         transform="translate(-3.2,0)"
         style="stroke-linecap:butt;stroke-linejoin:round">
        <defs
           id="defs38">
          <path
             d="m 36.6,-48.5404 0,-6.6579 1.1273,0.662 1.1272,0.6486 1.1273,0.635 1.1273,0.6215 1.1273,0.6081 1.1272,0.5945 1.1273,0.5811 1.1273,0.5676 1.1273,0.5542 1.1272,0.5407 1.1273,0.5272 1.1273,0.5138 1.1272,0.5005 1.1273,0.487 1.1273,0.4737 1.1273,0.4604 1.1272,0.4471 1.1273,0.4338 1.1273,0.4207 1.1273,0.4076 1.1272,0.3945 1.1273,0.3815 1.1273,0.3687 1.1272,0.3559 1.1273,0.3432 1.1273,0.3307 1.1273,0.3183 1.1272,0.306 1.1273,0.294 1.1273,0.2821 1.1273,0.2703 1.1272,0.2589 1.1273,0.2476 1.1273,0.2366 1.1272,0.2258 1.1273,0.2153 1.1273,0.2051 1.1273,0.195 1.1272,0.1854 1.1273,0.1761 1.1273,0.167 1.1273,0.1582 1.1272,0.1498 1.1273,0.1417 1.1273,0.1339 1.1272,0.1264 1.1273,0.1193 1.1273,0.1124 1.1273,0.106 1.1272,0.0997 1.1273,0.0937 1.1273,0.0881 1.1273,0.0827 1.1272,0.0777 1.1273,0.0728 1.1273,0.0683 1.1277,0.0639 1.127,0.0599 1.127,0.0561 1.127,0.0525 1.128,0.0491 1.127,0.0459 1.127,0.043 1.127,0.0401 1.128,0.0375 1.127,0.035 1.127,0.0327 1.128,0.0305 1.127,0.0286 1.127,0.0267 1.127,0.025 1.128,0.0232 1.127,0.0218 1.127,0.0203 1.127,0.019 1.128,0.0177 1.127,0.0166 1.127,0.0155 1.128,0.0145 1.127,0.0137 1.127,0.0128 1.127,0.012 1.128,0.0113 1.127,0.0106 1.127,0.0101 1.127,0.0094 1.128,0.009 1.127,0.0086 1.127,0.0081 1.128,0.0078 1.127,0.0074 1.127,0.0072 1.127,0.007 1.128,0.0067 1.127,0.0066 1.127,0.0064 1.127,0.0064 1.128,0.0064 1.127,0.0063 0,6.658 0,0 -1.127,-0.0064 -1.128,-0.0063 -1.127,-0.0064 -1.127,-0.0065 -1.127,-0.0066 -1.128,-0.0067 -1.127,-0.0069 -1.127,-0.0072 -1.127,-0.0075 -1.128,-0.0078 -1.127,-0.0081 -1.127,-0.0085 -1.128,-0.009 -1.127,-0.0095 -1.127,-0.01 -1.127,-0.0106 -1.128,-0.0113 -1.127,-0.0121 -1.127,-0.0128 -1.127,-0.0136 -1.128,-0.0146 -1.127,-0.0155 -1.127,-0.0165 -1.128,-0.0178 -1.127,-0.0189 -1.127,-0.0204 -1.127,-0.0217 -1.128,-0.0233 -1.127,-0.0249 -1.127,-0.0267 -1.127,-0.0286 -1.128,-0.0306 -1.127,-0.0327 -1.127,-0.035 -1.128,-0.0374 -1.127,-0.0402 -1.127,-0.0429 -1.127,-0.0459 -1.128,-0.0491 -1.127,-0.0525 -1.127,-0.0561 -1.127,-0.0599 -1.1277,-0.064 -1.1273,-0.0683 -1.1273,-0.0728 -1.1272,-0.0776 -1.1273,-0.0827 -1.1273,-0.0881 -1.1273,-0.0938 -1.1272,-0.0997 -1.1273,-0.1059 -1.1273,-0.1124 -1.1273,-0.1193 -1.1272,-0.1264 -1.1273,-0.1339 -1.1273,-0.1417 -1.1272,-0.1498 -1.1273,-0.1583 -1.1273,-0.167 -1.1273,-0.176 -1.1272,-0.1854 -1.1273,-0.1951 -1.1273,-0.205 -1.1273,-0.2153 -1.1272,-0.2258 -1.1273,-0.2366 -1.1273,-0.2476 -1.1272,-0.2589 -1.1273,-0.2704 -1.1273,-0.282 -1.1273,-0.294 -1.1272,-0.3061 -1.1273,-0.3182 -1.1273,-0.3307 -1.1273,-0.3433 -1.1272,-0.3558 -1.1273,-0.3687 -1.1273,-0.3815 -1.1272,-0.3946 -1.1273,-0.4075 -1.1273,-0.4207 -1.1273,-0.4339 -1.1272,-0.4471 -1.1273,-0.4603 -1.1273,-0.4737 -1.1273,-0.4871 -1.1272,-0.5004 -1.1273,-0.5138 -1.1273,-0.5273 -1.1272,-0.5407 -1.1273,-0.5541 -1.1273,-0.5676 -1.1273,-0.5811 -1.1272,-0.5946 -1.1273,-0.608 -1.1273,-0.6216 -1.1273,-0.635 -1.1272,-0.6485 -1.1273,-0.6621 z"
             id="m8d358ceee6"
             style="stroke:#000000;stroke-linecap:butt;stroke-linejoin:round;stroke-opacity:0"
             inkscape:connector-curvature="0" />
        </defs>
        <g
           clip-path="url(#p610f3e2a1a)"
           id="g41"
           style="stroke-linecap:butt;stroke-linejoin:round">
          <use
             style="fill:#c2ebff;stroke:#000000;stroke-linecap:butt;stroke-linejoin:round;stroke-opacity:0"
             x="0"
             xlink:href="#m8d358ceee6"
             y="216"
             id="use43"
             width="100%"
             height="100%" />
        </g>
      </g>
      <g
         id="line2d_6"
         transform="translate(-3.2,0)"
         style="stroke-linecap:butt;stroke-linejoin:round">
        <path
           clip-path="url(#p610f3e2a1a)"
           d="m 36.6,113.245 1.1273,0.662 1.1272,0.648 1.1273,0.635 1.1273,0.622 1.1273,0.608 1.1272,0.595 1.1273,0.581 1.1273,0.567 1.1273,0.554 1.1272,0.541 1.1273,0.527 1.1273,0.514 1.1272,0.501 1.1273,0.487 1.1273,0.473 1.1273,0.461 1.1272,0.447 1.1273,0.434 1.1273,0.42 1.1273,0.408 1.1272,0.394 1.1273,0.382 1.1273,0.369 1.1272,0.356 1.1273,0.343 1.1273,0.33 1.1273,0.319 1.1272,0.306 1.1273,0.294 1.1273,0.282 1.1273,0.27 1.1272,0.259 1.1273,0.248 1.1273,0.236 1.1272,0.226 1.1273,0.215 1.1273,0.205 1.1273,0.196 1.1272,0.185 1.1273,0.176 1.1273,0.167 1.1273,0.158 1.1272,0.15 1.1273,0.142 1.1273,0.134 1.1272,0.126 1.1273,0.119 1.1273,0.113 1.1273,0.106 1.1272,0.099 1.1273,0.094 1.1273,0.088 1.1273,0.083 1.1272,0.078 1.1273,0.072 1.1273,0.069 1.1277,0.064 1.127,0.06 1.127,0.056 1.127,0.052 1.128,0.049 1.127,0.046 1.127,0.043 1.127,0.04 1.128,0.038 1.127,0.035 1.127,0.032 1.128,0.031 1.127,0.028 1.127,0.027 1.127,0.025 1.128,0.023 1.127,0.022 1.127,0.02 1.127,0.019 1.128,0.018 1.127,0.017 1.127,0.015 1.128,0.015 1.127,0.013 1.127,0.013 1.127,0.012 1.128,0.012 1.127,0.01 1.127,0.01 1.127,0.01 1.128,0.009 1.127,0.008 1.127,0.008 1.128,0.008 1.127,0.008 1.127,0.007 1.127,0.007 1.128,0.006 1.127,0.007 1.127,0.007 0.182,0.001"
           style="fill:none;stroke:#0000ff;stroke-linecap:square;stroke-linejoin:round"
           id="path46"
           inkscape:connector-curvature="0" />
      </g>
      <g
         id="line2d_7"
         transform="translate(-3.2,0)"
         style="stroke-linecap:butt;stroke-linejoin:round">
        <path
           clip-path="url(#p610f3e2a1a)"
           d="m 36.6,160.802 1.1273,0.662 1.1272,0.648 1.1273,0.635 1.1273,0.622 1.1273,0.608 1.1272,0.594 1.1273,0.582 1.1273,0.567 1.1273,0.554 1.1272,0.541 1.1273,0.527 1.1273,0.514 1.1272,0.5 1.1273,0.488 1.1273,0.473 1.1273,0.461 1.1272,0.447 1.1273,0.434 1.1273,0.42 1.1273,0.408 1.1272,0.394 1.1273,0.382 1.1273,0.369 1.1272,0.355 1.1273,0.344 1.1273,0.33 1.1273,0.319 1.1272,0.306 1.1273,0.294 1.1273,0.282 1.1273,0.27 1.1272,0.259 1.1273,0.248 1.1273,0.236 1.1272,0.226 1.1273,0.215 1.1273,0.205 1.1273,0.195 1.1272,0.186 1.1273,0.176 1.1273,0.167 1.1273,0.158 1.1272,0.15 1.1273,0.142 1.1273,0.133 1.1272,0.127 1.1273,0.119 1.1273,0.113 1.1273,0.105 1.1272,0.1 1.1273,0.094 1.1273,0.088 1.1273,0.083 1.1272,0.077 1.1273,0.073 1.1273,0.068 1.1277,0.064 1.127,0.06 1.127,0.056 1.127,0.053 1.128,0.049 1.127,0.046 1.127,0.043 1.127,0.04 1.128,0.037 1.127,0.035 1.127,0.033 1.128,0.031 1.127,0.028 1.127,0.027 1.127,0.025 1.128,0.023 1.127,0.022 1.127,0.02 1.127,0.019 1.128,0.018 1.127,0.017 1.127,0.015 1.128,0.015 1.127,0.013 1.127,0.013 1.127,0.012 1.128,0.011 1.127,0.011 1.127,0.01 1.127,0.01 1.128,0.009 1.127,0.008 1.127,0.008 1.128,0.008 1.127,0.007 1.127,0.008 1.127,0.007 1.128,0.006 1.127,0.007 1.127,0.006 0.182,0.001"
           style="fill:none;stroke:#0000ff;stroke-linecap:square;stroke-linejoin:round"
           id="path49"
           inkscape:connector-curvature="0" />
      </g>
      <g
         id="line2d_8"
         transform="translate(-3.2,0)"
         style="stroke-linecap:butt;stroke-linejoin:round">
        <path
           clip-path="url(#p610f3e2a1a)"
           d="m 18,141.443 111.6,0"
           style="fill:none;stroke:#ff0000;stroke-linecap:butt;stroke-linejoin:round;stroke-dasharray:6, 6;stroke-dashoffset:0"
           id="path52"
           inkscape:connector-curvature="0" />
      </g>
      <g
         id="line2d_9"
         transform="translate(-3.2,0)"
         style="stroke-linecap:butt;stroke-linejoin:round">
        <path
           clip-path="url(#p610f3e2a1a)"
           d="m 36.6,167.984 0,-12.274"
           style="fill:none;stroke:#000000;stroke-linecap:square;stroke-linejoin:round"
           id="path55"
           inkscape:connector-curvature="0" />
      </g>
      <g
         id="line2d_10"
         transform="translate(-3.2,0)"
         style="stroke-linecap:butt;stroke-linejoin:round">
        <path
           clip-path="url(#p610f3e2a1a)"
           d="m 36.6,146.199 0,-35.774"
           style="fill:none;stroke:#000000;stroke-linecap:square;stroke-linejoin:round"
           id="path58"
           inkscape:connector-curvature="0" />
      </g>
      <g
         id="line2d_11"
         transform="translate(-3.2,0)"
         style="stroke-linecap:butt;stroke-linejoin:round">
        <path
           clip-path="url(#p610f3e2a1a)"
           d="m 35.484,156.661 2.232,-1.902"
           style="fill:none;stroke:#000000;stroke-linecap:square;stroke-linejoin:round"
           id="path61"
           inkscape:connector-curvature="0" />
      </g>
      <g
         id="line2d_12"
         transform="translate(-3.2,0)"
         style="stroke-linecap:butt;stroke-linejoin:round">
        <path
           clip-path="url(#p610f3e2a1a)"
           d="m 35.484,147.15 2.232,-1.902"
           style="fill:none;stroke:#000000;stroke-linecap:square;stroke-linejoin:round"
           id="path64"
           inkscape:connector-curvature="0" />
      </g>
      <g
         id="text_1"
         transform="translate(-3.2,0)"
         style="stroke-linecap:butt;stroke-linejoin:round">
        <text
           style="font-style:normal;font-size:10px;font-family:'Bitstream Vera Sans';text-anchor:middle;stroke-linecap:butt;stroke-linejoin:round"
           x="92.400002"
           y="158.4696"
           id="text67">GaAs</text>
      </g>
      <g
         id="text_2"
         transform="translate(-3.2,0)"
         style="stroke-linecap:butt;stroke-linejoin:round">
        <text
           style="font-style:normal;font-size:10px;font-family:'Bitstream Vera Sans';text-anchor:middle;stroke-linecap:butt;stroke-linejoin:round"
           x="92.400002"
           y="65.73381"
           id="text70">InAs</text>
      </g>
      <g
         id="text_3"
         transform="translate(-3.2,1.6)"
         style="stroke-linecap:butt;stroke-linejoin:round">
        <text
           style="font-style:normal;font-size:10px;font-family:'Bitstream Vera Sans';text-anchor:middle;stroke-linecap:butt;stroke-linejoin:round"
           x="140.75999"
           y="145.96577"
           id="text73">$E_F$</text>
      </g>
      <g
         id="text_4"
         transform="translate(-3.2,0)"
         style="stroke-linecap:butt;stroke-linejoin:round">
        <text
           style="font-style:normal;font-size:10px;font-family:'Bitstream Vera Sans';text-anchor:middle;stroke-linecap:butt;stroke-linejoin:round"
           x="140.75999"
           y="134.55212"
           id="text76">$E_C$</text>
      </g>
      <g
         id="text_5"
         transform="translate(-3.2,0)"
         style="stroke-linecap:butt;stroke-linejoin:round">
        <text
           style="font-style:normal;font-size:10px;font-family:'Bitstream Vera Sans';text-anchor:middle;stroke-linecap:butt;stroke-linejoin:round"
           x="140.75999"
           y="182.10895"
           id="text79">$E_V$</text>
      </g>
      <g
         id="text_6"
         transform="translate(-3.2,0)"
         style="stroke-linecap:butt;stroke-linejoin:round">
        <text
           style="font-style:normal;font-size:10px;font-family:'Bitstream Vera Sans';text-anchor:middle;stroke-linecap:butt;stroke-linejoin:round"
           x="18"
           y="137.40553"
           id="text82">$E_{redox}$</text>
      </g>
      <g
         id="text_7"
         transform="translate(-3.2,1.6)"
         style="stroke-linecap:butt;stroke-linejoin:round">
        <text
           style="font-style:normal;font-size:10px;font-family:'Bitstream Vera Sans';text-anchor:middle;stroke-linecap:butt;stroke-linejoin:round"
           x="140.75999"
           y="56.558949"
           id="text85">$E_F$</text>
      </g>
      <g
         id="text_8"
         transform="translate(-3.2,0)"
         style="stroke-linecap:butt;stroke-linejoin:round">
        <text
           style="font-style:normal;font-size:10px;font-family:'Bitstream Vera Sans';text-anchor:middle;stroke-linecap:butt;stroke-linejoin:round"
           x="140.75999"
           y="45.145313"
           id="text88">$E_C$</text>
      </g>
      <g
         id="text_9"
         transform="translate(-3.2,0)"
         style="stroke-linecap:butt;stroke-linejoin:round">
        <text
           style="font-style:normal;font-size:10px;font-family:'Bitstream Vera Sans';text-anchor:middle;stroke-linecap:butt;stroke-linejoin:round"
           x="140.75999"
           y="81.288498"
           id="text91">$E_V$</text>
      </g>
      <g
         id="text_10"
         transform="translate(-3.2,0)"
         style="stroke-linecap:butt;stroke-linejoin:round">
        <text
           style="font-style:normal;font-size:10px;font-family:'Bitstream Vera Sans';text-anchor:middle;stroke-linecap:butt;stroke-linejoin:round"
           x="18"
           y="46.096447"
           id="text94">$E_{redox}$</text>
      </g>
      <g
         id="text_11"
         transform="translate(-3.2,0)"
         style="stroke-linecap:butt;stroke-linejoin:round" />
      <flowRoot
         xml:space="preserve"
         id="flowRoot4201"
         style="fill:black;stroke:none;stroke-opacity:1;stroke-width:1px;stroke-linejoin:miter;stroke-linecap:butt;fill-opacity:1;font-family:sans-serif;font-style:normal;font-weight:normal;font-size:40px;line-height:125%;letter-spacing:0px;word-spacing:0px;text-anchor:middle;text-align:center"><flowRegion
           id="flowRegion4203"><rect
             id="rect4205"
             width="91.525421"
             height="56.631355"
             x="-65.211861"
             y="-17.161016"
             style="stroke-linecap:butt;stroke-linejoin:round" /></flowRegion><flowPara
           id="flowPara4207"></flowPara></flowRoot>      <flowRoot
         xml:space="preserve"
         id="flowRoot4211"
         style="font-style:normal;font-weight:normal;font-size:17.5px;line-height:125%;font-family:sans-serif;text-align:end;letter-spacing:0px;word-spacing:0px;text-anchor:end;fill:#000000;fill-opacity:1;stroke:none;stroke-width:1px;stroke-linecap:butt;stroke-linejoin:miter;stroke-opacity:1"
         transform="translate(-32.033898,11.440678)"><flowRegion
           id="flowRegion4213"
           style="stroke-linecap:butt;stroke-linejoin:round"><rect
             id="rect4215"
             width="136.6017"
             height="16.016949"
             x="-77.224579"
             y="6.2923727"
             style="font-size:17.5px;text-align:end;text-anchor:end;stroke-linecap:butt;stroke-linejoin:round" /></flowRegion><flowPara
           id="flowPara4217"
           style="font-size:12px;text-align:end;text-anchor:end;stroke-linecap:butt;stroke-linejoin:round">Электролит</flowPara></flowRoot>      <flowRoot
         transform="translate(116.7661,11.440678)"
         style="font-style:normal;font-weight:normal;font-size:17.5px;line-height:125%;font-family:sans-serif;text-align:start;letter-spacing:0px;word-spacing:0px;text-anchor:start;fill:#000000;fill-opacity:1;stroke:none;stroke-width:1px;stroke-linecap:butt;stroke-linejoin:miter;stroke-opacity:1"
         id="flowRoot4235"
         xml:space="preserve"><flowRegion
           style="stroke-linecap:butt;stroke-linejoin:round"
           id="flowRegion4237"><rect
             style="font-size:17.5px;text-align:start;text-anchor:start;stroke-linecap:butt;stroke-linejoin:round"
             y="6.2923727"
             x="-77.224579"
             height="16.016949"
             width="136.6017"
             id="rect4239" /></flowRegion><flowPara
           style="font-size:12px;text-align:start;text-anchor:start;stroke-linecap:butt;stroke-linejoin:round"
           id="flowPara4241">Полупроводник</flowPara></flowRoot>    </g>
  </g>
  <defs
     id="defs102">
    <clipPath
       id="p610f3e2a1a">
      <rect
         height="76.0909090909"
         width="111.6"
         x="18.0"
         y="112.909090909"
         id="rect105" />
    </clipPath>
    <clipPath
       id="p89b1df66ed">
      <rect
         height="76.0909090909"
         width="111.6"
         x="18.0"
         y="21.6"
         id="rect108" />
    </clipPath>
  </defs>
</svg>
