<?xml version="1.0" encoding="UTF-8" standalone="no"?>
<!-- Created with matplotlib (http://matplotlib.org/) -->

<svg
   xmlns:dc="http://purl.org/dc/elements/1.1/"
   xmlns:cc="http://creativecommons.org/ns#"
   xmlns:rdf="http://www.w3.org/1999/02/22-rdf-syntax-ns#"
   xmlns:svg="http://www.w3.org/2000/svg"
   xmlns="http://www.w3.org/2000/svg"
   xmlns:xlink="http://www.w3.org/1999/xlink"
   xmlns:sodipodi="http://sodipodi.sourceforge.net/DTD/sodipodi-0.dtd"
   xmlns:inkscape="http://www.inkscape.org/namespaces/inkscape"
   height="230pt"
   version="1.1"
   viewBox="0 0 288 230"
   width="288pt"
   id="svg2"
   inkscape:version="0.91 r13725"
   sodipodi:docname="IP_InAs_deep_CV.svg">
  <metadata
     id="metadata306">
    <rdf:RDF>
      <cc:Work
         rdf:about="">
        <dc:format>image/svg+xml</dc:format>
        <dc:type
           rdf:resource="http://purl.org/dc/dcmitype/StillImage" />
      </cc:Work>
    </rdf:RDF>
  </metadata>
  <sodipodi:namedview
     pagecolor="#ffffff"
     bordercolor="#666666"
     borderopacity="1"
     objecttolerance="10"
     gridtolerance="10"
     guidetolerance="10"
     inkscape:pageopacity="0"
     inkscape:pageshadow="2"
     inkscape:window-width="1827"
     inkscape:window-height="1051"
     id="namedview304"
     showgrid="false"
     inkscape:zoom="1.6417391"
     inkscape:cx="39.920319"
     inkscape:cy="124.46828"
     inkscape:window-x="84"
     inkscape:window-y="-9"
     inkscape:window-maximized="1"
     inkscape:current-layer="legend_1" />
  <defs
     id="defs4">
    <style
       type="text/css"
       id="style6">
*{stroke-linecap:butt;stroke-linejoin:round;}
  </style>
  </defs>
  <g
     id="figure_1">
    <g
       id="patch_1">
      <path
         d=" M0 230.4 L288 230.4 L288 0 L0 0 z "
         style="fill:#ffffff;"
         id="path10" />
    </g>
    <g
       id="axes_1">
      <g
         id="patch_2">
        <path
           d=" M36 201.6 L259.2 201.6 L259.2 23.04 L36 23.04 z "
           style="fill:#ffffff;"
           id="path14" />
      </g>
      <g
         id="patch_3">
        <path
           clip-path="url(#p86a06fd9fa)"
           d=" M189.051 143.568 C190.743 143.568 192.365 142.627 193.561 140.953 C194.757 139.279 195.429 137.008 195.429 134.64 C195.429 132.272 194.757 130.001 193.561 128.327 C192.365 126.653 190.743 125.712 189.051 125.712 C187.36 125.712 185.738 126.653 184.542 128.327 C183.346 130.001 182.674 132.272 182.674 134.64 C182.674 137.008 183.346 139.279 184.542 140.953 C185.738 142.627 187.36 143.568 189.051 143.568 L189.051 143.568"
           style="fill:none;stroke:#000000;stroke-linejoin:miter;stroke-width:0.5;"
           id="path17" />
      </g>
      <g
         id="patch_4">
        <path
           clip-path="url(#p86a06fd9fa)"
           d=" M178.21 197.136 C179.902 197.136 181.524 196.195 182.72 194.521 C183.915 192.847 184.587 190.576 184.587 188.208 C184.587 185.84 183.915 183.569 182.72 181.895 C181.524 180.221 179.902 179.28 178.21 179.28 C176.519 179.28 174.897 180.221 173.701 181.895 C172.505 183.569 171.833 185.84 171.833 188.208 C171.833 190.576 172.505 192.847 173.701 194.521 C174.897 196.195 176.519 197.136 178.21 197.136 L178.21 197.136"
           style="fill:none;stroke:#000000;stroke-linejoin:miter;stroke-width:0.5;"
           id="path20" />
      </g>
      <g
         id="line2d_1">
        <path
           clip-path="url(#p86a06fd9fa)"
           d=" M292.935 -154.525 M244.375 -1 L241.153 8.70745 L237.454 19.7026 L233.755 30.5299 L230.056 41.1675 L226.421 51.5922 L222.723 61.7792 L219.024 71.7028 L215.325 81.3365 L211.627 90.6535 L207.928 99.6275 L204.229 108.233 L200.53 116.446 L196.832 124.245 L193.133 131.612 L189.434 138.532 L185.735 144.994 L182.037 150.992 L178.338 156.526 L174.639 161.6 L170.94 166.222 L167.242 170.407 L163.543 174.173 L159.844 177.541 L156.145 180.536 L152.447 183.184 L148.748 185.513 L145.049 187.552 L141.35 189.328 L137.652 190.869 L133.953 192.202 L130.254 193.351 L126.555 194.339 L122.857 195.187 L119.158 195.914 L115.459 195.928 L111.76 197.044 L108.062 197.505 L104.363 197.901 L100.664 198.572 L97.0293 198.54 L93.3305 198.789 L89.6318 199.003 L85.933 199.189 L82.2343 199.35 L78.5355 199.49 L74.8368 199.613 L71.1381 199.721 L67.4393 199.815 L63.7406 199.899 L60.0418 199.973 L56.3431 200.039 L52.6443 200.098 L48.9456 200.151 L45.2469 200.198 L41.5481 200.241"
           style="fill:none;stroke:#ff0000;stroke-linecap:square;stroke-width:0.7;"
           id="path23" />
      </g>
      <g
         id="line2d_2">
        <path
           clip-path="url(#p86a06fd9fa)"
           d=" M-95.6242 201.517 M-1 201.42 L2.45623 201.413 L10.6827 201.391 L18.8455 201.364 L27.0082 201.33 L35.171 201.286 L43.3337 201.23 L51.5602 201.155 L59.723 201.053 L67.8857 200.913 L76.0485 200.717 L84.2112 200.438 L92.4377 200.039 L100.6 199.467 L108.763 198.635 L116.926 197.524 L125.089 195.942 L133.315 193.924 L141.478 191.554 L149.641 189.159 L157.803 187.335 L165.966 186.747 L174.193 187.726 L182.355 189.969 L190.518 192.73 L198.681 195.308 L206.844 197.346 L215.07 198.8"
           style="fill:none;stroke:#0000ff;stroke-linecap:square;stroke-width:0.7;"
           id="path26" />
      </g>
      <g
         id="line2d_3">
        <path
           clip-path="url(#p86a06fd9fa)"
           d=" M179.194 201.6 L244.217 -1"
           style="fill:none;stroke:#ff0000;stroke-dasharray:6.000000,6.000000;stroke-dashoffset:0.0;"
           id="path29" />
      </g>
      <g
         id="line2d_4">
        <defs
           id="defs32">
          <path
             d=" M3 5.51091e-16 L-3 -3 L-3 3 z "
             id="m7fb5a3d395" />
        </defs>
        <g
           clip-path="url(#p86a06fd9fa)"
           id="g35">
          <use
             style="fill:#0000ff;"
             x="-123.428571429"
             xlink:href="#m7fb5a3d395"
             y="201.407187925"
             id="use37" />
          <use
             style="fill:#0000ff;"
             x="-1.0"
             xlink:href="#m7fb5a3d395"
             y="201.24802106"
             id="use39" />
          <use
             style="fill:#0000ff;"
             x="10.8268662857"
             xlink:href="#m7fb5a3d395"
             y="201.20312592"
             id="use41" />
          <use
             style="fill:#0000ff;"
             x="27.6089554286"
             xlink:href="#m7fb5a3d395"
             y="201.125296874"
             id="use43" />
          <use
             style="fill:#0000ff;"
             x="44.3910445714"
             xlink:href="#m7fb5a3d395"
             y="200.98526516"
             id="use45" />
          <use
             style="fill:#0000ff;"
             x="61.1731337143"
             xlink:href="#m7fb5a3d395"
             y="200.752411195"
             id="use47" />
          <use
             style="fill:#0000ff;"
             x="77.9545851429"
             xlink:href="#m7fb5a3d395"
             y="200.298136242"
             id="use49" />
          <use
             style="fill:#0000ff;"
             x="94.7366742857"
             xlink:href="#m7fb5a3d395"
             y="199.4611438"
             id="use51" />
          <use
             style="fill:#0000ff;"
             x="111.518763429"
             xlink:href="#m7fb5a3d395"
             y="198.005026329"
             id="use53" />
          <use
             style="fill:#0000ff;"
             x="128.300852571"
             xlink:href="#m7fb5a3d395"
             y="195.38424202"
             id="use55" />
          <use
             style="fill:#0000ff;"
             x="145.082941714"
             xlink:href="#m7fb5a3d395"
             y="191.866727692"
             id="use57" />
          <use
             style="fill:#0000ff;"
             x="161.864393143"
             xlink:href="#m7fb5a3d395"
             y="189.666450062"
             id="use59" />
          <use
             style="fill:#0000ff;"
             x="178.646482286"
             xlink:href="#m7fb5a3d395"
             y="187.212715497"
             id="use61" />
          <use
             style="fill:#0000ff;"
             x="195.428571429"
             xlink:href="#m7fb5a3d395"
             y="188.910532539"
             id="use63" />
        </g>
      </g>
      <g
         id="line2d_5">
        <defs
           id="defs66">
          <path
             d=" M-3 -1.83697e-16 L3 3 L3 -3 z "
             id="m1f9a91b472" />
        </defs>
        <g
           clip-path="url(#p86a06fd9fa)"
           id="g69">
          <use
             style="fill:#ff0000;"
             x="61.5085714286"
             xlink:href="#m1f9a91b472"
             y="199.665815126"
             id="use71" />
          <use
             style="fill:#ff0000;"
             x="72.1373554286"
             xlink:href="#m1f9a91b472"
             y="198.835262561"
             id="use73" />
          <use
             style="fill:#ff0000;"
             x="82.7655017143"
             xlink:href="#m1f9a91b472"
             y="198.076093397"
             id="use75" />
          <use
             style="fill:#ff0000;"
             x="93.3942857143"
             xlink:href="#m1f9a91b472"
             y="196.980664135"
             id="use77" />
          <use
             style="fill:#ff0000;"
             x="104.023069714"
             xlink:href="#m1f9a91b472"
             y="195.317116084"
             id="use79" />
          <use
             style="fill:#ff0000;"
             x="114.651216"
             xlink:href="#m1f9a91b472"
             y="192.869576964"
             id="use81" />
          <use
             style="fill:#ff0000;"
             x="125.28"
             xlink:href="#m1f9a91b472"
             y="190.388790336"
             id="use83" />
          <use
             style="fill:#ff0000;"
             x="135.908784"
             xlink:href="#m1f9a91b472"
             y="186.467901765"
             id="use85" />
          <use
             style="fill:#ff0000;"
             x="146.536930286"
             xlink:href="#m1f9a91b472"
             y="181.693610547"
             id="use87" />
          <use
             style="fill:#ff0000;"
             x="157.165714286"
             xlink:href="#m1f9a91b472"
             y="174.015518976"
             id="use89" />
          <use
             style="fill:#ff0000;"
             x="167.794498286"
             xlink:href="#m1f9a91b472"
             y="160.870708918"
             id="use91" />
          <use
             style="fill:#ff0000;"
             x="178.422644571"
             xlink:href="#m1f9a91b472"
             y="152.632660163"
             id="use93" />
          <use
             style="fill:#ff0000;"
             x="189.051428571"
             xlink:href="#m1f9a91b472"
             y="134.307704304"
             id="use95" />
          <use
             style="fill:#ff0000;"
             x="199.680212571"
             xlink:href="#m1f9a91b472"
             y="117.791369338"
             id="use97" />
          <use
             style="fill:#ff0000;"
             x="210.308358857"
             xlink:href="#m1f9a91b472"
             y="91.9263428673"
             id="use99" />
          <use
             style="fill:#ff0000;"
             x="220.937142857"
             xlink:href="#m1f9a91b472"
             y="65.4351097712"
             id="use101" />
          <use
             style="fill:#ff0000;"
             x="231.565735543"
             xlink:href="#m1f9a91b472"
             y="44.8033806161"
             id="use103" />
        </g>
      </g>
      <g
         id="patch_5">
        <path
           d=" M36 23.04 L259.2 23.04"
           style="fill:none;stroke:#000000;stroke-linecap:square;stroke-linejoin:miter;"
           id="path106" />
      </g>
      <g
         id="patch_6">
        <path
           d=" M259.2 201.6 L259.2 23.04"
           style="fill:none;stroke:#000000;stroke-linecap:square;stroke-linejoin:miter;"
           id="path109" />
      </g>
      <g
         id="patch_7">
        <path
           d=" M36 201.6 L259.2 201.6"
           style="fill:none;stroke:#000000;stroke-linecap:square;stroke-linejoin:miter;"
           id="path112" />
      </g>
      <g
         id="patch_8">
        <path
           d=" M36 201.6 L36 23.04"
           style="fill:none;stroke:#000000;stroke-linecap:square;stroke-linejoin:miter;"
           id="path115" />
      </g>
      <g
         id="matplotlib.axis_1">
        <g
           id="xtick_1">
          <g
             id="text_1">
            <text
               style="font-family:Bitstream Vera Sans;font-size:14.0px;font-style:normal;text-anchor:middle;"
               transform="rotate(-0.000000, 36.000000, 216.237813)"
               x="36.0"
               y="216.2378125"
               id="text120">−0.2</text>
          </g>
        </g>
        <g
           id="xtick_2">
          <g
             id="line2d_6">
            <defs
               id="defs124">
              <path
                 d=" M0 0 L0 -4"
                 id="mc7db9fdffb"
                 style="stroke:#000000;stroke-width:0.5;" />
            </defs>
            <g
               id="g127">
              <use
                 style="stroke:#000000;stroke-width:0.5;"
                 x="99.7714285714"
                 xlink:href="#mc7db9fdffb"
                 y="201.6"
                 id="use129" />
            </g>
          </g>
          <g
             id="line2d_7">
            <defs
               id="defs132">
              <path
                 d=" M0 0 L0 4"
                 id="m5a7d422ac3"
                 style="stroke:#000000;stroke-width:0.5;" />
            </defs>
            <g
               id="g135">
              <use
                 style="stroke:#000000;stroke-width:0.5;"
                 x="99.7714285714"
                 xlink:href="#m5a7d422ac3"
                 y="23.04"
                 id="use137" />
            </g>
          </g>
          <g
             id="text_2">
            <text
               style="font-family:Bitstream Vera Sans;font-size:14.0px;font-style:normal;text-anchor:middle;"
               transform="rotate(-0.000000, 99.771429, 216.237813)"
               x="99.7714285714"
               y="216.2378125"
               id="text140">−0.1</text>
          </g>
        </g>
        <g
           id="xtick_3">
          <g
             id="line2d_8">
            <g
               id="g144">
              <use
                 style="stroke:#000000;stroke-width:0.5;"
                 x="163.542857143"
                 xlink:href="#mc7db9fdffb"
                 y="201.6"
                 id="use146" />
            </g>
          </g>
          <g
             id="line2d_9">
            <g
               id="g149">
              <use
                 style="stroke:#000000;stroke-width:0.5;"
                 x="163.542857143"
                 xlink:href="#m5a7d422ac3"
                 y="23.04"
                 id="use151" />
            </g>
          </g>
          <g
             id="text_3">
            <text
               style="font-family:Bitstream Vera Sans;font-size:14.0px;font-style:normal;text-anchor:middle;"
               transform="rotate(-0.000000, 163.542857, 216.237813)"
               x="163.542857143"
               y="216.2378125"
               id="text154">0.0</text>
          </g>
        </g>
        <g
           id="xtick_4">
          <g
             id="line2d_10">
            <g
               id="g158">
              <use
                 style="stroke:#000000;stroke-width:0.5;"
                 x="227.314285714"
                 xlink:href="#mc7db9fdffb"
                 y="201.6"
                 id="use160" />
            </g>
          </g>
          <g
             id="line2d_11">
            <g
               id="g163">
              <use
                 style="stroke:#000000;stroke-width:0.5;"
                 x="227.314285714"
                 xlink:href="#m5a7d422ac3"
                 y="23.04"
                 id="use165" />
            </g>
          </g>
          <g
             id="text_4">
            <text
               style="font-family:Bitstream Vera Sans;font-size:14.0px;font-style:normal;text-anchor:middle;"
               transform="rotate(-0.000000, 227.314286, 216.237813)"
               x="227.314285714"
               y="216.2378125"
               id="text168">0.1</text>
          </g>
        </g>
        <g
           id="text_5">
          <text
             style="font-family:Bitstream Vera Sans;font-size:14.0px;font-style:normal;text-anchor:middle;"
             transform="rotate(-0.000000, 147.600000, 234.787188)"
             x="147.6"
             y="234.7871875"
             id="text171">U, \si{\volt}</text>
        </g>
      </g>
      <g
         id="matplotlib.axis_2">
        <g
           id="ytick_1">
          <g
             id="line2d_12">
            <defs
               id="defs176">
              <path
                 d=" M0 0 L4 0"
                 id="md7965d1ba0"
                 style="stroke:#000000;stroke-width:0.5;" />
            </defs>
            <g
               id="g179">
              <use
                 style="stroke:#000000;stroke-width:0.5;"
                 x="36.0"
                 xlink:href="#md7965d1ba0"
                 y="201.6"
                 id="use181" />
            </g>
          </g>
          <g
             id="line2d_13">
            <defs
               id="defs184">
              <path
                 d=" M0 0 L-4 0"
                 id="md9a1c1a7cd"
                 style="stroke:#000000;stroke-width:0.5;" />
            </defs>
            <g
               id="g187">
              <use
                 style="stroke:#000000;stroke-width:0.5;"
                 x="259.2"
                 xlink:href="#md9a1c1a7cd"
                 y="201.6"
                 id="use189" />
            </g>
          </g>
          <g
             id="text_6">
            <text
               style="font-family:Bitstream Vera Sans;font-size:14.0px;font-style:normal;text-anchor:end;"
               transform="rotate(-0.000000, 32.000000, 205.463125)"
               x="32.0"
               y="205.463125"
               id="text192">0</text>
          </g>
        </g>
        <g
           id="ytick_2">
          <g
             id="line2d_14">
            <g
               id="g196">
              <use
                 style="stroke:#000000;stroke-width:0.5;"
                 x="36.0"
                 xlink:href="#md7965d1ba0"
                 y="156.96"
                 id="use198" />
            </g>
          </g>
          <g
             id="line2d_15">
            <g
               id="g201">
              <use
                 style="stroke:#000000;stroke-width:0.5;"
                 x="259.2"
                 xlink:href="#md9a1c1a7cd"
                 y="156.96"
                 id="use203" />
            </g>
          </g>
          <g
             id="text_7">
            <text
               style="font-family:Bitstream Vera Sans;font-size:14.0px;font-style:normal;text-anchor:end;"
               transform="rotate(-0.000000, 32.000000, 160.823125)"
               x="32.0"
               y="160.823125"
               id="text206">200</text>
          </g>
        </g>
        <g
           id="ytick_3">
          <g
             id="line2d_16">
            <g
               id="g210">
              <use
                 style="stroke:#000000;stroke-width:0.5;"
                 x="36.0"
                 xlink:href="#md7965d1ba0"
                 y="112.32"
                 id="use212" />
            </g>
          </g>
          <g
             id="line2d_17">
            <g
               id="g215">
              <use
                 style="stroke:#000000;stroke-width:0.5;"
                 x="259.2"
                 xlink:href="#md9a1c1a7cd"
                 y="112.32"
                 id="use217" />
            </g>
          </g>
          <g
             id="text_8">
            <text
               style="font-family:Bitstream Vera Sans;font-size:14.0px;font-style:normal;text-anchor:end;"
               transform="rotate(-0.000000, 32.000000, 116.183125)"
               x="32.0"
               y="116.183125"
               id="text220">400</text>
          </g>
        </g>
        <g
           id="ytick_4">
          <g
             id="line2d_18">
            <g
               id="g224">
              <use
                 style="stroke:#000000;stroke-width:0.5;"
                 x="36.0"
                 xlink:href="#md7965d1ba0"
                 y="67.68"
                 id="use226" />
            </g>
          </g>
          <g
             id="line2d_19">
            <g
               id="g229">
              <use
                 style="stroke:#000000;stroke-width:0.5;"
                 x="259.2"
                 xlink:href="#md9a1c1a7cd"
                 y="67.68"
                 id="use231" />
            </g>
          </g>
          <g
             id="text_9">
            <text
               style="font-family:Bitstream Vera Sans;font-size:14.0px;font-style:normal;text-anchor:end;"
               transform="rotate(-0.000000, 32.000000, 71.543125)"
               x="32.0"
               y="71.543125"
               id="text234">600</text>
          </g>
        </g>
        <g
           id="ytick_5">
          <g
             id="line2d_20">
            <g
               id="g238">
              <use
                 style="stroke:#000000;stroke-width:0.5;"
                 x="36.0"
                 xlink:href="#md7965d1ba0"
                 y="23.04"
                 id="use240" />
            </g>
          </g>
          <g
             id="line2d_21">
            <g
               id="g243">
              <use
                 style="stroke:#000000;stroke-width:0.5;"
                 x="259.2"
                 xlink:href="#md9a1c1a7cd"
                 y="23.04"
                 id="use245" />
            </g>
          </g>
          <g
             id="text_10">
            <text
               style="font-family:Bitstream Vera Sans;font-size:14.0px;font-style:normal;text-anchor:end;"
               transform="rotate(-0.000000, 32.000000, 26.903125)"
               x="32.0"
               y="26.903125"
               id="text248">800</text>
          </g>
        </g>
        <g
           id="text_11">
          <text
             style="font-family:Bitstream Vera Sans;font-size:14.0px;font-style:normal;text-anchor:middle;"
             transform="rotate(-90.000000, -1.019688, 112.320000)"
             x="-1.0196875"
             y="112.32"
             id="text251">1/C$^2$, \si{\micro\farad^{-2}\cm^{-4}}</text>
        </g>
      </g>
      <g
         id="text_12">
        <text
           style="font-family:Bitstream Vera Sans;font-size:14.0px;font-style:normal;text-anchor:end;"
           transform="rotate(-0.000000, 208.182857, 90.000000)"
           x="208.182857143"
           y="90.0"
           id="text254">\textit{n}\,=\,\SI{1e+15}{\cm^{-3}}</text>
      </g>
      <g
         id="patch_9">
        <path
           d=" M153.696 117.953 Q168.527 123.703 183.358 129.452"
           style="fill:none;stroke:#000000;stroke-linecap:round;stroke-width:0.5;"
           id="path257" />
      </g>
      <g
         id="text_13">
        <text
           style="font-family:Bitstream Vera Sans;font-size:14.0px;font-style:normal;text-anchor:end;"
           transform="rotate(-0.000000, 163.542857, 112.320000)"
           x="163.542857143"
           y="112.32"
           id="text260">\deepdepl</text>
      </g>
      <g
         id="patch_10">
        <path
           d=" M135.506 162.807 Q154.38 172.807 173.254 182.807"
           style="fill:none;stroke:#000000;stroke-linecap:round;stroke-width:0.5;"
           id="path263" />
      </g>
      <g
         id="text_14">
        <text
           style="font-family:Bitstream Vera Sans;font-size:14.0px;font-style:normal;text-anchor:end;"
           transform="rotate(-0.000000, 163.542857, 156.960000)"
           x="163.542857143"
           y="156.96"
           id="text266">\normalmode</text>
      </g>
      <g
         id="legend_1">
        <g
           id="line2d_22" />
        <use
           style="fill:#0000ff;stroke-linecap:butt;stroke-linejoin:round"
           x="52.799999"
           xlink:href="#m7fb5a3d395"
           y="41.377811"
           id="use273"
           width="100%"
           height="100%" />
        <use
           style="fill:#0000ff;stroke-linecap:butt;stroke-linejoin:round"
           x="72.400002"
           xlink:href="#m7fb5a3d395"
           y="41.377811"
           id="use275"
           width="100%"
           height="100%"
           transform="translate(-11.2,0)" />
        <g
           id="line2d_25" />
        <g
           id="line2d_26" />
        <use
           style="fill:#ff0000;stroke-linecap:butt;stroke-linejoin:round"
           x="61.200001"
           xlink:href="#m1f9a91b472"
           y="41.377811"
           id="use285"
           width="100%"
           height="100%"
           transform="translate(9.6,0)" />
        <use
           style="fill:#ff0000;stroke-linecap:butt;stroke-linejoin:round"
           x="80.800003"
           xlink:href="#m1f9a91b472"
           y="41.377811"
           id="use287"
           width="100%"
           height="100%"
           transform="translate(-1.6,0)" />
        <g
           id="text_15">
          <text
             style="font-family:Bitstream Vera Sans;font-size:14.0px;font-style:normal;text-anchor:start;"
             transform="rotate(-0.000000, 96.200000, 46.277813)"
             x="96.2"
             y="46.2778125"
             id="text290">\data</text>
        </g>
        <g
           id="line2d_28"
           transform="matrix(1.6152653,0,0,1.6152653,-47.215625,-38.27394)"
           style="stroke-linecap:butt;stroke-linejoin:round">
          <path
             d="m 61.2,61.9272 19.6,0"
             style="fill:none;stroke:#0000ff;stroke-width:0.43336535;stroke-linecap:square;stroke-linejoin:round"
             id="path293"
             inkscape:connector-curvature="0" />
        </g>
        <g
           id="line2d_29" />
        <g
           id="text_16">
          <text
             style="font-family:Bitstream Vera Sans;font-size:14.0px;font-style:normal;text-anchor:start;"
             transform="rotate(-0.000000, 96.200000, 66.827188)"
             x="96.2"
             y="66.8271875"
             id="text297">\fit</text>
        </g>
      </g>
    </g>
  </g>
  <defs
     id="defs299">
    <clipPath
       id="p86a06fd9fa">
      <rect
         height="178.56"
         width="223.2"
         x="36.0"
         y="23.04"
         id="rect302" />
    </clipPath>
  </defs>
</svg>
