<?xml version="1.0" encoding="UTF-8" standalone="no"?>
<!-- Created with matplotlib (http://matplotlib.org/) -->

<svg
   xmlns:dc="http://purl.org/dc/elements/1.1/"
   xmlns:cc="http://creativecommons.org/ns#"
   xmlns:rdf="http://www.w3.org/1999/02/22-rdf-syntax-ns#"
   xmlns:svg="http://www.w3.org/2000/svg"
   xmlns="http://www.w3.org/2000/svg"
   xmlns:xlink="http://www.w3.org/1999/xlink"
   xmlns:sodipodi="http://sodipodi.sourceforge.net/DTD/sodipodi-0.dtd"
   xmlns:inkscape="http://www.inkscape.org/namespaces/inkscape"
   height="232.89282pt"
   version="1.1"
   viewBox="0 0 251.33569 232.89282"
   width="251.33569pt"
   id="svg2"
   inkscape:version="0.91 "
   sodipodi:docname="opt-cap.svg">
  <metadata
     id="metadata644">
    <rdf:RDF>
      <cc:Work
         rdf:about="">
        <dc:format>image/svg+xml</dc:format>
        <dc:type
           rdf:resource="http://purl.org/dc/dcmitype/StillImage" />
        <dc:title />
      </cc:Work>
    </rdf:RDF>
  </metadata>
  <sodipodi:namedview
     pagecolor="#ffffff"
     bordercolor="#666666"
     borderopacity="1"
     objecttolerance="10"
     gridtolerance="10"
     guidetolerance="10"
     inkscape:pageopacity="0"
     inkscape:pageshadow="2"
     inkscape:window-width="1828"
     inkscape:window-height="1051"
     id="namedview642"
     showgrid="false"
     inkscape:zoom="1.6575095"
     inkscape:cx="91.892711"
     inkscape:cy="63.887071"
     inkscape:window-x="83"
     inkscape:window-y="-9"
     inkscape:window-maximized="1"
     inkscape:current-layer="svg2"
     fit-margin-top="0"
     fit-margin-left="0"
     fit-margin-right="0"
     fit-margin-bottom="0" />
  <defs
     id="defs4"
     style="stroke-linecap:butt;stroke-linejoin:round">
    <style
       type="text/css"
       id="style6">
*{stroke-linecap:butt;stroke-linejoin:round;}
  </style>
    <clipPath
       clipPathUnits="userSpaceOnUse"
       id="clipPath26-7"
       style="stroke-linecap:butt;stroke-linejoin:round">
      <path
         inkscape:connector-curvature="0"
         d="m 607,6415.67 409,0 0,-114 -409,0 0,114 z"
         id="path28-2-8"
         style="stroke-linecap:butt;stroke-linejoin:round" />
    </clipPath>
    <clipPath
       clipPathUnits="userSpaceOnUse"
       id="clipPath40-7"
       style="stroke-linecap:butt;stroke-linejoin:round">
      <path
         inkscape:connector-curvature="0"
         d="m 856,6425.67 160,0 0,-122 -160,0 0,122 z"
         id="path42-8-8"
         style="stroke-linecap:butt;stroke-linejoin:round" />
    </clipPath>
    <clipPath
       id="p636487054d-6"
       style="stroke-linecap:butt;stroke-linejoin:round">
      <rect
         height="83.699997"
         width="186.92999"
         x="30.15"
         y="105.3"
         id="rect640-6"
         style="stroke-linecap:butt;stroke-linejoin:round" />
    </clipPath>
    <clipPath
       id="clipPath4610"
       style="stroke-linecap:butt;stroke-linejoin:round">
      <rect
         height="83.699997"
         width="186.92999"
         x="30.15"
         y="105.3"
         id="rect4612"
         style="stroke-linecap:butt;stroke-linejoin:round" />
    </clipPath>
    <clipPath
       id="clipPath4614"
       style="stroke-linecap:butt;stroke-linejoin:round">
      <rect
         height="83.699997"
         width="186.92999"
         x="30.15"
         y="105.3"
         id="rect4616"
         style="stroke-linecap:butt;stroke-linejoin:round" />
    </clipPath>
    <clipPath
       id="paaa24e35c9-3"
       style="stroke-linecap:butt;stroke-linejoin:round">
      <rect
         height="83.699997"
         width="186.92999"
         x="30.15"
         y="21.6"
         id="rect637-4"
         style="stroke-linecap:butt;stroke-linejoin:round" />
    </clipPath>
  </defs>
  <defs
     id="defs634">
    <clipPath
       id="paaa24e35c9"
       style="stroke-linecap:butt;stroke-linejoin:round">
      <rect
         height="83.699997"
         width="186.92999"
         x="30.15"
         y="21.6"
         id="rect637"
         style="stroke-linecap:butt;stroke-linejoin:round" />
    </clipPath>
    <clipPath
       id="p636487054d"
       style="stroke-linecap:butt;stroke-linejoin:round">
      <rect
         height="83.699997"
         width="186.92999"
         x="30.15"
         y="105.3"
         id="rect640"
         style="stroke-linecap:butt;stroke-linejoin:round" />
    </clipPath>
  </defs>
  <g
     id="patch_2"
     style="stroke-linecap:butt;stroke-linejoin:round"
     transform="matrix(1,0,0,1.0530074,10.695171,-6.9559974)">
    <path
       d="m 30.15,105.3 186.93,0 0,-83.7 -186.93,0 z"
       style="fill:#ffffff;stroke-linecap:butt;stroke-linejoin:round"
       id="path14"
       inkscape:connector-curvature="0" />
  </g>
  <g
     id="line2d_1"
     style="stroke-linecap:butt;stroke-linejoin:round"
     transform="translate(10.695171,-1.3743174)">
    <path
       clip-path="url(#paaa24e35c9-3)"
       d="m 33.2655,31.7753 0.3115,0 0.6232,0 0.623,-1.695 0.3116,0 0.3116,0 0.3115,0 0.3115,0 0.9347,1.695 0.3116,1.5332 0.3115,0 0.6231,1.3997 0.3116,0 1.2461,2.4798 0.6231,1.1099 1.8694,3.8028 1.2462,2.3584 1.5577,2.6873 1.5577,2.3021 1.5578,2.0135 1.5578,1.7892 1.5577,1.9886 1.5577,1.0849 1.8694,1.6599 1.5577,1.2147 3.427,2.6874 1.5578,0.9607 1.5577,0.6846 1.5578,0.8698 1.5578,1.025 1.8692,0.9635 2.1809,1.085 14.3313,5.8075 31.7783,8.8626 61.064,9.8717 30.531,3.2281"
       style="fill:none;stroke:#0000ff;stroke-linecap:square;stroke-linejoin:round"
       id="path17"
       inkscape:connector-curvature="0" />
  </g>
  <g
     id="patch_3"
     style="stroke-linecap:butt;stroke-linejoin:round"
     transform="matrix(1,0,0,1.0530074,10.695171,-6.9559974)">
    <path
       d="m 217.08,105.3 0,-83.7"
       style="fill:none;stroke:#000000;stroke-width:0.97450548;stroke-linecap:square;stroke-linejoin:miter"
       id="path20"
       inkscape:connector-curvature="0" />
  </g>
  <g
     id="patch_4"
     style="stroke-linecap:butt;stroke-linejoin:round"
     transform="matrix(1,0,0,1.0530074,10.695171,-6.9559974)">
    <path
       d="m 30.15,105.3 0,-83.7"
       style="fill:none;stroke:#000000;stroke-width:0.97450548;stroke-linecap:square;stroke-linejoin:miter"
       id="path23"
       inkscape:connector-curvature="0" />
  </g>
  <g
     id="patch_5"
     style="stroke-linecap:butt;stroke-linejoin:round"
     transform="translate(10.695171,-1.3743174)">
    <path
       d="m 30.15,105.3 186.93,0"
       style="fill:none;stroke:#000000;stroke-linecap:square;stroke-linejoin:miter"
       id="path26"
       inkscape:connector-curvature="0" />
  </g>
  <g
     id="patch_6"
     style="stroke-linecap:butt;stroke-linejoin:round"
     transform="matrix(1,0,0,1.0530074,10.695171,-6.9559974)">
    <path
       d="m 30.15,21.6 186.93,0"
       style="fill:none;stroke:#000000;stroke-width:0.97450548;stroke-linecap:square;stroke-linejoin:miter"
       id="path29"
       inkscape:connector-curvature="0" />
  </g>
  <g
     id="line2d_2"
     style="stroke-linecap:butt;stroke-linejoin:round"
     transform="translate(10.695171,-1.3743174)">
    <defs
       id="defs34">
      <path
         d="M 0,0 4,0"
         id="md7965d1ba0"
         style="stroke:#000000;stroke-width:0.5;stroke-linecap:butt;stroke-linejoin:round"
         inkscape:connector-curvature="0" />
    </defs>
    <g
       id="g37"
       style="stroke-linecap:butt;stroke-linejoin:round">
      <use
         style="stroke:#000000;stroke-width:0.5;stroke-linecap:butt;stroke-linejoin:round"
         x="30.15"
         xlink:href="#md7965d1ba0"
         y="69.791901"
         id="use39"
         width="100%"
         height="100%" />
    </g>
  </g>
  <g
     id="line2d_3"
     style="stroke-linecap:butt;stroke-linejoin:round"
     transform="translate(10.695171,-1.3743174)">
    <defs
       id="defs42">
      <path
         d="M 0,0 -4,0"
         id="md9a1c1a7cd"
         style="stroke:#000000;stroke-width:0.5;stroke-linecap:butt;stroke-linejoin:round"
         inkscape:connector-curvature="0" />
    </defs>
    <g
       id="g45"
       style="stroke-linecap:butt;stroke-linejoin:round">
      <use
         style="stroke:#000000;stroke-width:0.5;stroke-linecap:butt;stroke-linejoin:round"
         x="217.08"
         xlink:href="#md9a1c1a7cd"
         y="69.791901"
         id="use47"
         width="100%"
         height="100%" />
    </g>
  </g>
  <g
     id="line2d_4"
     style="stroke-linecap:butt;stroke-linejoin:round"
     transform="translate(10.695171,-1.3743174)">
    <g
       id="g54"
       style="stroke-linecap:butt;stroke-linejoin:round">
      <use
         style="stroke:#000000;stroke-width:0.5;stroke-linecap:butt;stroke-linejoin:round"
         x="30.15"
         xlink:href="#md7965d1ba0"
         y="32.750557"
         id="use56"
         width="100%"
         height="100%" />
    </g>
  </g>
  <g
     id="line2d_5"
     style="stroke-linecap:butt;stroke-linejoin:round"
     transform="translate(10.695171,-1.3743174)">
    <g
       id="g59"
       style="stroke-linecap:butt;stroke-linejoin:round">
      <use
         style="stroke:#000000;stroke-width:0.5;stroke-linecap:butt;stroke-linejoin:round"
         x="217.08"
         xlink:href="#md9a1c1a7cd"
         y="32.750557"
         id="use61"
         width="100%"
         height="100%" />
    </g>
  </g>
  <g
     style="stroke-linecap:butt;stroke-linejoin:round"
     id="ytick_3"
     transform="translate(10.695171,-1.3743174)">
    <g
       style="stroke-linecap:butt;stroke-linejoin:round"
       id="line2d_6">
      <defs
         id="defs68">
        <path
           inkscape:connector-curvature="0"
           style="stroke:#000000;stroke-width:0.5;stroke-linecap:butt;stroke-linejoin:round"
           id="m8d45281ad4"
           d="M 0,0 2,0" />
      </defs>
      <g
         style="stroke-linecap:butt;stroke-linejoin:round"
         id="g71">
        <use
           height="100%"
           width="100%"
           id="use73"
           y="95.682686"
           xlink:href="#m8d45281ad4"
           x="30.15"
           style="stroke:#000000;stroke-width:0.5;stroke-linecap:butt;stroke-linejoin:round" />
      </g>
    </g>
    <g
       style="stroke-linecap:butt;stroke-linejoin:round"
       id="line2d_7">
      <defs
         id="defs76">
        <path
           inkscape:connector-curvature="0"
           style="stroke:#000000;stroke-width:0.5;stroke-linecap:butt;stroke-linejoin:round"
           id="me3f9b4022a"
           d="M 0,0 -2,0" />
      </defs>
      <g
         style="stroke-linecap:butt;stroke-linejoin:round"
         id="g79">
        <use
           height="100%"
           width="100%"
           id="use81"
           y="95.682686"
           xlink:href="#me3f9b4022a"
           x="217.08"
           style="stroke:#000000;stroke-width:0.5;stroke-linecap:butt;stroke-linejoin:round" />
      </g>
    </g>
  </g>
  <g
     style="stroke-linecap:butt;stroke-linejoin:round"
     id="ytick_4"
     transform="translate(10.695171,-1.3743174)">
    <g
       style="stroke-linecap:butt;stroke-linejoin:round"
       id="line2d_8">
      <g
         style="stroke-linecap:butt;stroke-linejoin:round"
         id="g85">
        <use
           height="100%"
           width="100%"
           id="use87"
           y="89.160027"
           xlink:href="#m8d45281ad4"
           x="30.15"
           style="stroke:#000000;stroke-width:0.5;stroke-linecap:butt;stroke-linejoin:round" />
      </g>
    </g>
    <g
       style="stroke-linecap:butt;stroke-linejoin:round"
       id="line2d_9">
      <g
         style="stroke-linecap:butt;stroke-linejoin:round"
         id="g90">
        <use
           height="100%"
           width="100%"
           id="use92"
           y="89.160027"
           xlink:href="#me3f9b4022a"
           x="217.08"
           style="stroke:#000000;stroke-width:0.5;stroke-linecap:butt;stroke-linejoin:round" />
      </g>
    </g>
  </g>
  <g
     style="stroke-linecap:butt;stroke-linejoin:round"
     id="ytick_5"
     transform="translate(10.695171,-1.3743174)">
    <g
       style="stroke-linecap:butt;stroke-linejoin:round"
       id="line2d_10">
      <g
         style="stroke-linecap:butt;stroke-linejoin:round"
         id="g96">
        <use
           height="100%"
           width="100%"
           id="use98"
           y="84.532127"
           xlink:href="#m8d45281ad4"
           x="30.15"
           style="stroke:#000000;stroke-width:0.5;stroke-linecap:butt;stroke-linejoin:round" />
      </g>
    </g>
    <g
       style="stroke-linecap:butt;stroke-linejoin:round"
       id="line2d_11">
      <g
         style="stroke-linecap:butt;stroke-linejoin:round"
         id="g101">
        <use
           height="100%"
           width="100%"
           id="use103"
           y="84.532127"
           xlink:href="#me3f9b4022a"
           x="217.08"
           style="stroke:#000000;stroke-width:0.5;stroke-linecap:butt;stroke-linejoin:round" />
      </g>
    </g>
  </g>
  <g
     style="stroke-linecap:butt;stroke-linejoin:round"
     id="ytick_6"
     transform="translate(10.695171,-1.3743174)">
    <g
       style="stroke-linecap:butt;stroke-linejoin:round"
       id="line2d_12">
      <g
         style="stroke-linecap:butt;stroke-linejoin:round"
         id="g107">
        <use
           height="100%"
           width="100%"
           id="use109"
           y="80.942451"
           xlink:href="#m8d45281ad4"
           x="30.15"
           style="stroke:#000000;stroke-width:0.5;stroke-linecap:butt;stroke-linejoin:round" />
      </g>
    </g>
    <g
       style="stroke-linecap:butt;stroke-linejoin:round"
       id="line2d_13">
      <g
         style="stroke-linecap:butt;stroke-linejoin:round"
         id="g112">
        <use
           height="100%"
           width="100%"
           id="use114"
           y="80.942451"
           xlink:href="#me3f9b4022a"
           x="217.08"
           style="stroke:#000000;stroke-width:0.5;stroke-linecap:butt;stroke-linejoin:round" />
      </g>
    </g>
  </g>
  <g
     style="stroke-linecap:butt;stroke-linejoin:round"
     id="ytick_7"
     transform="translate(10.695171,-1.3743174)">
    <g
       style="stroke-linecap:butt;stroke-linejoin:round"
       id="line2d_14">
      <g
         style="stroke-linecap:butt;stroke-linejoin:round"
         id="g118">
        <use
           height="100%"
           width="100%"
           id="use120"
           y="78.009476"
           xlink:href="#m8d45281ad4"
           x="30.15"
           style="stroke:#000000;stroke-width:0.5;stroke-linecap:butt;stroke-linejoin:round" />
      </g>
    </g>
    <g
       style="stroke-linecap:butt;stroke-linejoin:round"
       id="line2d_15">
      <g
         style="stroke-linecap:butt;stroke-linejoin:round"
         id="g123">
        <use
           height="100%"
           width="100%"
           id="use125"
           y="78.009476"
           xlink:href="#me3f9b4022a"
           x="217.08"
           style="stroke:#000000;stroke-width:0.5;stroke-linecap:butt;stroke-linejoin:round" />
      </g>
    </g>
  </g>
  <g
     style="stroke-linecap:butt;stroke-linejoin:round"
     id="ytick_8"
     transform="translate(10.695171,-1.3743174)">
    <g
       style="stroke-linecap:butt;stroke-linejoin:round"
       id="line2d_16">
      <g
         style="stroke-linecap:butt;stroke-linejoin:round"
         id="g129">
        <use
           height="100%"
           width="100%"
           id="use131"
           y="75.529671"
           xlink:href="#m8d45281ad4"
           x="30.15"
           style="stroke:#000000;stroke-width:0.5;stroke-linecap:butt;stroke-linejoin:round" />
      </g>
    </g>
    <g
       style="stroke-linecap:butt;stroke-linejoin:round"
       id="line2d_17">
      <g
         style="stroke-linecap:butt;stroke-linejoin:round"
         id="g134">
        <use
           height="100%"
           width="100%"
           id="use136"
           y="75.529671"
           xlink:href="#me3f9b4022a"
           x="217.08"
           style="stroke:#000000;stroke-width:0.5;stroke-linecap:butt;stroke-linejoin:round" />
      </g>
    </g>
  </g>
  <g
     style="stroke-linecap:butt;stroke-linejoin:round"
     id="ytick_9"
     transform="translate(10.695171,-1.3743174)">
    <g
       style="stroke-linecap:butt;stroke-linejoin:round"
       id="line2d_18">
      <g
         style="stroke-linecap:butt;stroke-linejoin:round"
         id="g140">
        <use
           height="100%"
           width="100%"
           id="use142"
           y="73.381577"
           xlink:href="#m8d45281ad4"
           x="30.15"
           style="stroke:#000000;stroke-width:0.5;stroke-linecap:butt;stroke-linejoin:round" />
      </g>
    </g>
    <g
       style="stroke-linecap:butt;stroke-linejoin:round"
       id="line2d_19">
      <g
         style="stroke-linecap:butt;stroke-linejoin:round"
         id="g145">
        <use
           height="100%"
           width="100%"
           id="use147"
           y="73.381577"
           xlink:href="#me3f9b4022a"
           x="217.08"
           style="stroke:#000000;stroke-width:0.5;stroke-linecap:butt;stroke-linejoin:round" />
      </g>
    </g>
  </g>
  <g
     style="stroke-linecap:butt;stroke-linejoin:round"
     id="ytick_10"
     transform="translate(10.695171,-1.3743174)">
    <g
       style="stroke-linecap:butt;stroke-linejoin:round"
       id="line2d_20">
      <g
         style="stroke-linecap:butt;stroke-linejoin:round"
         id="g151">
        <use
           height="100%"
           width="100%"
           id="use153"
           y="71.486816"
           xlink:href="#m8d45281ad4"
           x="30.15"
           style="stroke:#000000;stroke-width:0.5;stroke-linecap:butt;stroke-linejoin:round" />
      </g>
    </g>
    <g
       style="stroke-linecap:butt;stroke-linejoin:round"
       id="line2d_21">
      <g
         style="stroke-linecap:butt;stroke-linejoin:round"
         id="g156">
        <use
           height="100%"
           width="100%"
           id="use158"
           y="71.486816"
           xlink:href="#me3f9b4022a"
           x="217.08"
           style="stroke:#000000;stroke-width:0.5;stroke-linecap:butt;stroke-linejoin:round" />
      </g>
    </g>
  </g>
  <g
     style="stroke-linecap:butt;stroke-linejoin:round"
     id="ytick_11"
     transform="translate(10.695171,-1.3743174)">
    <g
       style="stroke-linecap:butt;stroke-linejoin:round"
       id="line2d_22">
      <g
         style="stroke-linecap:butt;stroke-linejoin:round"
         id="g162">
        <use
           height="100%"
           width="100%"
           id="use164"
           y="58.641342"
           xlink:href="#m8d45281ad4"
           x="30.15"
           style="stroke:#000000;stroke-width:0.5;stroke-linecap:butt;stroke-linejoin:round" />
      </g>
    </g>
    <g
       style="stroke-linecap:butt;stroke-linejoin:round"
       id="line2d_23">
      <g
         style="stroke-linecap:butt;stroke-linejoin:round"
         id="g167">
        <use
           height="100%"
           width="100%"
           id="use169"
           y="58.641342"
           xlink:href="#me3f9b4022a"
           x="217.08"
           style="stroke:#000000;stroke-width:0.5;stroke-linecap:butt;stroke-linejoin:round" />
      </g>
    </g>
  </g>
  <g
     style="stroke-linecap:butt;stroke-linejoin:round"
     id="ytick_12"
     transform="translate(10.695171,-1.3743174)">
    <g
       style="stroke-linecap:butt;stroke-linejoin:round"
       id="line2d_24">
      <g
         style="stroke-linecap:butt;stroke-linejoin:round"
         id="g173">
        <use
           height="100%"
           width="100%"
           id="use175"
           y="52.118687"
           xlink:href="#m8d45281ad4"
           x="30.15"
           style="stroke:#000000;stroke-width:0.5;stroke-linecap:butt;stroke-linejoin:round" />
      </g>
    </g>
    <g
       style="stroke-linecap:butt;stroke-linejoin:round"
       id="line2d_25">
      <g
         style="stroke-linecap:butt;stroke-linejoin:round"
         id="g178">
        <use
           height="100%"
           width="100%"
           id="use180"
           y="52.118687"
           xlink:href="#me3f9b4022a"
           x="217.08"
           style="stroke:#000000;stroke-width:0.5;stroke-linecap:butt;stroke-linejoin:round" />
      </g>
    </g>
  </g>
  <g
     style="stroke-linecap:butt;stroke-linejoin:round"
     id="ytick_13"
     transform="translate(10.695171,-1.3743174)">
    <g
       style="stroke-linecap:butt;stroke-linejoin:round"
       id="line2d_26">
      <g
         style="stroke-linecap:butt;stroke-linejoin:round"
         id="g184">
        <use
           height="100%"
           width="100%"
           id="use186"
           y="47.490788"
           xlink:href="#m8d45281ad4"
           x="30.15"
           style="stroke:#000000;stroke-width:0.5;stroke-linecap:butt;stroke-linejoin:round" />
      </g>
    </g>
    <g
       style="stroke-linecap:butt;stroke-linejoin:round"
       id="line2d_27">
      <g
         style="stroke-linecap:butt;stroke-linejoin:round"
         id="g189">
        <use
           height="100%"
           width="100%"
           id="use191"
           y="47.490788"
           xlink:href="#me3f9b4022a"
           x="217.08"
           style="stroke:#000000;stroke-width:0.5;stroke-linecap:butt;stroke-linejoin:round" />
      </g>
    </g>
  </g>
  <g
     style="stroke-linecap:butt;stroke-linejoin:round"
     id="ytick_14"
     transform="translate(10.695171,-1.3743174)">
    <g
       style="stroke-linecap:butt;stroke-linejoin:round"
       id="line2d_28">
      <g
         style="stroke-linecap:butt;stroke-linejoin:round"
         id="g195">
        <use
           height="100%"
           width="100%"
           id="use197"
           y="43.901112"
           xlink:href="#m8d45281ad4"
           x="30.15"
           style="stroke:#000000;stroke-width:0.5;stroke-linecap:butt;stroke-linejoin:round" />
      </g>
    </g>
    <g
       style="stroke-linecap:butt;stroke-linejoin:round"
       id="line2d_29">
      <g
         style="stroke-linecap:butt;stroke-linejoin:round"
         id="g200">
        <use
           height="100%"
           width="100%"
           id="use202"
           y="43.901112"
           xlink:href="#me3f9b4022a"
           x="217.08"
           style="stroke:#000000;stroke-width:0.5;stroke-linecap:butt;stroke-linejoin:round" />
      </g>
    </g>
  </g>
  <g
     style="stroke-linecap:butt;stroke-linejoin:round"
     id="ytick_15"
     transform="translate(10.695171,-1.3743174)">
    <g
       style="stroke-linecap:butt;stroke-linejoin:round"
       id="line2d_30">
      <g
         style="stroke-linecap:butt;stroke-linejoin:round"
         id="g206">
        <use
           height="100%"
           width="100%"
           id="use208"
           y="40.968132"
           xlink:href="#m8d45281ad4"
           x="30.15"
           style="stroke:#000000;stroke-width:0.5;stroke-linecap:butt;stroke-linejoin:round" />
      </g>
    </g>
    <g
       style="stroke-linecap:butt;stroke-linejoin:round"
       id="line2d_31">
      <g
         style="stroke-linecap:butt;stroke-linejoin:round"
         id="g211">
        <use
           height="100%"
           width="100%"
           id="use213"
           y="40.968132"
           xlink:href="#me3f9b4022a"
           x="217.08"
           style="stroke:#000000;stroke-width:0.5;stroke-linecap:butt;stroke-linejoin:round" />
      </g>
    </g>
  </g>
  <g
     style="stroke-linecap:butt;stroke-linejoin:round"
     id="ytick_16"
     transform="translate(10.695171,-1.3743174)">
    <g
       style="stroke-linecap:butt;stroke-linejoin:round"
       id="line2d_32">
      <g
         style="stroke-linecap:butt;stroke-linejoin:round"
         id="g217">
        <use
           height="100%"
           width="100%"
           id="use219"
           y="38.488331"
           xlink:href="#m8d45281ad4"
           x="30.15"
           style="stroke:#000000;stroke-width:0.5;stroke-linecap:butt;stroke-linejoin:round" />
      </g>
    </g>
    <g
       style="stroke-linecap:butt;stroke-linejoin:round"
       id="line2d_33">
      <g
         style="stroke-linecap:butt;stroke-linejoin:round"
         id="g222">
        <use
           height="100%"
           width="100%"
           id="use224"
           y="38.488331"
           xlink:href="#me3f9b4022a"
           x="217.08"
           style="stroke:#000000;stroke-width:0.5;stroke-linecap:butt;stroke-linejoin:round" />
      </g>
    </g>
  </g>
  <g
     style="stroke-linecap:butt;stroke-linejoin:round"
     id="ytick_17"
     transform="translate(10.695171,-1.3743174)">
    <g
       style="stroke-linecap:butt;stroke-linejoin:round"
       id="line2d_34">
      <g
         style="stroke-linecap:butt;stroke-linejoin:round"
         id="g228">
        <use
           height="100%"
           width="100%"
           id="use230"
           y="36.340233"
           xlink:href="#m8d45281ad4"
           x="30.15"
           style="stroke:#000000;stroke-width:0.5;stroke-linecap:butt;stroke-linejoin:round" />
      </g>
    </g>
    <g
       style="stroke-linecap:butt;stroke-linejoin:round"
       id="line2d_35">
      <g
         style="stroke-linecap:butt;stroke-linejoin:round"
         id="g233">
        <use
           height="100%"
           width="100%"
           id="use235"
           y="36.340233"
           xlink:href="#me3f9b4022a"
           x="217.08"
           style="stroke:#000000;stroke-width:0.5;stroke-linecap:butt;stroke-linejoin:round" />
      </g>
    </g>
  </g>
  <g
     style="stroke-linecap:butt;stroke-linejoin:round"
     id="ytick_18"
     transform="translate(10.695171,-1.3743174)">
    <g
       style="stroke-linecap:butt;stroke-linejoin:round"
       id="line2d_36">
      <g
         style="stroke-linecap:butt;stroke-linejoin:round"
         id="g239">
        <use
           height="100%"
           width="100%"
           id="use241"
           y="34.445473"
           xlink:href="#m8d45281ad4"
           x="30.15"
           style="stroke:#000000;stroke-width:0.5;stroke-linecap:butt;stroke-linejoin:round" />
      </g>
    </g>
    <g
       style="stroke-linecap:butt;stroke-linejoin:round"
       id="line2d_37">
      <g
         style="stroke-linecap:butt;stroke-linejoin:round"
         id="g244">
        <use
           height="100%"
           width="100%"
           id="use246"
           y="34.445473"
           xlink:href="#me3f9b4022a"
           x="217.08"
           style="stroke:#000000;stroke-width:0.5;stroke-linecap:butt;stroke-linejoin:round" />
      </g>
    </g>
  </g>
  <g
     style="stroke-linecap:butt;stroke-linejoin:round"
     id="ytick_19"
     transform="translate(10.695171,-1.3743174)">
    <g
       style="stroke-linecap:butt;stroke-linejoin:round"
       id="line2d_38">
      <g
         style="stroke-linecap:butt;stroke-linejoin:round"
         id="g250">
        <use
           height="100%"
           width="100%"
           id="use252"
           y="21.6"
           xlink:href="#m8d45281ad4"
           x="30.15"
           style="stroke:#000000;stroke-width:0.5;stroke-linecap:butt;stroke-linejoin:round" />
      </g>
    </g>
    <g
       style="stroke-linecap:butt;stroke-linejoin:round"
       id="line2d_39">
      <g
         style="stroke-linecap:butt;stroke-linejoin:round"
         id="g255">
        <use
           height="100%"
           width="100%"
           id="use257"
           y="21.6"
           xlink:href="#me3f9b4022a"
           x="217.08"
           style="stroke:#000000;stroke-width:0.5;stroke-linecap:butt;stroke-linejoin:round" />
      </g>
    </g>
  </g>
  <g
     id="line2d_40"
     style="stroke-linecap:butt;stroke-linejoin:round"
     transform="translate(10.695171,-1.3743174)">
    <path
       clip-path="url(#p636487054d-6)"
       d="m 33.2655,186.523 1.5577,0 c 0,0 0.4154,0 0.6231,0 1.142367,0 3.4271,0 3.4271,0 l 0.3115,-12.38 18.693,0 0.3116,-24.568 88.4805,0 0.311,-35.724 57.325,0 0,0"
       style="fill:none;stroke:#0000ff;stroke-linecap:square;stroke-linejoin:round"
       id="path267"
       inkscape:connector-curvature="0"
       sodipodi:nodetypes="ccccccccccc" />
  </g>
  <path
     inkscape:connector-curvature="0"
     id="path270"
     style="fill:none;stroke:#008000;stroke-width:1;stroke-linecap:square;stroke-linejoin:round;stroke-miterlimit:4;stroke-dasharray:4, 4;stroke-dashoffset:0"
     d="m 33.2655,184.644 0.3115,0 0.6232,0 0.623,-1.333 0.3116,0 0.3116,0 0.3115,0 0.3115,0 0.9347,-1.867 0.3116,-1.689 0.3115,0 0.6231,-1.542 0.3116,0 1.2461,-2.732 0.6231,-1.223 1.8694,-4.189 1.2462,-2.598 1.5577,-2.961 1.5577,-2.536 1.5578,-2.218 1.5578,-1.971 1.5577,-2.191 1.5577,-1.195 1.8694,-1.828 1.5577,-1.338 3.427,-2.961 1.5578,-1.058 1.5577,-0.755 1.5578,-0.958 1.5578,-1.129 1.8692,-1.061 2.1809,-1.196 14.3313,-6.398 31.7783,-9.763 61.064,-10.875 30.531,-3.556"
     clip-path="url(#p636487054d-6)"
     sodipodi:nodetypes="cccccccccccccccccccccccccccccccccccc"
     transform="translate(10.695171,-1.3743174)" />
  <g
     id="patch_8"
     style="stroke-linecap:butt;stroke-linejoin:round"
     transform="translate(10.695171,-1.3743174)">
    <path
       d="m 217.08,189 0,-83.7"
       style="fill:none;stroke:#000000;stroke-linecap:square;stroke-linejoin:miter"
       id="path273"
       inkscape:connector-curvature="0" />
  </g>
  <g
     id="patch_9"
     style="stroke-linecap:butt;stroke-linejoin:round"
     transform="translate(10.695171,-1.3743174)">
    <path
       d="m 30.15,189 0,-83.7"
       style="fill:none;stroke:#000000;stroke-linecap:square;stroke-linejoin:miter"
       id="path276"
       inkscape:connector-curvature="0" />
  </g>
  <path
     inkscape:connector-curvature="0"
     id="path279"
     style="fill:none;stroke:#000000;stroke-linecap:square;stroke-linejoin:miter"
     d="m 40.845171,187.62568 186.929999,0" />
  <g
     id="patch_11"
     style="stroke-linecap:butt;stroke-linejoin:round"
     transform="translate(10.695171,-1.3743174)">
    <path
       d="m 30.15,105.3 186.93,0"
       style="fill:none;stroke:#000000;stroke-linecap:square;stroke-linejoin:miter"
       id="path282"
       inkscape:connector-curvature="0" />
  </g>
  <g
     id="line2d_42"
     style="stroke-linecap:butt;stroke-linejoin:round"
     transform="translate(10.695171,-1.3743174)">
    <defs
       id="defs287">
      <path
         d="M 0,0 0,-4"
         id="mc7db9fdffb"
         style="stroke:#000000;stroke-width:0.5;stroke-linecap:butt;stroke-linejoin:round"
         inkscape:connector-curvature="0" />
    </defs>
    <g
       id="g290"
       style="stroke-linecap:butt;stroke-linejoin:round">
      <use
         style="stroke:#000000;stroke-width:0.5;stroke-linecap:butt;stroke-linejoin:round"
         x="30.15"
         xlink:href="#mc7db9fdffb"
         y="189"
         id="use292"
         width="100%"
         height="100%" />
    </g>
  </g>
  <g
     id="line2d_43"
     style="stroke-linecap:butt;stroke-linejoin:round"
     transform="translate(10.695171,-1.3743174)">
    <defs
       id="defs295">
      <path
         d="M 0,0 0,4"
         id="m5a7d422ac3"
         style="stroke:#000000;stroke-width:0.5;stroke-linecap:butt;stroke-linejoin:round"
         inkscape:connector-curvature="0" />
    </defs>
    <g
       id="g298"
       style="stroke-linecap:butt;stroke-linejoin:round">
      <use
         style="stroke:#000000;stroke-width:0.5;stroke-linecap:butt;stroke-linejoin:round"
         x="30.15"
         xlink:href="#m5a7d422ac3"
         y="105.3"
         id="use300"
         width="100%"
         height="100%" />
    </g>
  </g>
  <g
     id="line2d_44"
     style="stroke-linecap:butt;stroke-linejoin:round"
     transform="translate(10.695171,-1.3743174)">
    <g
       id="g307"
       style="stroke-linecap:butt;stroke-linejoin:round">
      <use
         style="stroke:#000000;stroke-width:0.5;stroke-linecap:butt;stroke-linejoin:round"
         x="61.305"
         xlink:href="#mc7db9fdffb"
         y="189"
         id="use309"
         width="100%"
         height="100%" />
    </g>
  </g>
  <g
     id="line2d_45"
     style="stroke-linecap:butt;stroke-linejoin:round"
     transform="translate(10.695171,-1.3743174)">
    <g
       id="g312"
       style="stroke-linecap:butt;stroke-linejoin:round">
      <use
         style="stroke:#000000;stroke-width:0.5;stroke-linecap:butt;stroke-linejoin:round"
         x="61.305"
         xlink:href="#m5a7d422ac3"
         y="105.3"
         id="use314"
         width="100%"
         height="100%" />
    </g>
  </g>
  <g
     id="line2d_46"
     style="stroke-linecap:butt;stroke-linejoin:round"
     transform="translate(10.695171,-1.3743174)">
    <g
       id="g321"
       style="stroke-linecap:butt;stroke-linejoin:round">
      <use
         style="stroke:#000000;stroke-width:0.5;stroke-linecap:butt;stroke-linejoin:round"
         x="92.459999"
         xlink:href="#mc7db9fdffb"
         y="189"
         id="use323"
         width="100%"
         height="100%" />
    </g>
  </g>
  <g
     id="line2d_47"
     style="stroke-linecap:butt;stroke-linejoin:round"
     transform="translate(10.695171,-1.3743174)">
    <g
       id="g326"
       style="stroke-linecap:butt;stroke-linejoin:round">
      <use
         style="stroke:#000000;stroke-width:0.5;stroke-linecap:butt;stroke-linejoin:round"
         x="92.459999"
         xlink:href="#m5a7d422ac3"
         y="105.3"
         id="use328"
         width="100%"
         height="100%" />
    </g>
  </g>
  <g
     id="line2d_48"
     style="stroke-linecap:butt;stroke-linejoin:round"
     transform="translate(10.695171,-1.3743174)">
    <g
       id="g335"
       style="stroke-linecap:butt;stroke-linejoin:round">
      <use
         style="stroke:#000000;stroke-width:0.5;stroke-linecap:butt;stroke-linejoin:round"
         x="123.615"
         xlink:href="#mc7db9fdffb"
         y="189"
         id="use337"
         width="100%"
         height="100%" />
    </g>
  </g>
  <g
     id="line2d_49"
     style="stroke-linecap:butt;stroke-linejoin:round"
     transform="translate(10.695171,-1.3743174)">
    <g
       id="g340"
       style="stroke-linecap:butt;stroke-linejoin:round">
      <use
         style="stroke:#000000;stroke-width:0.5;stroke-linecap:butt;stroke-linejoin:round"
         x="123.615"
         xlink:href="#m5a7d422ac3"
         y="105.3"
         id="use342"
         width="100%"
         height="100%" />
    </g>
  </g>
  <g
     id="line2d_50"
     style="stroke-linecap:butt;stroke-linejoin:round"
     transform="translate(10.695171,-1.3743174)">
    <g
       id="g349"
       style="stroke-linecap:butt;stroke-linejoin:round">
      <use
         style="stroke:#000000;stroke-width:0.5;stroke-linecap:butt;stroke-linejoin:round"
         x="154.77"
         xlink:href="#mc7db9fdffb"
         y="189"
         id="use351"
         width="100%"
         height="100%" />
    </g>
  </g>
  <g
     id="line2d_51"
     style="stroke-linecap:butt;stroke-linejoin:round"
     transform="translate(10.695171,-1.3743174)">
    <g
       id="g354"
       style="stroke-linecap:butt;stroke-linejoin:round">
      <use
         style="stroke:#000000;stroke-width:0.5;stroke-linecap:butt;stroke-linejoin:round"
         x="154.77"
         xlink:href="#m5a7d422ac3"
         y="105.3"
         id="use356"
         width="100%"
         height="100%" />
    </g>
  </g>
  <g
     id="line2d_52"
     style="stroke-linecap:butt;stroke-linejoin:round"
     transform="translate(10.695171,-1.3743174)">
    <g
       id="g363"
       style="stroke-linecap:butt;stroke-linejoin:round">
      <use
         style="stroke:#000000;stroke-width:0.5;stroke-linecap:butt;stroke-linejoin:round"
         x="185.925"
         xlink:href="#mc7db9fdffb"
         y="189"
         id="use365"
         width="100%"
         height="100%" />
    </g>
  </g>
  <g
     id="line2d_53"
     style="stroke-linecap:butt;stroke-linejoin:round"
     transform="translate(10.695171,-1.3743174)">
    <g
       id="g368"
       style="stroke-linecap:butt;stroke-linejoin:round">
      <use
         style="stroke:#000000;stroke-width:0.5;stroke-linecap:butt;stroke-linejoin:round"
         x="185.925"
         xlink:href="#m5a7d422ac3"
         y="105.3"
         id="use370"
         width="100%"
         height="100%" />
    </g>
  </g>
  <g
     id="line2d_54"
     style="stroke-linecap:butt;stroke-linejoin:round"
     transform="translate(10.695171,-1.3743174)">
    <g
       id="g377"
       style="stroke-linecap:butt;stroke-linejoin:round">
      <use
         style="stroke:#000000;stroke-width:0.5;stroke-linecap:butt;stroke-linejoin:round"
         x="217.08"
         xlink:href="#mc7db9fdffb"
         y="189"
         id="use379"
         width="100%"
         height="100%" />
    </g>
  </g>
  <g
     id="line2d_55"
     style="stroke-linecap:butt;stroke-linejoin:round"
     transform="translate(10.695171,-1.3743174)">
    <g
       id="g382"
       style="stroke-linecap:butt;stroke-linejoin:round">
      <use
         style="stroke:#000000;stroke-width:0.5;stroke-linecap:butt;stroke-linejoin:round"
         x="217.08"
         xlink:href="#m5a7d422ac3"
         y="105.3"
         id="use384"
         width="100%"
         height="100%" />
    </g>
  </g>
  <g
     id="line2d_56"
     style="stroke-linecap:butt;stroke-linejoin:round"
     transform="translate(10.695171,-1.3743174)">
    <g
       id="g395"
       style="stroke-linecap:butt;stroke-linejoin:round">
      <use
         style="stroke:#000000;stroke-width:0.5;stroke-linecap:butt;stroke-linejoin:round"
         x="30.15"
         xlink:href="#md7965d1ba0"
         y="185.04546"
         id="use397"
         width="100%"
         height="100%" />
    </g>
  </g>
  <g
     id="line2d_57"
     style="stroke-linecap:butt;stroke-linejoin:round"
     transform="translate(10.695171,-1.3743174)">
    <g
       id="g400"
       style="stroke-linecap:butt;stroke-linejoin:round">
      <use
         style="stroke:#000000;stroke-width:0.5;stroke-linecap:butt;stroke-linejoin:round"
         x="217.08"
         xlink:href="#md9a1c1a7cd"
         y="185.04546"
         id="use402"
         width="100%"
         height="100%" />
    </g>
  </g>
  <g
     id="line2d_58"
     style="stroke-linecap:butt;stroke-linejoin:round"
     transform="translate(10.695171,-1.3743174)">
    <g
       id="g415"
       style="stroke-linecap:butt;stroke-linejoin:round">
      <use
         style="stroke:#000000;stroke-width:0.5;stroke-linecap:butt;stroke-linejoin:round"
         x="30.15"
         xlink:href="#md7965d1ba0"
         y="144.23914"
         id="use417"
         width="100%"
         height="100%" />
    </g>
  </g>
  <g
     id="line2d_59"
     style="stroke-linecap:butt;stroke-linejoin:round"
     transform="translate(10.695171,-1.3743174)">
    <g
       id="g420"
       style="stroke-linecap:butt;stroke-linejoin:round">
      <use
         style="stroke:#000000;stroke-width:0.5;stroke-linecap:butt;stroke-linejoin:round"
         x="217.08"
         xlink:href="#md9a1c1a7cd"
         y="144.23914"
         id="use422"
         width="100%"
         height="100%" />
    </g>
  </g>
  <g
     style="stroke-linecap:butt;stroke-linejoin:round"
     id="ytick_22"
     transform="translate(10.695171,-1.3743174)">
    <g
       style="stroke-linecap:butt;stroke-linejoin:round"
       id="line2d_60">
      <g
         style="stroke-linecap:butt;stroke-linejoin:round"
         id="g435">
        <use
           height="100%"
           width="100%"
           id="use437"
           y="189"
           xlink:href="#m8d45281ad4"
           x="30.15"
           style="stroke:#000000;stroke-width:0.5;stroke-linecap:butt;stroke-linejoin:round" />
      </g>
    </g>
    <g
       style="stroke-linecap:butt;stroke-linejoin:round"
       id="line2d_61">
      <g
         style="stroke-linecap:butt;stroke-linejoin:round"
         id="g440">
        <use
           height="100%"
           width="100%"
           id="use442"
           y="189"
           xlink:href="#me3f9b4022a"
           x="217.08"
           style="stroke:#000000;stroke-width:0.5;stroke-linecap:butt;stroke-linejoin:round" />
      </g>
    </g>
  </g>
  <g
     style="stroke-linecap:butt;stroke-linejoin:round"
     id="ytick_23"
     transform="translate(10.695171,-1.3743174)">
    <g
       style="stroke-linecap:butt;stroke-linejoin:round"
       id="line2d_62">
      <g
         style="stroke-linecap:butt;stroke-linejoin:round"
         id="g446">
        <use
           height="100%"
           width="100%"
           id="use448"
           y="186.91266"
           xlink:href="#m8d45281ad4"
           x="30.15"
           style="stroke:#000000;stroke-width:0.5;stroke-linecap:butt;stroke-linejoin:round" />
      </g>
    </g>
    <g
       style="stroke-linecap:butt;stroke-linejoin:round"
       id="line2d_63">
      <g
         style="stroke-linecap:butt;stroke-linejoin:round"
         id="g451">
        <use
           height="100%"
           width="100%"
           id="use453"
           y="186.91266"
           xlink:href="#me3f9b4022a"
           x="217.08"
           style="stroke:#000000;stroke-width:0.5;stroke-linecap:butt;stroke-linejoin:round" />
      </g>
    </g>
  </g>
  <g
     style="stroke-linecap:butt;stroke-linejoin:round"
     id="ytick_24"
     transform="translate(10.695171,-1.3743174)">
    <g
       style="stroke-linecap:butt;stroke-linejoin:round"
       id="line2d_64">
      <g
         style="stroke-linecap:butt;stroke-linejoin:round"
         id="g457">
        <use
           height="100%"
           width="100%"
           id="use459"
           y="172.76154"
           xlink:href="#m8d45281ad4"
           x="30.15"
           style="stroke:#000000;stroke-width:0.5;stroke-linecap:butt;stroke-linejoin:round" />
      </g>
    </g>
    <g
       style="stroke-linecap:butt;stroke-linejoin:round"
       id="line2d_65">
      <g
         style="stroke-linecap:butt;stroke-linejoin:round"
         id="g462">
        <use
           height="100%"
           width="100%"
           id="use464"
           y="172.76154"
           xlink:href="#me3f9b4022a"
           x="217.08"
           style="stroke:#000000;stroke-width:0.5;stroke-linecap:butt;stroke-linejoin:round" />
      </g>
    </g>
  </g>
  <g
     style="stroke-linecap:butt;stroke-linejoin:round"
     id="ytick_25"
     transform="translate(10.695171,-1.3743174)">
    <g
       style="stroke-linecap:butt;stroke-linejoin:round"
       id="line2d_66">
      <g
         style="stroke-linecap:butt;stroke-linejoin:round"
         id="g468">
        <use
           height="100%"
           width="100%"
           id="use470"
           y="165.5759"
           xlink:href="#m8d45281ad4"
           x="30.15"
           style="stroke:#000000;stroke-width:0.5;stroke-linecap:butt;stroke-linejoin:round" />
      </g>
    </g>
    <g
       style="stroke-linecap:butt;stroke-linejoin:round"
       id="line2d_67">
      <g
         style="stroke-linecap:butt;stroke-linejoin:round"
         id="g473">
        <use
           height="100%"
           width="100%"
           id="use475"
           y="165.5759"
           xlink:href="#me3f9b4022a"
           x="217.08"
           style="stroke:#000000;stroke-width:0.5;stroke-linecap:butt;stroke-linejoin:round" />
      </g>
    </g>
  </g>
  <g
     style="stroke-linecap:butt;stroke-linejoin:round"
     id="ytick_26"
     transform="translate(10.695171,-1.3743174)">
    <g
       style="stroke-linecap:butt;stroke-linejoin:round"
       id="line2d_68">
      <g
         style="stroke-linecap:butt;stroke-linejoin:round"
         id="g479">
        <use
           height="100%"
           width="100%"
           id="use481"
           y="160.4776"
           xlink:href="#m8d45281ad4"
           x="30.15"
           style="stroke:#000000;stroke-width:0.5;stroke-linecap:butt;stroke-linejoin:round" />
      </g>
    </g>
    <g
       style="stroke-linecap:butt;stroke-linejoin:round"
       id="line2d_69">
      <g
         style="stroke-linecap:butt;stroke-linejoin:round"
         id="g484">
        <use
           height="100%"
           width="100%"
           id="use486"
           y="160.4776"
           xlink:href="#me3f9b4022a"
           x="217.08"
           style="stroke:#000000;stroke-width:0.5;stroke-linecap:butt;stroke-linejoin:round" />
      </g>
    </g>
  </g>
  <g
     style="stroke-linecap:butt;stroke-linejoin:round"
     id="ytick_27"
     transform="translate(10.695171,-1.3743174)">
    <g
       style="stroke-linecap:butt;stroke-linejoin:round"
       id="line2d_70">
      <g
         style="stroke-linecap:butt;stroke-linejoin:round"
         id="g490">
        <use
           height="100%"
           width="100%"
           id="use492"
           y="156.52306"
           xlink:href="#m8d45281ad4"
           x="30.15"
           style="stroke:#000000;stroke-width:0.5;stroke-linecap:butt;stroke-linejoin:round" />
      </g>
    </g>
    <g
       style="stroke-linecap:butt;stroke-linejoin:round"
       id="line2d_71">
      <g
         style="stroke-linecap:butt;stroke-linejoin:round"
         id="g495">
        <use
           height="100%"
           width="100%"
           id="use497"
           y="156.52306"
           xlink:href="#me3f9b4022a"
           x="217.08"
           style="stroke:#000000;stroke-width:0.5;stroke-linecap:butt;stroke-linejoin:round" />
      </g>
    </g>
  </g>
  <g
     style="stroke-linecap:butt;stroke-linejoin:round"
     id="ytick_28"
     transform="translate(10.695171,-1.3743174)">
    <g
       style="stroke-linecap:butt;stroke-linejoin:round"
       id="line2d_72">
      <g
         style="stroke-linecap:butt;stroke-linejoin:round"
         id="g501">
        <use
           height="100%"
           width="100%"
           id="use503"
           y="153.29196"
           xlink:href="#m8d45281ad4"
           x="30.15"
           style="stroke:#000000;stroke-width:0.5;stroke-linecap:butt;stroke-linejoin:round" />
      </g>
    </g>
    <g
       style="stroke-linecap:butt;stroke-linejoin:round"
       id="line2d_73">
      <g
         style="stroke-linecap:butt;stroke-linejoin:round"
         id="g506">
        <use
           height="100%"
           width="100%"
           id="use508"
           y="153.29196"
           xlink:href="#me3f9b4022a"
           x="217.08"
           style="stroke:#000000;stroke-width:0.5;stroke-linecap:butt;stroke-linejoin:round" />
      </g>
    </g>
  </g>
  <g
     style="stroke-linecap:butt;stroke-linejoin:round"
     id="ytick_29"
     transform="translate(10.695171,-1.3743174)">
    <g
       style="stroke-linecap:butt;stroke-linejoin:round"
       id="line2d_74">
      <g
         style="stroke-linecap:butt;stroke-linejoin:round"
         id="g512">
        <use
           height="100%"
           width="100%"
           id="use514"
           y="150.5601"
           xlink:href="#m8d45281ad4"
           x="30.15"
           style="stroke:#000000;stroke-width:0.5;stroke-linecap:butt;stroke-linejoin:round" />
      </g>
    </g>
    <g
       style="stroke-linecap:butt;stroke-linejoin:round"
       id="line2d_75">
      <g
         style="stroke-linecap:butt;stroke-linejoin:round"
         id="g517">
        <use
           height="100%"
           width="100%"
           id="use519"
           y="150.5601"
           xlink:href="#me3f9b4022a"
           x="217.08"
           style="stroke:#000000;stroke-width:0.5;stroke-linecap:butt;stroke-linejoin:round" />
      </g>
    </g>
  </g>
  <g
     style="stroke-linecap:butt;stroke-linejoin:round"
     id="ytick_30"
     transform="translate(10.695171,-1.3743174)">
    <g
       style="stroke-linecap:butt;stroke-linejoin:round"
       id="line2d_76">
      <g
         style="stroke-linecap:butt;stroke-linejoin:round"
         id="g523">
        <use
           height="100%"
           width="100%"
           id="use525"
           y="148.19368"
           xlink:href="#m8d45281ad4"
           x="30.15"
           style="stroke:#000000;stroke-width:0.5;stroke-linecap:butt;stroke-linejoin:round" />
      </g>
    </g>
    <g
       style="stroke-linecap:butt;stroke-linejoin:round"
       id="line2d_77">
      <g
         style="stroke-linecap:butt;stroke-linejoin:round"
         id="g528">
        <use
           height="100%"
           width="100%"
           id="use530"
           y="148.19368"
           xlink:href="#me3f9b4022a"
           x="217.08"
           style="stroke:#000000;stroke-width:0.5;stroke-linecap:butt;stroke-linejoin:round" />
      </g>
    </g>
  </g>
  <g
     style="stroke-linecap:butt;stroke-linejoin:round"
     id="ytick_31"
     transform="translate(10.695171,-1.3743174)">
    <g
       style="stroke-linecap:butt;stroke-linejoin:round"
       id="line2d_78">
      <g
         style="stroke-linecap:butt;stroke-linejoin:round"
         id="g534">
        <use
           height="100%"
           width="100%"
           id="use536"
           y="146.10632"
           xlink:href="#m8d45281ad4"
           x="30.15"
           style="stroke:#000000;stroke-width:0.5;stroke-linecap:butt;stroke-linejoin:round" />
      </g>
    </g>
    <g
       style="stroke-linecap:butt;stroke-linejoin:round"
       id="line2d_79">
      <g
         style="stroke-linecap:butt;stroke-linejoin:round"
         id="g539">
        <use
           height="100%"
           width="100%"
           id="use541"
           y="146.10632"
           xlink:href="#me3f9b4022a"
           x="217.08"
           style="stroke:#000000;stroke-width:0.5;stroke-linecap:butt;stroke-linejoin:round" />
      </g>
    </g>
  </g>
  <g
     style="stroke-linecap:butt;stroke-linejoin:round"
     id="ytick_32"
     transform="translate(10.695171,-1.3743174)">
    <g
       style="stroke-linecap:butt;stroke-linejoin:round"
       id="line2d_80">
      <g
         style="stroke-linecap:butt;stroke-linejoin:round"
         id="g545">
        <use
           height="100%"
           width="100%"
           id="use547"
           y="131.9552"
           xlink:href="#m8d45281ad4"
           x="30.15"
           style="stroke:#000000;stroke-width:0.5;stroke-linecap:butt;stroke-linejoin:round" />
      </g>
    </g>
    <g
       style="stroke-linecap:butt;stroke-linejoin:round"
       id="line2d_81">
      <g
         style="stroke-linecap:butt;stroke-linejoin:round"
         id="g550">
        <use
           height="100%"
           width="100%"
           id="use552"
           y="131.9552"
           xlink:href="#me3f9b4022a"
           x="217.08"
           style="stroke:#000000;stroke-width:0.5;stroke-linecap:butt;stroke-linejoin:round" />
      </g>
    </g>
  </g>
  <g
     style="stroke-linecap:butt;stroke-linejoin:round"
     id="ytick_33"
     transform="translate(10.695171,-1.3743174)">
    <g
       style="stroke-linecap:butt;stroke-linejoin:round"
       id="line2d_82">
      <g
         style="stroke-linecap:butt;stroke-linejoin:round"
         id="g556">
        <use
           height="100%"
           width="100%"
           id="use558"
           y="124.76957"
           xlink:href="#m8d45281ad4"
           x="30.15"
           style="stroke:#000000;stroke-width:0.5;stroke-linecap:butt;stroke-linejoin:round" />
      </g>
    </g>
    <g
       style="stroke-linecap:butt;stroke-linejoin:round"
       id="line2d_83">
      <g
         style="stroke-linecap:butt;stroke-linejoin:round"
         id="g561">
        <use
           height="100%"
           width="100%"
           id="use563"
           y="124.76957"
           xlink:href="#me3f9b4022a"
           x="217.08"
           style="stroke:#000000;stroke-width:0.5;stroke-linecap:butt;stroke-linejoin:round" />
      </g>
    </g>
  </g>
  <g
     style="stroke-linecap:butt;stroke-linejoin:round"
     id="ytick_34"
     transform="translate(10.695171,-1.3743174)">
    <g
       style="stroke-linecap:butt;stroke-linejoin:round"
       id="line2d_84">
      <g
         style="stroke-linecap:butt;stroke-linejoin:round"
         id="g567">
        <use
           height="100%"
           width="100%"
           id="use569"
           y="119.67127"
           xlink:href="#m8d45281ad4"
           x="30.15"
           style="stroke:#000000;stroke-width:0.5;stroke-linecap:butt;stroke-linejoin:round" />
      </g>
    </g>
    <g
       style="stroke-linecap:butt;stroke-linejoin:round"
       id="line2d_85">
      <g
         style="stroke-linecap:butt;stroke-linejoin:round"
         id="g572">
        <use
           height="100%"
           width="100%"
           id="use574"
           y="119.67127"
           xlink:href="#me3f9b4022a"
           x="217.08"
           style="stroke:#000000;stroke-width:0.5;stroke-linecap:butt;stroke-linejoin:round" />
      </g>
    </g>
  </g>
  <g
     style="stroke-linecap:butt;stroke-linejoin:round"
     id="ytick_35"
     transform="translate(10.695171,-1.3743174)">
    <g
       style="stroke-linecap:butt;stroke-linejoin:round"
       id="line2d_86">
      <g
         style="stroke-linecap:butt;stroke-linejoin:round"
         id="g578">
        <use
           height="100%"
           width="100%"
           id="use580"
           y="115.71674"
           xlink:href="#m8d45281ad4"
           x="30.15"
           style="stroke:#000000;stroke-width:0.5;stroke-linecap:butt;stroke-linejoin:round" />
      </g>
    </g>
    <g
       style="stroke-linecap:butt;stroke-linejoin:round"
       id="line2d_87">
      <g
         style="stroke-linecap:butt;stroke-linejoin:round"
         id="g583">
        <use
           height="100%"
           width="100%"
           id="use585"
           y="115.71674"
           xlink:href="#me3f9b4022a"
           x="217.08"
           style="stroke:#000000;stroke-width:0.5;stroke-linecap:butt;stroke-linejoin:round" />
      </g>
    </g>
  </g>
  <g
     style="stroke-linecap:butt;stroke-linejoin:round"
     id="ytick_36"
     transform="translate(10.695171,-1.3743174)">
    <g
       style="stroke-linecap:butt;stroke-linejoin:round"
       id="line2d_88">
      <g
         style="stroke-linecap:butt;stroke-linejoin:round"
         id="g589">
        <use
           height="100%"
           width="100%"
           id="use591"
           y="112.48563"
           xlink:href="#m8d45281ad4"
           x="30.15"
           style="stroke:#000000;stroke-width:0.5;stroke-linecap:butt;stroke-linejoin:round" />
      </g>
    </g>
    <g
       style="stroke-linecap:butt;stroke-linejoin:round"
       id="line2d_89">
      <g
         style="stroke-linecap:butt;stroke-linejoin:round"
         id="g594">
        <use
           height="100%"
           width="100%"
           id="use596"
           y="112.48563"
           xlink:href="#me3f9b4022a"
           x="217.08"
           style="stroke:#000000;stroke-width:0.5;stroke-linecap:butt;stroke-linejoin:round" />
      </g>
    </g>
  </g>
  <g
     style="stroke-linecap:butt;stroke-linejoin:round"
     id="ytick_37"
     transform="translate(10.695171,-1.3743174)">
    <g
       style="stroke-linecap:butt;stroke-linejoin:round"
       id="line2d_90">
      <g
         style="stroke-linecap:butt;stroke-linejoin:round"
         id="g600">
        <use
           height="100%"
           width="100%"
           id="use602"
           y="109.75378"
           xlink:href="#m8d45281ad4"
           x="30.15"
           style="stroke:#000000;stroke-width:0.5;stroke-linecap:butt;stroke-linejoin:round" />
      </g>
    </g>
    <g
       style="stroke-linecap:butt;stroke-linejoin:round"
       id="line2d_91">
      <g
         style="stroke-linecap:butt;stroke-linejoin:round"
         id="g605">
        <use
           height="100%"
           width="100%"
           id="use607"
           y="109.75378"
           xlink:href="#me3f9b4022a"
           x="217.08"
           style="stroke:#000000;stroke-width:0.5;stroke-linecap:butt;stroke-linejoin:round" />
      </g>
    </g>
  </g>
  <g
     style="stroke-linecap:butt;stroke-linejoin:round"
     id="ytick_38"
     transform="translate(10.695171,-1.3743174)">
    <g
       style="stroke-linecap:butt;stroke-linejoin:round"
       id="line2d_92">
      <g
         style="stroke-linecap:butt;stroke-linejoin:round"
         id="g611">
        <use
           height="100%"
           width="100%"
           id="use613"
           y="107.38734"
           xlink:href="#m8d45281ad4"
           x="30.15"
           style="stroke:#000000;stroke-width:0.5;stroke-linecap:butt;stroke-linejoin:round" />
      </g>
    </g>
    <g
       style="stroke-linecap:butt;stroke-linejoin:round"
       id="line2d_93">
      <g
         style="stroke-linecap:butt;stroke-linejoin:round"
         id="g616">
        <use
           height="100%"
           width="100%"
           id="use618"
           y="107.38734"
           xlink:href="#me3f9b4022a"
           x="217.08"
           style="stroke:#000000;stroke-width:0.5;stroke-linecap:butt;stroke-linejoin:round" />
      </g>
    </g>
  </g>
  <g
     style="stroke-linecap:butt;stroke-linejoin:round"
     id="ytick_39"
     transform="translate(10.695171,-1.3743174)">
    <g
       style="stroke-linecap:butt;stroke-linejoin:round"
       id="line2d_94">
      <g
         style="stroke-linecap:butt;stroke-linejoin:round"
         id="g622">
        <use
           height="100%"
           width="100%"
           id="use624"
           y="105.3"
           xlink:href="#m8d45281ad4"
           x="30.15"
           style="stroke:#000000;stroke-width:0.5;stroke-linecap:butt;stroke-linejoin:round" />
      </g>
    </g>
    <g
       style="stroke-linecap:butt;stroke-linejoin:round"
       id="line2d_95">
      <g
         style="stroke-linecap:butt;stroke-linejoin:round"
         id="g627">
        <use
           height="100%"
           width="100%"
           id="use629"
           y="105.3"
           xlink:href="#me3f9b4022a"
           x="217.08"
           style="stroke:#000000;stroke-width:0.5;stroke-linecap:butt;stroke-linejoin:round" />
      </g>
    </g>
  </g>
  <path
     style="fill:none;fill-rule:evenodd;stroke:#000000;stroke-width:0.80000001px;stroke-linecap:butt;stroke-linejoin:miter;stroke-opacity:1"
     d="m 96.699351,125.20866 5.801869,4.43672"
     id="path5427"
     inkscape:connector-curvature="0" />
  <path
     inkscape:connector-curvature="0"
     d="m 160.5974,67.722144 0,-6.172144 -21.30222,0 0,6.172144 21.30222,0 0,0 z"
     style="fill:none;stroke:#000000;stroke-width:0.75515342;stroke-linecap:butt;stroke-linejoin:miter;stroke-miterlimit:10;stroke-dasharray:none;stroke-opacity:1"
     id="path4071" />
  <path
     inkscape:connector-curvature="0"
     d="m 145.50755,31.628088 0,15.879564"
     style="fill:none;stroke:#000000;stroke-width:0.75515342;stroke-linecap:butt;stroke-linejoin:miter;stroke-miterlimit:10;stroke-dasharray:none;stroke-opacity:1"
     id="path4073" />
  <path
     inkscape:connector-curvature="0"
     d="m 150.03581,31.628088 0,15.879564"
     style="fill:none;stroke:#000000;stroke-width:0.75515342;stroke-linecap:butt;stroke-linejoin:miter;stroke-miterlimit:10;stroke-dasharray:none;stroke-opacity:1"
     id="path4075" />
  <path
     inkscape:connector-curvature="0"
     d="m 145.50755,39.816463 -13.74629,0 0,24.909672 7.53392,0"
     style="fill:none;stroke:#000000;stroke-width:0.75515342;stroke-linecap:butt;stroke-linejoin:miter;stroke-miterlimit:10;stroke-dasharray:none;stroke-opacity:1"
     id="path4077" />
  <path
     inkscape:connector-curvature="0"
     d="m 150.03581,39.816463 15.4112,0 0,24.909672 -4.84961,0"
     style="fill:none;stroke:#000000;stroke-width:0.75515342;stroke-linecap:butt;stroke-linejoin:miter;stroke-miterlimit:10;stroke-dasharray:none;stroke-opacity:1"
     id="path4079" />
  <path
     inkscape:connector-curvature="0"
     d="m 210.01043,52.445926 -13.53644,0"
     style="fill:none;stroke:#000000;stroke-width:0.75515342;stroke-linecap:butt;stroke-linejoin:miter;stroke-miterlimit:10;stroke-dasharray:none;stroke-opacity:1"
     id="path4081" />
  <path
     inkscape:connector-curvature="0"
     d="m 131.76126,52.519892 -18.27568,0"
     style="fill:none;stroke:#000000;stroke-width:0.75515342;stroke-linecap:butt;stroke-linejoin:miter;stroke-miterlimit:10;stroke-dasharray:none;stroke-opacity:1"
     id="path4083" />
  <path
     inkscape:connector-curvature="0"
     d="m 131.76126,54.024908 c 0.83585,0 1.50226,-0.676751 1.50226,-1.505016 0,-0.842293 -0.66641,-1.505022 -1.50226,-1.505022 -0.84714,0 -1.51356,0.662729 -1.51356,1.505022 0,0.828265 0.66642,1.505016 1.51356,1.505016 z"
     style="fill:#000000;fill-opacity:1;fill-rule:nonzero;stroke:none;stroke-linecap:butt;stroke-linejoin:round"
     id="path4085" />
  <path
     inkscape:connector-curvature="0"
     d="m 165.44701,54.024908 c 0.84771,0 1.51525,-0.676751 1.51525,-1.505016 0,-0.842293 -0.66754,-1.505022 -1.51525,-1.505022 -0.83359,0 -1.50057,0.662729 -1.50057,1.505022 0,0.828265 0.66698,1.505016 1.50057,1.505016 z"
     style="fill:#000000;fill-opacity:1;fill-rule:nonzero;stroke:none;stroke-linecap:butt;stroke-linejoin:round"
     id="path4087" />
  <path
     inkscape:connector-curvature="0"
     d="m 211.21753,53.868171 c 0.83381,0 1.50083,-0.67619 1.50083,-1.338913 0,-0.842294 -0.66702,-1.505577 -1.50083,-1.505577 -0.84771,0 -1.34797,0.663283 -1.34797,1.505577 0,0.662723 0.50026,1.338913 1.34797,1.338913 z"
     style="fill:none;stroke:#000000;stroke-width:0.75515342;stroke-linecap:butt;stroke-linejoin:miter;stroke-miterlimit:10;stroke-dasharray:none;stroke-opacity:1"
     id="path4089" />
  <path
     inkscape:connector-curvature="0"
     d="m 111.97203,54.024908 c 0.83584,0 1.51355,-0.676751 1.51355,-1.505016 0,-0.842293 -0.67771,-1.505022 -1.51355,-1.505022 -0.8302,0 -1.33284,0.662729 -1.33284,1.505022 0,0.828265 0.50264,1.505016 1.33284,1.505016 z"
     style="fill:none;stroke:#000000;stroke-width:0.75515342;stroke-linecap:butt;stroke-linejoin:miter;stroke-miterlimit:10;stroke-dasharray:none;stroke-opacity:1"
     id="path4091" />
  <path
     id="path23371"
     style="fill:none;stroke:#000000;stroke-width:0.75515342;stroke-linecap:butt;stroke-linejoin:miter;stroke-miterlimit:10;stroke-dasharray:none;stroke-opacity:1"
     d="m 196.3039,55.531998 0,-6.172144 -21.30222,0 0,6.172144 21.30222,0 0,0 z"
     inkscape:connector-curvature="0" />
  <path
     id="path23373"
     style="fill:none;stroke:#000000;stroke-width:0.75515342;stroke-linecap:butt;stroke-linejoin:miter;stroke-miterlimit:10;stroke-dasharray:none;stroke-opacity:1"
     d="m 174.66054,52.445926 -9.97708,0"
     inkscape:connector-curvature="0" />
  <g
     transform="translate(22.596211,128.76223)"
     style="stroke-linecap:butt;stroke-linejoin:round"
     id="g5916">
    <path
       sodipodi:nodetypes="ccc"
       inkscape:connector-curvature="0"
       id="path5918"
       style="fill:none;stroke:#0000ff;stroke-width:4.3502264;stroke-linecap:square;stroke-linejoin:round"
       d="m 146.981,113.851 57.325,0 0,0"
       clip-path="url(#p636487054d-6)"
       transform="matrix(0.2298731,0,0,-0.2298731,86.46383,66.475065)" />
  </g>
  <flowRoot
     xml:space="preserve"
     id="flowRoot6134"
     style="fill:black;stroke:none;stroke-opacity:1;stroke-width:1px;stroke-linejoin:miter;stroke-linecap:butt;fill-opacity:1;font-family:sans-serif;font-style:normal;font-weight:normal;line-height:125%;letter-spacing:0px;word-spacing:0px;text-anchor:middle;text-align:center;font-size:15px"><flowRegion
       id="flowRegion6136"><rect
         id="rect6138"
         width="240.60692"
         height="43.514015"
         x="124.56953"
         y="403.74054"
         style="stroke-linecap:butt;stroke-linejoin:round" /></flowRegion><flowPara
       id="flowPara6140" /></flowRoot>  <flowRoot
     xml:space="preserve"
     id="flowRoot6142"
     style="font-style:normal;font-weight:normal;font-size:12px;line-height:125%;font-family:sans-serif;text-align:center;letter-spacing:0px;word-spacing:0px;text-anchor:middle;fill:#000000;fill-opacity:1;stroke:none;stroke-width:1px;stroke-linecap:butt;stroke-linejoin:miter;stroke-opacity:1"
     transform="translate(-305.79262,-67.104999)"><flowRegion
       id="flowRegion6144"
       style="stroke-linecap:butt;stroke-linejoin:round"><rect
         id="rect6146"
         width="237.53532"
         height="32.763496"
         x="322.85693"
         y="278.62521"
         style="stroke-linecap:butt;stroke-linejoin:round" /></flowRegion><flowPara
       id="flowPara6148"
       style="stroke-linecap:butt;stroke-linejoin:round">$x_r + x_d$, \si{\um}</flowPara></flowRoot>  <flowRoot
     style="font-style:normal;font-weight:normal;font-size:12px;line-height:125%;font-family:sans-serif;text-align:center;letter-spacing:0px;word-spacing:0px;text-anchor:middle;fill:#000000;fill-opacity:1;stroke:none;stroke-width:1px;stroke-linecap:butt;stroke-linejoin:miter;stroke-opacity:1"
     id="flowRoot6150"
     xml:space="preserve"
     transform="translate(-294.18888,-258.22538)"><flowRegion
       style="stroke-linecap:butt;stroke-linejoin:round"
       id="flowRegion6152"><rect
         style="stroke-linecap:butt;stroke-linejoin:round"
         y="278.62521"
         x="322.85693"
         height="32.763496"
         width="237.53532"
         id="rect6154" /></flowRegion><flowPara
       style="stroke-linecap:butt;stroke-linejoin:round"
       id="flowPara6156">$X_c = 1/(\omega C)$</flowPara></flowRoot>  <flowRoot
     transform="translate(-292.82373,-208.17766)"
     xml:space="preserve"
     id="flowRoot6158"
     style="font-style:normal;font-weight:normal;font-size:12px;line-height:125%;font-family:sans-serif;text-align:center;letter-spacing:0px;word-spacing:0px;text-anchor:middle;fill:#000000;fill-opacity:1;stroke:none;stroke-width:1px;stroke-linecap:butt;stroke-linejoin:miter;stroke-opacity:1"><flowRegion
       id="flowRegion6160"
       style="stroke-linecap:butt;stroke-linejoin:round"><rect
         id="rect6162"
         width="237.53532"
         height="32.763496"
         x="322.85693"
         y="278.62521"
         style="stroke-linecap:butt;stroke-linejoin:round" /></flowRegion><flowPara
       id="flowPara6164"
       style="stroke-linecap:butt;stroke-linejoin:round">$R_p$</flowPara></flowRoot>  <flowRoot
     style="font-style:normal;font-weight:normal;font-size:12px;line-height:125%;font-family:sans-serif;text-align:center;letter-spacing:0px;word-spacing:0px;text-anchor:middle;fill:#000000;fill-opacity:1;stroke:none;stroke-width:1px;stroke-linecap:butt;stroke-linejoin:miter;stroke-opacity:1"
     id="flowRoot6166"
     xml:space="preserve"
     transform="translate(-257.81548,-220.46397)"><flowRegion
       style="stroke-linecap:butt;stroke-linejoin:round"
       id="flowRegion6168"><rect
         style="stroke-linecap:butt;stroke-linejoin:round"
         y="278.62521"
         x="322.85693"
         height="32.763496"
         width="237.53532"
         id="rect6170" /></flowRegion><flowPara
       style="stroke-linecap:butt;stroke-linejoin:round"
       id="flowPara6172">$R_s$</flowPara></flowRoot>  <flowRoot
     xml:space="preserve"
     id="flowRoot6255"
     style="font-style:normal;font-weight:normal;font-size:15px;line-height:125%;font-family:sans-serif;text-align:center;letter-spacing:0px;word-spacing:0px;text-anchor:middle;fill:#000000;fill-opacity:1;stroke:none;stroke-width:1px;stroke-linecap:butt;stroke-linejoin:miter;stroke-opacity:1"
     transform="matrix(0.8,0,0,0.8,0,-19.2)"><flowRegion
       id="flowRegion6257"
       style="stroke-linecap:butt;stroke-linejoin:round"><rect
         id="rect6259"
         width="50.339745"
         height="25.596479"
         x="22.183617"
         y="265.51956"
         style="stroke-linecap:butt;stroke-linejoin:round" /></flowRegion><flowPara
       id="flowPara6261"
       style="stroke-linecap:butt;stroke-linejoin:round">0.0</flowPara></flowRoot>  <flowRoot
     transform="matrix(0.8,0,0,0.8,31.721545,-19.2)"
     style="font-style:normal;font-weight:normal;font-size:15px;line-height:125%;font-family:sans-serif;text-align:center;letter-spacing:0px;word-spacing:0px;text-anchor:middle;fill:#000000;fill-opacity:1;stroke:none;stroke-width:1px;stroke-linecap:butt;stroke-linejoin:miter;stroke-opacity:1"
     id="flowRoot6263"
     xml:space="preserve"><flowRegion
       style="stroke-linecap:butt;stroke-linejoin:round"
       id="flowRegion6265"><rect
         style="stroke-linecap:butt;stroke-linejoin:round"
         y="265.51956"
         x="22.183617"
         height="25.596479"
         width="50.339745"
         id="rect6267" /></flowRegion><flowPara
       style="stroke-linecap:butt;stroke-linejoin:round"
       id="flowPara6269">0.1</flowPara></flowRoot>  <flowRoot
     xml:space="preserve"
     id="flowRoot6271"
     style="font-style:normal;font-weight:normal;font-size:12px;line-height:125%;font-family:sans-serif;text-align:center;letter-spacing:0px;word-spacing:0px;text-anchor:middle;fill:#000000;fill-opacity:1;stroke:none;stroke-width:1px;stroke-linecap:butt;stroke-linejoin:miter;stroke-opacity:1"
     transform="translate(14.950909,-19.2)"><flowRegion
       id="flowRegion6273"
       style="stroke-linecap:butt;stroke-linejoin:round"><rect
         id="rect6275"
         width="40.271797"
         height="20.477184"
         x="65.746895"
         y="212.41565"
         style="stroke-linecap:butt;stroke-linejoin:round" /></flowRegion><flowPara
       id="flowPara6277"
       style="stroke-linecap:butt;stroke-linejoin:round">0.2</flowPara></flowRoot>  <flowRoot
     transform="translate(46.49082,-19.2)"
     style="font-style:normal;font-weight:normal;font-size:12px;line-height:125%;font-family:sans-serif;text-align:center;letter-spacing:0px;word-spacing:0px;text-anchor:middle;fill:#000000;fill-opacity:1;stroke:none;stroke-width:1px;stroke-linecap:butt;stroke-linejoin:miter;stroke-opacity:1"
     id="flowRoot6279"
     xml:space="preserve"><flowRegion
       style="stroke-linecap:butt;stroke-linejoin:round"
       id="flowRegion6281"><rect
         style="stroke-linecap:butt;stroke-linejoin:round"
         y="212.41565"
         x="65.746895"
         height="20.477184"
         width="40.271797"
         id="rect6283" /></flowRegion><flowPara
       style="stroke-linecap:butt;stroke-linejoin:round"
       id="flowPara6285">0.3</flowPara></flowRoot>  <flowRoot
     xml:space="preserve"
     id="flowRoot6287"
     style="font-style:normal;font-weight:normal;font-size:12px;line-height:125%;font-family:sans-serif;text-align:center;letter-spacing:0px;word-spacing:0px;text-anchor:middle;fill:#000000;fill-opacity:1;stroke:none;stroke-width:1px;stroke-linecap:butt;stroke-linejoin:miter;stroke-opacity:1"
     transform="translate(77.808069,-19.2)"><flowRegion
       id="flowRegion6289"
       style="stroke-linecap:butt;stroke-linejoin:round"><rect
         id="rect6291"
         width="40.271797"
         height="20.477184"
         x="65.746895"
         y="212.41565"
         style="stroke-linecap:butt;stroke-linejoin:round" /></flowRegion><flowPara
       id="flowPara6293"
       style="stroke-linecap:butt;stroke-linejoin:round">0.4</flowPara></flowRoot>  <flowRoot
     transform="translate(109.42122,-19.2)"
     style="font-style:normal;font-weight:normal;font-size:12px;line-height:125%;font-family:sans-serif;text-align:center;letter-spacing:0px;word-spacing:0px;text-anchor:middle;fill:#000000;fill-opacity:1;stroke:none;stroke-width:1px;stroke-linecap:butt;stroke-linejoin:miter;stroke-opacity:1"
     id="flowRoot6295"
     xml:space="preserve"><flowRegion
       style="stroke-linecap:butt;stroke-linejoin:round"
       id="flowRegion6297"><rect
         style="stroke-linecap:butt;stroke-linejoin:round"
         y="212.41565"
         x="65.746895"
         height="20.477184"
         width="40.271797"
         id="rect6299" /></flowRegion><flowPara
       style="stroke-linecap:butt;stroke-linejoin:round"
       id="flowPara6301">0.5</flowPara></flowRoot>  <flowRoot
     xml:space="preserve"
     id="flowRoot6303"
     style="font-style:normal;font-weight:normal;font-size:12px;line-height:125%;font-family:sans-serif;text-align:center;letter-spacing:0px;word-spacing:0px;text-anchor:middle;fill:#000000;fill-opacity:1;stroke:none;stroke-width:1px;stroke-linecap:butt;stroke-linejoin:miter;stroke-opacity:1"
     transform="translate(140.8,-19.2)"><flowRegion
       id="flowRegion6305"
       style="stroke-linecap:butt;stroke-linejoin:round"><rect
         id="rect6307"
         width="40.271797"
         height="20.477184"
         x="65.746895"
         y="212.41565"
         style="stroke-linecap:butt;stroke-linejoin:round" /></flowRegion><flowPara
       id="flowPara6309"
       style="stroke-linecap:butt;stroke-linejoin:round">0.6</flowPara></flowRoot>  <flowRoot
     transform="translate(-161.08719,-115.80252)"
     style="font-style:normal;font-weight:normal;font-size:12px;line-height:125%;font-family:sans-serif;text-align:center;letter-spacing:0px;word-spacing:0px;text-anchor:middle;fill:#000000;fill-opacity:1;stroke:none;stroke-width:1px;stroke-linecap:butt;stroke-linejoin:miter;stroke-opacity:1"
     id="flowRoot6311"
     xml:space="preserve"><flowRegion
       style="stroke-linecap:butt;stroke-linejoin:round"
       id="flowRegion6313"><rect
         style="stroke-linecap:butt;stroke-linejoin:round"
         y="278.62521"
         x="322.85693"
         height="17.064314"
         width="101.70335"
         id="rect6315" /></flowRegion><flowPara
       style="text-align:start;text-anchor:start;stroke-linecap:butt;stroke-linejoin:round"
       id="flowPara6317">experiment</flowPara></flowRoot>  <flowRoot
     xml:space="preserve"
     id="flowRoot6319"
     style="font-style:normal;font-weight:normal;font-size:12px;line-height:125%;font-family:sans-serif;text-align:center;letter-spacing:0px;word-spacing:0px;text-anchor:middle;fill:#000000;fill-opacity:1;stroke:none;stroke-width:1px;stroke-linecap:butt;stroke-linejoin:miter;stroke-opacity:1"
     transform="translate(-331.49554,-166.3129)"><flowRegion
       id="flowRegion6321"
       style="stroke-linecap:butt;stroke-linejoin:round"><rect
         id="rect6323"
         width="101.70335"
         height="17.064314"
         x="322.85693"
         y="278.62521"
         style="stroke-linecap:butt;stroke-linejoin:round" /></flowRegion><flowPara
       id="flowPara6325"
       style="text-align:end;text-anchor:end;stroke-linecap:butt;stroke-linejoin:round">$f_{opt}$</flowPara></flowRoot>  <flowRoot
     transform="matrix(0.8,0,0,0.8,-76.2133,-30.803738)"
     style="font-style:normal;font-weight:normal;font-size:15px;line-height:125%;font-family:sans-serif;text-align:center;letter-spacing:0px;word-spacing:0px;text-anchor:middle;fill:#000000;fill-opacity:1;stroke:none;stroke-width:1px;stroke-linecap:butt;stroke-linejoin:miter;stroke-opacity:1"
     id="flowRoot6327"
     xml:space="preserve"><flowRegion
       style="stroke-linecap:butt;stroke-linejoin:round"
       id="flowRegion6329"><rect
         style="stroke-linecap:butt;stroke-linejoin:round"
         y="265.51956"
         x="22.183617"
         height="17.064306"
         width="116.03738"
         id="rect6331" /></flowRegion><flowPara
       style="text-align:end;text-anchor:end;stroke-linecap:butt;stroke-linejoin:round"
       id="flowPara6333">\num{e2}</flowPara></flowRoot>  <flowRoot
     xml:space="preserve"
     id="flowRoot6335"
     style="font-style:normal;font-weight:normal;font-size:15px;line-height:125%;font-family:sans-serif;text-align:center;letter-spacing:0px;word-spacing:0px;text-anchor:middle;fill:#000000;fill-opacity:1;stroke:none;stroke-width:1px;stroke-linecap:butt;stroke-linejoin:miter;stroke-opacity:1"
     transform="matrix(0.8,0,0,0.8,-76.2133,-75.603738)"><flowRegion
       id="flowRegion6337"
       style="stroke-linecap:butt;stroke-linejoin:round"><rect
         id="rect6339"
         width="116.03738"
         height="17.064306"
         x="22.183617"
         y="265.51956"
         style="stroke-linecap:butt;stroke-linejoin:round" /></flowRegion><flowPara
       id="flowPara6341"
       style="text-align:end;text-anchor:end;stroke-linecap:butt;stroke-linejoin:round">\num{e3}</flowPara></flowRoot>  <flowRoot
     transform="matrix(0.8,0,0,0.8,-23.380097,-148.20626)"
     style="font-style:normal;font-weight:normal;font-size:15px;line-height:125%;font-family:sans-serif;text-align:center;letter-spacing:0px;word-spacing:0px;text-anchor:middle;fill:#000000;fill-opacity:1;stroke:none;stroke-width:1px;stroke-linecap:butt;stroke-linejoin:miter;stroke-opacity:1"
     id="flowRoot6343"
     xml:space="preserve"><flowRegion
       style="stroke-linecap:butt;stroke-linejoin:round"
       id="flowRegion6345"><rect
         style="stroke-linecap:butt;stroke-linejoin:round"
         y="265.51956"
         x="22.183617"
         height="25.596479"
         width="50.339745"
         id="rect6347" /></flowRegion><flowPara
       style="text-align:end;text-anchor:end;stroke-linecap:butt;stroke-linejoin:round"
       id="flowPara6349">0.1</flowPara></flowRoot>  <flowRoot
     xml:space="preserve"
     id="flowRoot6371"
     style="font-style:normal;font-weight:normal;font-size:12px;line-height:125%;font-family:sans-serif;text-align:center;letter-spacing:0px;word-spacing:0px;text-anchor:middle;fill:#000000;fill-opacity:1;stroke:none;stroke-width:1px;stroke-linecap:butt;stroke-linejoin:miter;stroke-opacity:1"
     transform="translate(1.8749813,-16)"><flowRegion
       id="flowRegion6373"
       style="stroke-linecap:butt;stroke-linejoin:round"><rect
         id="rect6375"
         width="40.271797"
         height="20.477184"
         x="-7.5082998"
         y="45.009388"
         style="stroke-linecap:butt;stroke-linejoin:round" /></flowRegion><flowPara
       id="flowPara6377"
       style="text-align:end;text-anchor:end;stroke-linecap:butt;stroke-linejoin:round">1</flowPara></flowRoot>  <flowRoot
     xml:space="preserve"
     id="flowRoot6379"
     style="fill:black;stroke:none;stroke-opacity:1;stroke-width:1px;stroke-linejoin:miter;stroke-linecap:butt;fill-opacity:1;font-family:sans-serif;font-style:normal;font-weight:normal;line-height:125%;letter-spacing:0px;word-spacing:0px;text-anchor:middle;text-align:center;font-size:15px"><flowRegion
       id="flowRegion6381"><rect
         id="rect6383"
         width="243.16656"
         height="41.807583"
         x="379.68112"
         y="97.435997"
         style="stroke-linecap:butt;stroke-linejoin:round" /></flowRegion><flowPara
       id="flowPara6385" /></flowRoot>  <flowRoot
     xml:space="preserve"
     id="flowRoot6403"
     style="fill:black;stroke:none;stroke-opacity:1;stroke-width:1px;stroke-linejoin:miter;stroke-linecap:butt;fill-opacity:1;font-family:sans-serif;font-style:normal;font-weight:normal;line-height:125%;letter-spacing:0px;word-spacing:0px;text-anchor:middle;text-align:center;font-size:15px"><flowRegion
       id="flowRegion6405"><rect
         id="rect6407"
         width="413.80975"
         height="45.220448"
         x="367.73608"
         y="132.41785"
         style="stroke-linecap:butt;stroke-linejoin:round" /></flowRegion><flowPara
       id="flowPara6409" /></flowRoot>  <flowRoot
     xml:space="preserve"
     id="flowRoot6411"
     style="font-style:normal;font-weight:normal;font-size:15px;line-height:125%;font-family:sans-serif;text-align:center;letter-spacing:0px;word-spacing:0px;text-anchor:middle;fill:#000000;fill-opacity:1;stroke:none;stroke-width:1px;stroke-linecap:butt;stroke-linejoin:miter;stroke-opacity:1"
     transform="matrix(0,-0.8,0.8,0,-144.84387,961.45886)"><flowRegion
       id="flowRegion6413"
       style="stroke-linecap:butt;stroke-linejoin:round"><rect
         id="rect6415"
         width="659.53595"
         height="116.89059"
         x="385.65363"
         y="177.63831"
         style="stroke-linecap:butt;stroke-linejoin:round" /></flowRegion><flowPara
       id="flowPara6417"
       style="text-align:end;text-anchor:end;stroke-linecap:butt;stroke-linejoin:round">$C_p$, \si{\micro\farad\per\square\cm}</flowPara></flowRoot>  <flowRoot
     transform="matrix(0,-0.8,0.8,0,-138.11253,631.5734)"
     style="font-style:normal;font-weight:normal;font-size:15px;line-height:125%;font-family:sans-serif;text-align:center;letter-spacing:0px;word-spacing:0px;text-anchor:middle;fill:#000000;fill-opacity:1;stroke:none;stroke-width:1px;stroke-linecap:butt;stroke-linejoin:miter;stroke-opacity:1"
     id="flowRoot6419"
     xml:space="preserve"><flowRegion
       style="stroke-linecap:butt;stroke-linejoin:round"
       id="flowRegion6421"><rect
         style="stroke-linecap:butt;stroke-linejoin:round"
         y="177.63831"
         x="385.65363"
         height="24.316669"
         width="236.34084"
         id="rect6423" /></flowRegion><flowPara
       style="text-align:end;text-anchor:end;stroke-linecap:butt;stroke-linejoin:round"
       id="flowPara6425" /></flowRoot>  <text
     xml:space="preserve"
     style="font-style:normal;font-weight:normal;font-size:8px;line-height:125%;font-family:sans-serif;text-align:center;letter-spacing:0px;word-spacing:0px;text-anchor:middle;fill:#000000;fill-opacity:1;stroke:none;stroke-width:1px;stroke-linecap:butt;stroke-linejoin:miter;stroke-opacity:1"
     x="-160.35167"
     y="9.0004396"
     id="text4910"
     sodipodi:linespacing="125%"
     transform="matrix(0,-1,1,0,0,0)"><tspan
       sodipodi:role="line"
       id="tspan4912"
       style="stroke-linecap:butt;stroke-linejoin:round"
       x="-160.35167"
       y="9.0004396">$f$, \si{\hertz}</tspan></text>
</svg>
