<?xml version="1.0" encoding="UTF-8" standalone="no"?>
<!-- Created with matplotlib (http://matplotlib.org/) -->

<svg
   xmlns:dc="http://purl.org/dc/elements/1.1/"
   xmlns:cc="http://creativecommons.org/ns#"
   xmlns:rdf="http://www.w3.org/1999/02/22-rdf-syntax-ns#"
   xmlns:svg="http://www.w3.org/2000/svg"
   xmlns="http://www.w3.org/2000/svg"
   xmlns:xlink="http://www.w3.org/1999/xlink"
   xmlns:sodipodi="http://sodipodi.sourceforge.net/DTD/sodipodi-0.dtd"
   xmlns:inkscape="http://www.inkscape.org/namespaces/inkscape"
   height="345pt"
   version="1.1"
   viewBox="0 0 432 345"
   width="432pt"
   id="svg2"
   inkscape:version="0.91 "
   sodipodi:docname="blue_slice_cv_m.svg">
  <metadata
     id="metadata441">
    <rdf:RDF>
      <cc:Work
         rdf:about="">
        <dc:format>image/svg+xml</dc:format>
        <dc:type
           rdf:resource="http://purl.org/dc/dcmitype/StillImage" />
      </cc:Work>
    </rdf:RDF>
  </metadata>
  <sodipodi:namedview
     pagecolor="#ffffff"
     bordercolor="#666666"
     borderopacity="1"
     objecttolerance="10"
     gridtolerance="10"
     guidetolerance="10"
     inkscape:pageopacity="0"
     inkscape:pageshadow="2"
     inkscape:window-width="1828"
     inkscape:window-height="1051"
     id="namedview439"
     showgrid="false"
     inkscape:zoom="6.191386"
     inkscape:cx="405.30585"
     inkscape:cy="294.29472"
     inkscape:window-x="83"
     inkscape:window-y="-9"
     inkscape:window-maximized="1"
     inkscape:current-layer="text_15-5" />
  <defs
     id="defs4">
    <style
       type="text/css"
       id="style6">
*{stroke-linecap:butt;stroke-linejoin:round;stroke-miterlimit:100000;}
  </style>
  </defs>
  <g
     id="figure_1">
    <g
       id="patch_1">
      <path
         d="M 0 345.6  L 432 345.6  L 432 0  L 0 0  z "
         style="fill:#ffffff;"
         id="path10" />
    </g>
    <g
       id="axes_1">
      <g
         id="patch_2">
        <path
           d="M 54 302.4  L 388.8 302.4  L 388.8 34.56  L 54 34.56  z "
           style="fill:#ffffff;"
           id="path14" />
      </g>
      <g
         id="patch_3">
        <path
           clip-path="url(#pd7bc4475d2)"
           d="M 179.55 195.264  C 180.937344 195.264 182.268052 193.147402 183.249052 189.380361  C 184.230052 185.61332 184.78125 180.5034 184.78125 175.176  C 184.78125 169.8486 184.230052 164.73868 183.249052 160.971639  C 182.268052 157.204598 180.937344 155.088 179.55 155.088  C 178.162656 155.088 176.831948 157.204598 175.850948 160.971639  C 174.869948 164.73868 174.31875 169.8486 174.31875 175.176  C 174.31875 180.5034 174.869948 185.61332 175.850948 189.380361  C 176.831948 193.147402 178.162656 195.264 179.55 195.264  L 179.55 195.264  z "
           style="fill:none;stroke:#0000ff;stroke-linejoin:miter;stroke-width:0.5;"
           id="path17" />
      </g>
      <g
         id="line2d_1">
        <path
           clip-path="url(#pd7bc4475d2)"
           d="M 56.97972 151.74  L 61.16472 149.723165  L 65.34972 147.631334  L 69.53472 151.27128  L 73.71972 151.223069  L 77.90472 150.623107  L 82.08972 150.773098  L 86.27472 151.043616  L 90.45972 151.504301  L 94.64472 152.098906  L 98.82972 152.872963  L 103.01472 153.888077  L 107.19972 155.050502  L 111.38472 156.322742  L 115.56972 157.69944  L 119.75472 160.908163  L 119.75472 159.660029  L 123.93972 162.233971  L 128.12472 163.573171  L 132.30972 164.818627  L 136.49472 166.01855  L 140.67972 167.194368  L 144.86472 168.281798  L 149.04972 169.393334  L 153.23472 170.42184  L 157.41972 171.44231  L 161.60472 172.409213  L 165.78972 173.627885  L 169.97472 174.546576  L 174.15972 175.462589  L 178.34472 176.359853  L 182.52972 177.208906  L 186.71472 178.076707  L 190.89972 178.920403  L 195.08472 179.726602  L 199.26972 180.589046  L 203.45472 181.277395  L 207.63972 182.249654  L 211.82472 183.047818  L 216.00972 183.787056  L 220.19472 184.504867  L 224.37972 185.228035  L 228.56472 185.937811  L 232.74972 186.644909  L 236.93472 187.314509  L 241.11972 187.98143  L 245.305557 188.645674  L 249.490557 189.272419  L 253.675557 190.073261  L 257.860557 190.702685  L 262.045536 191.310682  L 266.230557 191.921357  L 270.415557 192.550781  L 274.600557 193.12128  L 278.785557 193.748026  L 282.970557 194.318525  L 287.15472 194.883667  L 291.33972 195.46488  L 295.52472 196.18537  L 299.70972 196.825507  L 303.89472 197.409398  L 308.07972 197.95847  L 312.26472 198.587894  L 316.44972 199.195891  L 320.63472 199.865491  L 324.81972 200.53777  L 329.00472 201.204691  L 333.18972 201.898397  L 337.37472 202.688525  L 341.55972 203.749171  L 345.74472 204.584832  L 349.92972 205.562448  L 354.11472 206.588275  L 358.29972 207.662314  L 362.48472 208.827418  L 366.66972 210.142512  L 370.85472 211.479034  L 375.03972 213.013757  L 379.22472 214.658294  L 383.40972 216.182304  L 387.59472 218.258064  L 391.77972 220.336502  L 395.96472 222.543504  L 400.14972 224.879069  "
           style="fill:none;stroke:#0000ff;stroke-linecap:square;"
           id="path20" />
      </g>
      <g
         id="line2d_2">
        <path
           clip-path="url(#pd7bc4475d2)"
           d="M 56.97972 -21.338208  M 58.552132 -1  L 61.16472 32.792256  L 65.34972 75.349354  L 69.53472 49.451904  L 73.71972 70.268429  L 77.90472 97.98719  L 82.08972 110.947968  L 86.27472 121.460688  L 90.45972 129.118234  L 94.64472 135.01607  L 98.82972 139.53721  L 103.01472 143.244115  L 107.19972 146.294813  L 111.38472 148.887504  L 115.56972 151.177536  L 119.75472 155.513866  L 119.75472 153.984499  L 123.93972 157.171795  L 128.12472 158.78687  L 132.30972 160.257312  L 136.49472 161.671507  L 140.67972 162.994637  L 144.86472 164.232058  L 149.04972 165.48287  L 153.23472 166.613155  L 157.41972 167.746118  L 161.60472 168.804086  L 165.78972 170.124538  L 169.97472 171.118224  L 174.15972 172.106554  L 178.34472 173.068099  L 182.52972 173.97072  L 186.71472 174.894768  L 190.89972 175.77864  L 195.08472 176.643763  L 199.26972 177.551741  L 203.45472 178.288301  L 207.63972 179.314128  L 211.82472 180.149789  L 216.00972 180.931882  L 220.19472 181.684512  L 224.37972 182.431786  L 228.56472 183.176381  L 232.74972 183.912941  L 236.93472 184.612003  L 241.11972 185.308387  L 245.305557 185.980666  L 249.490557 186.634195  L 253.675557 187.464499  L 257.860557 188.101958  L 262.045536 188.720669  L 266.230557 189.312595  L 270.415557 189.950054  L 274.600557 190.504483  L 278.785557 191.131229  L 282.970557 191.653517  L 287.15472 192.178483  L 291.33972 192.708806  L 295.52472 193.332874  L 299.70972 193.863197  L 303.89472 194.31049  L 308.07972 194.672074  L 312.26472 195.076512  L 316.44972 195.400598  L 320.63472 195.689866  L 324.81972 195.863962  L 329.00472 195.930922  L 333.18972 195.79968  L 337.37472 195.588086  L 341.55972 194.875632  L 345.74472 193.839091  L 349.92972 192.507926  L 354.11472 190.378598  L 358.29972 187.534138  L 362.48472 183.572784  L 366.66972 178.199914  L 370.85472 170.80753  L 375.03972 161.06351  L 379.22472 147.97417  L 383.40972 132.838531  L 387.59472 107.688355  L 391.77972 75.943958  L 395.96472 33.997536  L 398.674514 -1  "
           style="fill:none;stroke:#00bfbf;stroke-dasharray:6.000000,6.000000;stroke-dashoffset:0.0;stroke-width:1.5;"
           id="path23" />
      </g>
      <g
         id="line2d_3">
        <defs
           id="defs26">
          <path
             d="M 0 1.5  C 0.397805 1.5 0.77937 1.341951 1.06066 1.06066  C 1.341951 0.77937 1.5 0.397805 1.5 0  C 1.5 -0.397805 1.341951 -0.77937 1.06066 -1.06066  C 0.77937 -1.341951 0.397805 -1.5 0 -1.5  C -0.397805 -1.5 -0.77937 -1.341951 -1.06066 -1.06066  C -1.341951 -0.77937 -1.5 -0.397805 -1.5 0  C -1.5 0.397805 -1.341951 0.77937 -1.06066 1.06066  C -0.77937 1.341951 -0.397805 1.5 0 1.5  z "
             id="m01f6b99181"
             style="stroke:#008000;stroke-width:0.5;" />
        </defs>
        <g
           clip-path="url(#pd7bc4475d2)"
           id="g29">
          <use
             style="fill:#008000;stroke:#008000;stroke-width:0.5;"
             x="56.97972"
             xlink:href="#m01f6b99181"
             y="96.123024"
             id="use31" />
          <use
             style="fill:#008000;stroke:#008000;stroke-width:0.5;"
             x="61.16472"
             xlink:href="#m01f6b99181"
             y="106.07328"
             id="use33" />
          <use
             style="fill:#008000;stroke:#008000;stroke-width:0.5;"
             x="65.34972"
             xlink:href="#m01f6b99181"
             y="115.1343072"
             id="use35" />
          <use
             style="fill:#008000;stroke:#008000;stroke-width:0.5;"
             x="69.53472"
             xlink:href="#m01f6b99181"
             y="111.9684384"
             id="use37" />
          <use
             style="fill:#008000;stroke:#008000;stroke-width:0.5;"
             x="73.71972"
             xlink:href="#m01f6b99181"
             y="117.3386304"
             id="use39" />
          <use
             style="fill:#008000;stroke:#008000;stroke-width:0.5;"
             x="77.90472"
             xlink:href="#m01f6b99181"
             y="124.808688"
             id="use41" />
          <use
             style="fill:#008000;stroke:#008000;stroke-width:0.5;"
             x="82.08972"
             xlink:href="#m01f6b99181"
             y="129.228048"
             id="use43" />
          <use
             style="fill:#008000;stroke:#008000;stroke-width:0.5;"
             x="86.27472"
             xlink:href="#m01f6b99181"
             y="133.3179648"
             id="use45" />
          <use
             style="fill:#008000;stroke:#008000;stroke-width:0.5;"
             x="90.45972"
             xlink:href="#m01f6b99181"
             y="136.7998848"
             id="use47" />
          <use
             style="fill:#008000;stroke:#008000;stroke-width:0.5;"
             x="94.64472"
             xlink:href="#m01f6b99181"
             y="139.8854016"
             id="use49" />
          <use
             style="fill:#008000;stroke:#008000;stroke-width:0.5;"
             x="98.82972"
             xlink:href="#m01f6b99181"
             y="142.6280832"
             id="use51" />
          <use
             style="fill:#008000;stroke:#008000;stroke-width:0.5;"
             x="103.01472"
             xlink:href="#m01f6b99181"
             y="145.2073824"
             id="use53" />
          <use
             style="fill:#008000;stroke:#008000;stroke-width:0.5;"
             x="107.19972"
             xlink:href="#m01f6b99181"
             y="147.5724096"
             id="use55" />
          <use
             style="fill:#008000;stroke:#008000;stroke-width:0.5;"
             x="111.38472"
             xlink:href="#m01f6b99181"
             y="149.7526272"
             id="use57" />
          <use
             style="fill:#008000;stroke:#008000;stroke-width:0.5;"
             x="115.56972"
             xlink:href="#m01f6b99181"
             y="151.7962464"
             id="use59" />
          <use
             style="fill:#008000;stroke:#008000;stroke-width:0.5;"
             x="119.75472"
             xlink:href="#m01f6b99181"
             y="155.8995552"
             id="use61" />
          <use
             style="fill:#008000;stroke:#008000;stroke-width:0.5;"
             x="119.75472"
             xlink:href="#m01f6b99181"
             y="154.4157216"
             id="use63" />
          <use
             style="fill:#008000;stroke:#008000;stroke-width:0.5;"
             x="123.93972"
             xlink:href="#m01f6b99181"
             y="157.5039168"
             id="use65" />
          <use
             style="fill:#008000;stroke:#008000;stroke-width:0.5;"
             x="128.12472"
             xlink:href="#m01f6b99181"
             y="159.0761376"
             id="use67" />
          <use
             style="fill:#008000;stroke:#008000;stroke-width:0.5;"
             x="132.30972"
             xlink:href="#m01f6b99181"
             y="160.5171168"
             id="use69" />
          <use
             style="fill:#008000;stroke:#008000;stroke-width:0.5;"
             x="136.49472"
             xlink:href="#m01f6b99181"
             y="161.904528"
             id="use71" />
          <use
             style="fill:#008000;stroke:#008000;stroke-width:0.5;"
             x="140.67972"
             xlink:href="#m01f6b99181"
             y="163.2142656"
             id="use73" />
          <use
             style="fill:#008000;stroke:#008000;stroke-width:0.5;"
             x="144.86472"
             xlink:href="#m01f6b99181"
             y="164.435616"
             id="use75" />
          <use
             style="fill:#008000;stroke:#008000;stroke-width:0.5;"
             x="149.04972"
             xlink:href="#m01f6b99181"
             y="165.6730368"
             id="use77" />
          <use
             style="fill:#008000;stroke:#008000;stroke-width:0.5;"
             x="153.23472"
             xlink:href="#m01f6b99181"
             y="166.7952864"
             id="use79" />
          <use
             style="fill:#008000;stroke:#008000;stroke-width:0.5;"
             x="157.41972"
             xlink:href="#m01f6b99181"
             y="167.9228928"
             id="use81" />
          <use
             style="fill:#008000;stroke:#008000;stroke-width:0.5;"
             x="161.60472"
             xlink:href="#m01f6b99181"
             y="168.9728256"
             id="use83" />
          <use
             style="fill:#008000;stroke:#008000;stroke-width:0.5;"
             x="165.78972"
             xlink:href="#m01f6b99181"
             y="170.2905984"
             id="use85" />
          <use
             style="fill:#008000;stroke:#008000;stroke-width:0.5;"
             x="169.97472"
             xlink:href="#m01f6b99181"
             y="171.278928"
             id="use87" />
          <use
             style="fill:#008000;stroke:#008000;stroke-width:0.5;"
             x="174.15972"
             xlink:href="#m01f6b99181"
             y="172.2672576"
             id="use89" />
          <use
             style="fill:#008000;stroke:#008000;stroke-width:0.5;"
             x="178.34472"
             xlink:href="#m01f6b99181"
             y="173.2234464"
             id="use91" />
          <use
             style="fill:#008000;stroke:#008000;stroke-width:0.5;"
             x="182.52972"
             xlink:href="#m01f6b99181"
             y="174.1287456"
             id="use93" />
          <use
             style="fill:#008000;stroke:#008000;stroke-width:0.5;"
             x="186.71472"
             xlink:href="#m01f6b99181"
             y="175.0501152"
             id="use95" />
          <use
             style="fill:#008000;stroke:#008000;stroke-width:0.5;"
             x="190.89972"
             xlink:href="#m01f6b99181"
             y="175.9366656"
             id="use97" />
          <use
             style="fill:#008000;stroke:#008000;stroke-width:0.5;"
             x="195.08472"
             xlink:href="#m01f6b99181"
             y="176.7991104"
             id="use99" />
          <use
             style="fill:#008000;stroke:#008000;stroke-width:0.5;"
             x="199.26972"
             xlink:href="#m01f6b99181"
             y="177.7097664"
             id="use101" />
          <use
             style="fill:#008000;stroke:#008000;stroke-width:0.5;"
             x="203.45472"
             xlink:href="#m01f6b99181"
             y="178.443648"
             id="use103" />
          <use
             style="fill:#008000;stroke:#008000;stroke-width:0.5;"
             x="207.63972"
             xlink:href="#m01f6b99181"
             y="179.4721536"
             id="use105" />
          <use
             style="fill:#008000;stroke:#008000;stroke-width:0.5;"
             x="211.82472"
             xlink:href="#m01f6b99181"
             y="180.3104928"
             id="use107" />
          <use
             style="fill:#008000;stroke:#008000;stroke-width:0.5;"
             x="216.00972"
             xlink:href="#m01f6b99181"
             y="181.0899072"
             id="use109" />
          <use
             style="fill:#008000;stroke:#008000;stroke-width:0.5;"
             x="220.19472"
             xlink:href="#m01f6b99181"
             y="181.845216"
             id="use111" />
          <use
             style="fill:#008000;stroke:#008000;stroke-width:0.5;"
             x="224.37972"
             xlink:href="#m01f6b99181"
             y="182.595168"
             id="use113" />
          <use
             style="fill:#008000;stroke:#008000;stroke-width:0.5;"
             x="228.56472"
             xlink:href="#m01f6b99181"
             y="183.3424416"
             id="use115" />
          <use
             style="fill:#008000;stroke:#008000;stroke-width:0.5;"
             x="232.74972"
             xlink:href="#m01f6b99181"
             y="184.0790016"
             id="use117" />
          <use
             style="fill:#008000;stroke:#008000;stroke-width:0.5;"
             x="236.93472"
             xlink:href="#m01f6b99181"
             y="184.7807424"
             id="use119" />
          <use
             style="fill:#008000;stroke:#008000;stroke-width:0.5;"
             x="241.11972"
             xlink:href="#m01f6b99181"
             y="185.4798048"
             id="use121" />
          <use
             style="fill:#008000;stroke:#008000;stroke-width:0.5;"
             x="245.305557"
             xlink:href="#m01f6b99181"
             y="186.15744"
             id="use123" />
          <use
             style="fill:#008000;stroke:#008000;stroke-width:0.5;"
             x="249.490557"
             xlink:href="#m01f6b99181"
             y="186.8109696"
             id="use125" />
          <use
             style="fill:#008000;stroke:#008000;stroke-width:0.5;"
             x="253.675557"
             xlink:href="#m01f6b99181"
             y="187.643952"
             id="use127" />
          <use
             style="fill:#008000;stroke:#008000;stroke-width:0.5;"
             x="257.860557"
             xlink:href="#m01f6b99181"
             y="188.2921248"
             id="use129" />
          <use
             style="fill:#008000;stroke:#008000;stroke-width:0.5;"
             x="262.045536075"
             xlink:href="#m01f6b99181"
             y="188.9135136"
             id="use131" />
          <use
             style="fill:#008000;stroke:#008000;stroke-width:0.5;"
             x="266.230557"
             xlink:href="#m01f6b99181"
             y="189.518832"
             id="use133" />
          <use
             style="fill:#008000;stroke:#008000;stroke-width:0.5;"
             x="270.415557"
             xlink:href="#m01f6b99181"
             y="190.1643264"
             id="use135" />
          <use
             style="fill:#008000;stroke:#008000;stroke-width:0.5;"
             x="274.600557"
             xlink:href="#m01f6b99181"
             y="190.7321472"
             id="use137" />
          <use
             style="fill:#008000;stroke:#008000;stroke-width:0.5;"
             x="278.785557"
             xlink:href="#m01f6b99181"
             y="191.366928"
             id="use139" />
          <use
             style="fill:#008000;stroke:#008000;stroke-width:0.5;"
             x="282.970557"
             xlink:href="#m01f6b99181"
             y="191.9133216"
             id="use141" />
          <use
             style="fill:#008000;stroke:#008000;stroke-width:0.5;"
             x="287.15472"
             xlink:href="#m01f6b99181"
             y="192.4597152"
             id="use143" />
          <use
             style="fill:#008000;stroke:#008000;stroke-width:0.5;"
             x="291.33972"
             xlink:href="#m01f6b99181"
             y="193.0168224"
             id="use145" />
          <use
             style="fill:#008000;stroke:#008000;stroke-width:0.5;"
             x="295.52472"
             xlink:href="#m01f6b99181"
             y="193.6864224"
             id="use147" />
          <use
             style="fill:#008000;stroke:#008000;stroke-width:0.5;"
             x="299.70972"
             xlink:href="#m01f6b99181"
             y="194.2676352"
             id="use149" />
          <use
             style="fill:#008000;stroke:#008000;stroke-width:0.5;"
             x="303.89472"
             xlink:href="#m01f6b99181"
             y="194.7765312"
             id="use151" />
          <use
             style="fill:#008000;stroke:#008000;stroke-width:0.5;"
             x="308.07972"
             xlink:href="#m01f6b99181"
             y="195.223824"
             id="use153" />
          <use
             style="fill:#008000;stroke:#008000;stroke-width:0.5;"
             x="312.26472"
             xlink:href="#m01f6b99181"
             y="195.7380768"
             id="use155" />
          <use
             style="fill:#008000;stroke:#008000;stroke-width:0.5;"
             x="316.44972"
             xlink:href="#m01f6b99181"
             y="196.2041184"
             id="use157" />
          <use
             style="fill:#008000;stroke:#008000;stroke-width:0.5;"
             x="320.63472"
             xlink:href="#m01f6b99181"
             y="196.6889088"
             id="use159" />
          <use
             style="fill:#008000;stroke:#008000;stroke-width:0.5;"
             x="324.81972"
             xlink:href="#m01f6b99181"
             y="197.1335232"
             id="use161" />
          <use
             style="fill:#008000;stroke:#008000;stroke-width:0.5;"
             x="329.00472"
             xlink:href="#m01f6b99181"
             y="197.5433184"
             id="use163" />
          <use
             style="fill:#008000;stroke:#008000;stroke-width:0.5;"
             x="333.18972"
             xlink:href="#m01f6b99181"
             y="197.9049024"
             id="use165" />
          <use
             style="fill:#008000;stroke:#008000;stroke-width:0.5;"
             x="337.37472"
             xlink:href="#m01f6b99181"
             y="198.3254112"
             id="use167" />
          <use
             style="fill:#008000;stroke:#008000;stroke-width:0.5;"
             x="341.55972"
             xlink:href="#m01f6b99181"
             y="198.7968096"
             id="use169" />
          <use
             style="fill:#008000;stroke:#008000;stroke-width:0.5;"
             x="345.74472"
             xlink:href="#m01f6b99181"
             y="199.0726848"
             id="use171" />
          <use
             style="fill:#008000;stroke:#008000;stroke-width:0.5;"
             x="349.92972"
             xlink:href="#m01f6b99181"
             y="199.4396256"
             id="use173" />
          <use
             style="fill:#008000;stroke:#008000;stroke-width:0.5;"
             x="354.11472"
             xlink:href="#m01f6b99181"
             y="199.7155008"
             id="use175" />
          <use
             style="fill:#008000;stroke:#008000;stroke-width:0.5;"
             x="358.29972"
             xlink:href="#m01f6b99181"
             y="199.9672704"
             id="use177" />
          <use
             style="fill:#008000;stroke:#008000;stroke-width:0.5;"
             x="362.48472"
             xlink:href="#m01f6b99181"
             y="200.178864"
             id="use179" />
          <use
             style="fill:#008000;stroke:#008000;stroke-width:0.5;"
             x="366.66972"
             xlink:href="#m01f6b99181"
             y="200.4145632"
             id="use181" />
          <use
             style="fill:#008000;stroke:#008000;stroke-width:0.5;"
             x="370.85472"
             xlink:href="#m01f6b99181"
             y="200.5056288"
             id="use183" />
          <use
             style="fill:#008000;stroke:#008000;stroke-width:0.5;"
             x="375.03972"
             xlink:href="#m01f6b99181"
             y="200.660976"
             id="use185" />
          <use
             style="fill:#008000;stroke:#008000;stroke-width:0.5;"
             x="379.22472"
             xlink:href="#m01f6b99181"
             y="200.7440064"
             id="use187" />
          <use
             style="fill:#008000;stroke:#008000;stroke-width:0.5;"
             x="383.40972"
             xlink:href="#m01f6b99181"
             y="200.7172224"
             id="use189" />
          <use
             style="fill:#008000;stroke:#008000;stroke-width:0.5;"
             x="387.59472"
             xlink:href="#m01f6b99181"
             y="200.6208"
             id="use191" />
          <use
             style="fill:#008000;stroke:#008000;stroke-width:0.5;"
             x="391.77972"
             xlink:href="#m01f6b99181"
             y="200.3984928"
             id="use193" />
          <use
             style="fill:#008000;stroke:#008000;stroke-width:0.5;"
             x="395.96472"
             xlink:href="#m01f6b99181"
             y="200.0369088"
             id="use195" />
          <use
             style="fill:#008000;stroke:#008000;stroke-width:0.5;"
             x="400.14972"
             xlink:href="#m01f6b99181"
             y="199.5815808"
             id="use197" />
        </g>
      </g>
      <g
         id="patch_4">
        <path
           d="M 388.8 302.4  L 388.8 34.56  "
           style="fill:none;stroke:#000000;stroke-linecap:square;stroke-linejoin:miter;"
           id="path200" />
      </g>
      <g
         id="patch_5">
        <path
           d="M 54 302.4  L 54 34.56  "
           style="fill:none;stroke:#000000;stroke-linecap:square;stroke-linejoin:miter;"
           id="path203" />
      </g>
      <g
         id="patch_6">
        <path
           d="M 54 302.4  L 388.8 302.4  "
           style="fill:none;stroke:#000000;stroke-linecap:square;stroke-linejoin:miter;"
           id="path206" />
      </g>
      <g
         id="patch_7">
        <path
           d="M 54 34.56  L 388.8 34.56  "
           style="fill:none;stroke:#000000;stroke-linecap:square;stroke-linejoin:miter;"
           id="path209" />
      </g>
      <g
         id="matplotlib.axis_1">
        <g
           id="xtick_1">
          <g
             id="line2d_4">
            <defs
               id="defs214">
              <path
                 d="M 0 0  L 0 -4  "
                 id="m1041dd3814"
                 style="stroke:#000000;stroke-width:0.5;" />
            </defs>
            <g
               id="g217">
              <use
                 style="stroke:#000000;stroke-width:0.5;"
                 x="54.0"
                 xlink:href="#m1041dd3814"
                 y="302.4"
                 id="use219" />
            </g>
          </g>
          <g
             id="line2d_5">
            <defs
               id="defs222">
              <path
                 d="M 0 0  L 0 4  "
                 id="m583d26fccb"
                 style="stroke:#000000;stroke-width:0.5;" />
            </defs>
            <g
               id="g225">
              <use
                 style="stroke:#000000;stroke-width:0.5;"
                 x="54.0"
                 xlink:href="#m583d26fccb"
                 y="34.56"
                 id="use227" />
            </g>
          </g>
          <g
             id="text_1">
            <text
               style="font-family:Bitstream Vera Sans;font-size:18.0px;font-style:normal;font-weight:400;text-anchor:middle;"
               transform="rotate(-0.000000, 54.000000, 320.077187)"
               x="54.0"
               y="320.0771875"
               id="text230">−1.0</text>
          </g>
        </g>
        <g
           id="xtick_2">
          <g
             id="line2d_6">
            <g
               id="g234">
              <use
                 style="stroke:#000000;stroke-width:0.5;"
                 x="158.625"
                 xlink:href="#m1041dd3814"
                 y="302.4"
                 id="use236" />
            </g>
          </g>
          <g
             id="line2d_7">
            <g
               id="g239">
              <use
                 style="stroke:#000000;stroke-width:0.5;"
                 x="158.625"
                 xlink:href="#m583d26fccb"
                 y="34.56"
                 id="use241" />
            </g>
          </g>
          <g
             id="text_2">
            <text
               style="font-family:Bitstream Vera Sans;font-size:18.0px;font-style:normal;font-weight:400;text-anchor:middle;"
               transform="rotate(-0.000000, 158.625000, 320.077187)"
               x="158.625"
               y="320.0771875"
               id="text244">−0.5</text>
          </g>
        </g>
        <g
           id="xtick_3">
          <g
             id="line2d_8">
            <g
               id="g248">
              <use
                 style="stroke:#000000;stroke-width:0.5;"
                 x="263.25"
                 xlink:href="#m1041dd3814"
                 y="302.4"
                 id="use250" />
            </g>
          </g>
          <g
             id="line2d_9">
            <g
               id="g253">
              <use
                 style="stroke:#000000;stroke-width:0.5;"
                 x="263.25"
                 xlink:href="#m583d26fccb"
                 y="34.56"
                 id="use255" />
            </g>
          </g>
          <g
             id="text_3">
            <text
               style="font-family:Bitstream Vera Sans;font-size:18.0px;font-style:normal;font-weight:400;text-anchor:middle;"
               transform="rotate(-0.000000, 263.250000, 320.077187)"
               x="263.25"
               y="320.0771875"
               id="text258">0.0</text>
          </g>
        </g>
        <g
           id="xtick_4">
          <g
             id="line2d_10">
            <g
               id="g262">
              <use
                 style="stroke:#000000;stroke-width:0.5;"
                 x="367.875"
                 xlink:href="#m1041dd3814"
                 y="302.4"
                 id="use264" />
            </g>
          </g>
          <g
             id="line2d_11">
            <g
               id="g267">
              <use
                 style="stroke:#000000;stroke-width:0.5;"
                 x="367.875"
                 xlink:href="#m583d26fccb"
                 y="34.56"
                 id="use269" />
            </g>
          </g>
          <g
             id="text_4">
            <text
               style="font-family:Bitstream Vera Sans;font-size:18.0px;font-style:normal;font-weight:400;text-anchor:middle;"
               transform="rotate(-0.000000, 367.875000, 320.077187)"
               x="367.875"
               y="320.0771875"
               id="text272">0.5</text>
          </g>
        </g>
        <g
           id="text_5">
          <text
             style="font-family:Bitstream Vera Sans;font-size:18.0px;font-style:normal;font-weight:400;text-anchor:middle;"
             transform="rotate(-0.000000, 221.400000, 342.497812)"
             x="221.4"
             y="342.4978125"
             id="text275">$V$, \si{\volt}</text>
        </g>
      </g>
      <g
         id="matplotlib.axis_2">
        <g
           id="ytick_1">
          <g
             id="line2d_12">
            <defs
               id="defs280">
              <path
                 d="M 0 0  L 4 0  "
                 id="m39ac03e757"
                 style="stroke:#000000;stroke-width:0.5;" />
            </defs>
            <g
               id="g283">
              <use
                 style="stroke:#000000;stroke-width:0.5;"
                 x="54.0"
                 xlink:href="#m39ac03e757"
                 y="302.4"
                 id="use285" />
            </g>
          </g>
          <g
             id="text_6">
            <text
               style="font-family:Bitstream Vera Sans;font-size:18.0px;font-style:normal;font-weight:400;text-anchor:end;"
               transform="rotate(-0.000000, 50.000000, 307.366875)"
               x="50.0"
               y="307.366875"
               id="text288">0</text>
          </g>
        </g>
        <g
           id="ytick_2">
          <g
             id="line2d_13">
            <g
               id="g292">
              <use
                 style="stroke:#000000;stroke-width:0.5;"
                 x="54.0"
                 xlink:href="#m39ac03e757"
                 y="248.832"
                 id="use294" />
            </g>
          </g>
          <g
             id="text_7">
            <text
               style="font-family:Bitstream Vera Sans;font-size:18.0px;font-style:normal;font-weight:400;text-anchor:end;"
               transform="rotate(-0.000000, 50.000000, 253.798875)"
               x="50.0"
               y="253.798875"
               id="text297">2</text>
          </g>
        </g>
        <g
           id="ytick_3">
          <g
             id="line2d_14">
            <g
               id="g301">
              <use
                 style="stroke:#000000;stroke-width:0.5;"
                 x="54.0"
                 xlink:href="#m39ac03e757"
                 y="195.264"
                 id="use303" />
            </g>
          </g>
          <g
             id="text_8">
            <text
               style="font-family:Bitstream Vera Sans;font-size:18.0px;font-style:normal;font-weight:400;text-anchor:end;"
               transform="rotate(-0.000000, 50.000000, 200.230875)"
               x="50.0"
               y="200.230875"
               id="text306">4</text>
          </g>
        </g>
        <g
           id="ytick_4">
          <g
             id="line2d_15">
            <g
               id="g310">
              <use
                 style="stroke:#000000;stroke-width:0.5;"
                 x="54.0"
                 xlink:href="#m39ac03e757"
                 y="141.696"
                 id="use312" />
            </g>
          </g>
          <g
             id="text_9">
            <text
               style="font-family:Bitstream Vera Sans;font-size:18.0px;font-style:normal;font-weight:400;text-anchor:end;"
               transform="rotate(-0.000000, 50.000000, 146.662875)"
               x="50.0"
               y="146.662875"
               id="text315">6</text>
          </g>
        </g>
        <g
           id="ytick_5">
          <g
             id="line2d_16">
            <g
               id="g319">
              <use
                 style="stroke:#000000;stroke-width:0.5;"
                 x="54.0"
                 xlink:href="#m39ac03e757"
                 y="88.128"
                 id="use321" />
            </g>
          </g>
          <g
             id="text_10">
            <text
               style="font-family:Bitstream Vera Sans;font-size:18.0px;font-style:normal;font-weight:400;text-anchor:end;"
               transform="rotate(-0.000000, 50.000000, 93.094875)"
               x="50.0"
               y="93.094875"
               id="text324">8</text>
          </g>
        </g>
        <g
           id="ytick_6">
          <g
             id="line2d_17">
            <g
               id="g328">
              <use
                 style="stroke:#000000;stroke-width:0.5;"
                 x="54.0"
                 xlink:href="#m39ac03e757"
                 y="34.56"
                 id="use330" />
            </g>
          </g>
          <g
             id="text_11">
            <text
               style="font-family:Bitstream Vera Sans;font-size:18.0px;font-style:normal;font-weight:400;text-anchor:end;"
               transform="rotate(-0.000000, 50.000000, 39.526875)"
               x="50.0"
               y="39.526875"
               id="text333">10</text>
          </g>
        </g>
        <g
           id="text_12">
          <text
             style="font-family:Bitstream Vera Sans;font-size:18.0px;font-style:normal;font-weight:400;text-anchor:middle;"
             transform="rotate(-90.000000, 18.351563, 168.480000)"
             x="18.3515625"
             y="168.48"
             id="text336">$C$, \si{\micro\farad/\cm^{2}}</text>
        </g>
      </g>
      <g
         id="patch_8">
        <path
           d="M 177.553798 155.088  Q 163.857353 155.088 150.719924 155.088  "
           style="fill:none;stroke:#0000ff;stroke-linecap:round;stroke-width:0.5;"
           id="path339" />
        <path
           d="M 157.919924 158.688  L 150.719924 155.088  L 157.919924 151.488  "
           style="fill:none;stroke:#0000ff;stroke-linecap:round;stroke-width:0.5;"
           id="path341" />
      </g>
      <g
         id="patch_9">
        <path
           d="M 344.390949 262.224  Q 326.024638 262.224 307.099309 262.224  "
           style="fill:none;stroke:#ff0000;stroke-linecap:round;stroke-width:0.5;"
           id="path344" />
        <path
           d="M 337.190949 258.624  L 344.390949 262.224  L 337.190949 265.824  "
           style="fill:none;stroke:#ff0000;stroke-linecap:round;stroke-width:0.5;"
           id="path346" />
      </g>
    </g>
    <g
       id="axes_2">
      <g
         id="line2d_18">
        <path
           clip-path="url(#pd7bc4475d2)"
           d="M 56.97972 206.709696  L 61.16472 224.263037  L 65.34972 241.386048  L 69.53472 229.118083  L 73.71972 237.066682  L 77.90472 249.823008  L 82.08972 256.644  L 86.27472 262.931098  L 90.45972 268.012915  L 94.64472 272.301034  L 98.82972 275.738314  L 103.01472 278.496173  L 107.19972 280.636214  L 111.38472 282.257539  L 115.56972 283.44407  L 119.75472 284.969866  L 119.75472 284.59489  L 123.93972 285.432336  L 128.12472 285.82249  L 132.30972 286.141219  L 136.49472 286.459056  L 140.67972 286.667971  L 144.86472 286.889386  L 149.04972 287.090266  L 153.23472 287.233114  L 157.41972 287.401853  L 161.60472 287.52863  L 165.78972 287.675942  L 169.97472 287.783078  L 174.15972 287.883072  L 178.34472 287.968781  L 182.52972 288.04199  L 186.71472 288.116986  L 190.89972 288.15984  L 195.08472 288.244656  L 199.26972 288.300902  L 203.45472 288.373219  L 207.63972 288.445536  L 211.82472 288.489283  L 216.00972 288.547315  L 220.19472 288.59017  L 224.37972 288.608026  L 228.56472 288.658022  L 232.74972 288.683914  L 236.93472 288.719626  L 241.11972 288.753552  L 245.305557 288.739267  L 249.490557 288.76873  L 253.675557 288.792835  L 257.860557 288.77855  L 262.045536 288.763373  L 266.230557 288.682128  L 270.415557 288.661594  L 274.600557 288.579456  L 278.785557 288.546422  L 282.970557 288.382147  L 287.15472 288.233942  L 291.33972 288.062525  L 295.52472 287.767008  L 299.70972 287.443814  L 303.89472 287.061696  L 308.07972 286.565299  L 312.26472 285.980515  L 316.44972 285.278774  L 320.63472 284.383296  L 324.81972 283.27801  L 329.00472 282.020947  L 333.18972 280.407658  L 337.37472 278.575632  L 341.55972 275.62225  L 345.74472 272.809037  L 349.92972 269.619062  L 354.11472 265.678243  L 358.29972 261.24817  L 362.48472 256.019933  L 366.66972 249.866755  L 370.85472 242.689536  L 375.03972 234.338285  L 379.22472 224.564803  L 383.40972 214.622582  L 387.59472 200.058336  L 391.77972 183.97008  L 395.96472 165.212352  L 400.14972 143.7048  "
           style="fill:none;stroke:#ff0000;stroke-linecap:square;"
           id="path350" />
      </g>
      <g
         id="patch_10">
        <path
           d="M 388.8 302.4  L 388.8 34.56  "
           style="fill:none;stroke:#000000;stroke-linecap:square;stroke-linejoin:miter;"
           id="path353" />
      </g>
      <g
         id="patch_11">
        <path
           d="M 54 302.4  L 54 34.56  "
           style="fill:none;stroke:#000000;stroke-linecap:square;stroke-linejoin:miter;"
           id="path356" />
      </g>
      <g
         id="patch_12">
        <path
           d="M 54 302.4  L 388.8 302.4  "
           style="fill:none;stroke:#000000;stroke-linecap:square;stroke-linejoin:miter;"
           id="path359" />
      </g>
      <g
         id="patch_13">
        <path
           d="M 54 34.56  L 388.8 34.56  "
           style="fill:none;stroke:#000000;stroke-linecap:square;stroke-linejoin:miter;"
           id="path362" />
      </g>
      <g
         id="matplotlib.axis_3">
        <g
           id="ytick_7">
          <g
             id="line2d_19">
            <defs
               id="defs367">
              <path
                 d="M 0 0  L -4 0  "
                 id="m7b64a908f4"
                 style="stroke:#000000;stroke-width:0.5;" />
            </defs>
            <g
               id="g370">
              <use
                 style="stroke:#000000;stroke-width:0.5;"
                 x="388.8"
                 xlink:href="#m7b64a908f4"
                 y="302.4"
                 id="use372" />
            </g>
          </g>
          <g
             id="text_13">
            <text
               style="font-family:Bitstream Vera Sans;font-size:18.0px;font-style:normal;font-weight:400;text-anchor:start;"
               transform="rotate(-0.000000, 392.800000, 307.366875)"
               x="392.8"
               y="307.366875"
               id="text375">0.0</text>
          </g>
        </g>
        <g
           id="ytick_8">
          <g
             id="line2d_20">
            <g
               id="g379">
              <use
                 style="stroke:#000000;stroke-width:0.5;"
                 x="388.8"
                 xlink:href="#m7b64a908f4"
                 y="257.76"
                 id="use381" />
            </g>
          </g>
          <g
             id="text_14">
            <text
               style="font-family:Bitstream Vera Sans;font-size:18.0px;font-style:normal;font-weight:400;text-anchor:start;"
               transform="rotate(-0.000000, 392.800000, 262.726875)"
               x="392.8"
               y="262.726875"
               id="text384">0.5</text>
          </g>
        </g>
        <g
           id="ytick_9">
          <g
             id="line2d_21">
            <g
               id="g388">
              <use
                 style="stroke:#000000;stroke-width:0.5;"
                 x="388.8"
                 xlink:href="#m7b64a908f4"
                 y="213.12"
                 id="use390" />
            </g>
          </g>
          <g
             id="text_15">
            <text
               style="font-family:Bitstream Vera Sans;font-size:18.0px;font-style:normal;font-weight:400;text-anchor:start;"
               transform="rotate(-0.000000, 392.800000, 218.086875)"
               x="392.8"
               y="218.086875"
               id="text393">1.0</text>
          </g>
        </g>
        <g
           id="ytick_10">
          <g
             id="line2d_22">
            <g
               id="g397">
              <use
                 style="stroke:#000000;stroke-width:0.5;"
                 x="388.8"
                 xlink:href="#m7b64a908f4"
                 y="168.48"
                 id="use399" />
            </g>
          </g>
          <g
             id="text_16">
            <text
               style="font-family:Bitstream Vera Sans;font-size:18.0px;font-style:normal;font-weight:400;text-anchor:start;"
               transform="rotate(-0.000000, 392.800000, 173.446875)"
               x="392.8"
               y="173.446875"
               id="text402">1.5</text>
          </g>
        </g>
        <g
           id="ytick_11">
          <g
             id="line2d_23">
            <g
               id="g406">
              <use
                 style="stroke:#000000;stroke-width:0.5;"
                 x="388.8"
                 xlink:href="#m7b64a908f4"
                 y="123.84"
                 id="use408" />
            </g>
          </g>
          <g
             id="text_17">
            <text
               style="font-family:Bitstream Vera Sans;font-size:18.0px;font-style:normal;font-weight:400;text-anchor:start;"
               transform="rotate(-0.000000, 392.800000, 128.806875)"
               x="392.8"
               y="128.806875"
               id="text411">2.0</text>
          </g>
        </g>
        <g
           id="ytick_12">
          <g
             id="line2d_24">
            <g
               id="g415">
              <use
                 style="stroke:#000000;stroke-width:0.5;"
                 x="388.8"
                 xlink:href="#m7b64a908f4"
                 y="79.2"
                 id="use417" />
            </g>
          </g>
          <g
             id="text_18">
            <text
               style="font-family:Bitstream Vera Sans;font-size:18.0px;font-style:normal;font-weight:400;text-anchor:start;"
               transform="rotate(-0.000000, 392.800000, 84.166875)"
               x="392.8"
               y="84.166875"
               id="text420">2.5</text>
          </g>
        </g>
        <g
           id="ytick_13">
          <g
             id="line2d_25">
            <g
               id="g424">
              <use
                 style="stroke:#000000;stroke-width:0.5;"
                 x="388.8"
                 xlink:href="#m7b64a908f4"
                 y="34.56"
                 id="use426" />
            </g>
          </g>
          <g
             id="text_19">
            <text
               style="font-family:Bitstream Vera Sans;font-size:18.0px;font-style:normal;font-weight:400;text-anchor:start;"
               transform="rotate(-0.000000, 392.800000, 39.526875)"
               x="392.8"
               y="39.526875"
               id="text429">3.0</text>
          </g>
        </g>
        <g
           id="text_20">
          <text
             style="font-family:Bitstream Vera Sans;font-size:18.0px;font-style:normal;font-weight:400;text-anchor:middle;"
             transform="rotate(-90.000000, 440.102813, 168.480000)"
             x="440.1028125"
             y="168.48"
             id="text432">$\text{tg}\delta$</text>
        </g>
      </g>
    </g>
  </g>
  <defs
     id="defs434">
    <clipPath
       id="pd7bc4475d2">
      <rect
         height="267.84"
         width="334.8"
         x="54.0"
         y="34.56"
         id="rect437" />
    </clipPath>
  </defs>
  <g
     id="g5031"
     transform="translate(636.75565,98.200952)"
     style="stroke-linecap:butt;stroke-linejoin:round;stroke-miterlimit:100000">
    <use
       transform="translate(-402.33889,-102.33916)"
       height="100%"
       width="100%"
       id="use39-5"
       y="117.33863"
       xlink:href="#m01f6b99181"
       x="73.719719"
       style="fill:#008000;stroke:#008000;stroke-width:0.5;stroke-linecap:butt;stroke-linejoin:round;stroke-miterlimit:100000" />
    <use
       style="fill:#008000;stroke:#008000;stroke-width:0.5;stroke-linecap:butt;stroke-linejoin:round;stroke-miterlimit:100000"
       x="73.719719"
       xlink:href="#m01f6b99181"
       y="117.33863"
       id="use5021"
       width="100%"
       height="100%"
       transform="translate(-394.87222,-102.33916)" />
    <use
       transform="translate(-387.40556,-102.33916)"
       height="100%"
       width="100%"
       id="use5023"
       y="117.33863"
       xlink:href="#m01f6b99181"
       x="73.719719"
       style="fill:#008000;stroke:#008000;stroke-width:0.5;stroke-linecap:butt;stroke-linejoin:round;stroke-miterlimit:100000" />
    <use
       style="fill:#008000;stroke:#008000;stroke-width:0.5;stroke-linecap:butt;stroke-linejoin:round;stroke-miterlimit:100000"
       x="73.719719"
       xlink:href="#m01f6b99181"
       y="117.33863"
       id="use5025"
       width="100%"
       height="100%"
       transform="translate(-379.93889,-102.33916)" />
    <g
       style="stroke-linecap:butt;stroke-linejoin:round;stroke-miterlimit:100000"
       transform="translate(368,0)"
       id="g4987">
      <g
         transform="translate(-988.43374,-97.538219)"
         id="line2d_18-2"
         style="stroke-linecap:butt;stroke-linejoin:round;stroke-miterlimit:100000">
        <path
           inkscape:connector-curvature="0"
           d="m 288.43875,58.137187 6.3,0 6.3,0 6.3,0 6.3,0"
           style="fill:none;stroke:#0000ff;stroke-linecap:square;stroke-linejoin:round;stroke-miterlimit:100000"
           id="path350-8" />
      </g>
      <g
         transform="translate(-988.43374,-97.538219)"
         id="text_13-2"
         style="stroke-linecap:butt;stroke-linejoin:round;stroke-miterlimit:100000">
        <text
           style="font-style:normal;font-weight:400;font-size:18px;font-family:'Bitstream Vera Sans';text-anchor:start;stroke-linecap:butt;stroke-linejoin:round;stroke-miterlimit:100000"
           x="333.43875"
           y="64.437187"
           id="text354">$C_p$</text>
      </g>
      <g
         transform="translate(-988.43374,-97.538219)"
         id="line2d_20-7"
         style="stroke-linecap:butt;stroke-linejoin:round;stroke-miterlimit:100000">
        <path
           inkscape:connector-curvature="0"
           d="m 288.43875,85.058437 6.3,0 6.3,0 6.3,0 6.3,0"
           style="fill:none;stroke:#00bfbf;stroke-width:1.5;stroke-linecap:butt;stroke-linejoin:round;stroke-miterlimit:100000;stroke-dasharray:6, 6;stroke-dashoffset:0"
           id="path357" />
      </g>
      <g
         transform="translate(-988.43374,-97.538219)"
         id="text_14-3"
         style="stroke-linecap:butt;stroke-linejoin:round;stroke-miterlimit:100000">
        <text
           style="font-style:normal;font-weight:400;font-size:18px;font-family:'Bitstream Vera Sans';text-anchor:start;stroke-linecap:butt;stroke-linejoin:round;stroke-miterlimit:100000"
           x="333.43875"
           y="91.358437"
           id="text361">$C_s$</text>
      </g>
      <g
         transform="translate(-988.43374,-97.538219)"
         id="line2d_23-4"
         style="stroke-linecap:butt;stroke-linejoin:round;stroke-miterlimit:100000">
        <g
           id="g365"
           style="stroke-linecap:butt;stroke-linejoin:round;stroke-miterlimit:100000">
          <use
             height="100%"
             width="100%"
             style="fill:#008000;stroke:#008000;stroke-width:0.5;stroke-linecap:butt;stroke-linejoin:round;stroke-miterlimit:100000"
             x="288.43875"
             xlink:href="#mefa41179cc"
             y="111.97969"
             id="use367" />
          <use
             height="100%"
             width="100%"
             style="fill:#008000;stroke:#008000;stroke-width:0.5;stroke-linecap:butt;stroke-linejoin:round;stroke-miterlimit:100000"
             x="294.73874"
             xlink:href="#mefa41179cc"
             y="111.97969"
             id="use369" />
          <use
             height="100%"
             width="100%"
             style="fill:#008000;stroke:#008000;stroke-width:0.5;stroke-linecap:butt;stroke-linejoin:round;stroke-miterlimit:100000"
             x="301.03876"
             xlink:href="#mefa41179cc"
             y="111.97969"
             id="use371" />
          <use
             height="100%"
             width="100%"
             style="fill:#008000;stroke:#008000;stroke-width:0.5;stroke-linecap:butt;stroke-linejoin:round;stroke-miterlimit:100000"
             x="307.33875"
             xlink:href="#mefa41179cc"
             y="111.97969"
             id="use373" />
          <use
             height="100%"
             width="100%"
             style="fill:#008000;stroke:#008000;stroke-width:0.5;stroke-linecap:butt;stroke-linejoin:round;stroke-miterlimit:100000"
             x="313.63876"
             xlink:href="#mefa41179cc"
             y="111.97969"
             id="use375" />
        </g>
      </g>
      <g
         transform="translate(-988.43374,-97.538219)"
         id="text_15-5"
         style="stroke-linecap:butt;stroke-linejoin:round;stroke-miterlimit:100000">
        <text
           style="font-style:normal;font-weight:400;font-size:18px;font-family:'Bitstream Vera Sans';text-anchor:start;stroke-linecap:butt;stroke-linejoin:round;stroke-miterlimit:100000"
           x="333.43875"
           y="118.27969"
           id="text378">$C_3$</text>
      </g>
    </g>
  </g>
</svg>
