<?xml version="1.0" encoding="UTF-8" standalone="no"?>
<!-- Created with matplotlib (http://matplotlib.org/) -->

<svg
   xmlns:dc="http://purl.org/dc/elements/1.1/"
   xmlns:cc="http://creativecommons.org/ns#"
   xmlns:rdf="http://www.w3.org/1999/02/22-rdf-syntax-ns#"
   xmlns:svg="http://www.w3.org/2000/svg"
   xmlns="http://www.w3.org/2000/svg"
   xmlns:xlink="http://www.w3.org/1999/xlink"
   xmlns:sodipodi="http://sodipodi.sourceforge.net/DTD/sodipodi-0.dtd"
   xmlns:inkscape="http://www.inkscape.org/namespaces/inkscape"
   height="44.96093mm"
   version="1.1"
   viewBox="0 0 254.43981 127.44831"
   width="89.760712mm"
   id="svg2"
   inkscape:version="0.91 "
   sodipodi:docname="ddcc_polar_sim_nx.svg">
  <metadata
     id="metadata791">
    <rdf:RDF>
      <cc:Work
         rdf:about="">
        <dc:format>image/svg+xml</dc:format>
        <dc:type
           rdf:resource="http://purl.org/dc/dcmitype/StillImage" />
        <dc:title />
      </cc:Work>
    </rdf:RDF>
  </metadata>
  <sodipodi:namedview
     pagecolor="#ffffff"
     bordercolor="#666666"
     borderopacity="1"
     objecttolerance="10"
     gridtolerance="10"
     guidetolerance="10"
     inkscape:pageopacity="0"
     inkscape:pageshadow="2"
     inkscape:window-width="1827"
     inkscape:window-height="1051"
     id="namedview789"
     showgrid="false"
     inkscape:zoom="2.3308642"
     inkscape:cx="176.29048"
     inkscape:cy="128.22323"
     inkscape:window-x="84"
     inkscape:window-y="-9"
     inkscape:window-maximized="1"
     inkscape:current-layer="svg2"
     units="mm"
     fit-margin-top="0"
     fit-margin-left="0"
     fit-margin-right="0"
     fit-margin-bottom="0" />
  <defs
     id="defs4"
     style="stroke-linecap:butt;stroke-linejoin:round;stroke-miterlimit:100000">
    <marker
       inkscape:stockid="Arrow1Lstart"
       orient="auto"
       refY="0"
       refX="0"
       id="marker6354"
       style="overflow:visible"
       inkscape:isstock="true">
      <path
         id="path6356"
         d="M 0,0 5,-5 -12.5,0 5,5 0,0 Z"
         style="fill:#000000;fill-opacity:1;fill-rule:evenodd;stroke:#000000;stroke-width:1pt;stroke-linecap:butt;stroke-linejoin:round;stroke-miterlimit:100000;stroke-opacity:1"
         transform="matrix(0.8,0,0,0.8,10,0)"
         inkscape:connector-curvature="0" />
    </marker>
    <marker
       inkscape:stockid="Arrow1Lstart"
       orient="auto"
       refY="0"
       refX="0"
       id="Arrow1Lstart"
       style="overflow:visible"
       inkscape:isstock="true">
      <path
         id="path6084"
         d="M 0,0 5,-5 -12.5,0 5,5 0,0 Z"
         style="fill:#000000;fill-opacity:1;fill-rule:evenodd;stroke:#000000;stroke-width:1pt;stroke-linecap:butt;stroke-linejoin:round;stroke-miterlimit:100000;stroke-opacity:1"
         transform="matrix(0.8,0,0,0.8,10,0)"
         inkscape:connector-curvature="0" />
    </marker>
    <style
       type="text/css"
       id="style6">
*{stroke-linecap:butt;stroke-linejoin:round;stroke-miterlimit:100000;}
  </style>
    <clipPath
       id="pb381de3105-6"
       style="stroke-linecap:butt;stroke-linejoin:round;stroke-miterlimit:100000">
      <rect
         height="228.27272"
         width="558"
         x="90"
         y="338.72726"
         id="rect787-8"
         style="stroke-linecap:butt;stroke-linejoin:round;stroke-miterlimit:100000" />
    </clipPath>
    <path
       inkscape:connector-curvature="0"
       d="M 0,0 2,0"
       id="m9507dd13c7"
       style="stroke:#000000;stroke-width:0.5;stroke-linecap:butt;stroke-linejoin:round;stroke-miterlimit:100000" />
    <path
       inkscape:connector-curvature="0"
       d="M 0,0 -2,0"
       id="m542e8cdb67"
       style="stroke:#000000;stroke-width:0.5;stroke-linecap:butt;stroke-linejoin:round;stroke-miterlimit:100000" />
    <clipPath
       id="p94ee473475">
      <rect
         height="228.27272"
         width="558"
         x="90"
         y="338.72726"
         id="rect787-4" />
    </clipPath>
    <clipPath
       id="clipEmfPath1"
       clipPathUnits="userSpaceOnUse">
      <path
         inkscape:connector-curvature="0"
         id="path4521"
         d="m 0,-2.3999822 697.49483,0 0,285.3728822 -697.49483,0 z" />
    </clipPath>
  </defs>
  <defs
     id="defs781">
    <clipPath
       id="pa99b0be33f"
       style="stroke-linecap:butt;stroke-linejoin:round;stroke-miterlimit:100000">
      <rect
         height="228.27272"
         width="558"
         x="90"
         y="64.800003"
         id="rect784"
         style="stroke-linecap:butt;stroke-linejoin:round;stroke-miterlimit:100000" />
    </clipPath>
    <clipPath
       id="pb381de3105"
       style="stroke-linecap:butt;stroke-linejoin:round;stroke-miterlimit:100000">
      <rect
         height="228.27272"
         width="558"
         x="90"
         y="338.72726"
         id="rect787"
         style="stroke-linecap:butt;stroke-linejoin:round;stroke-miterlimit:100000" />
    </clipPath>
  </defs>
  <g
     style="stroke-width:2.51806617;stroke-linecap:butt;stroke-linejoin:round;stroke-miterlimit:100;stroke-dasharray:none"
     id="patch_8"
     transform="matrix(0.39513909,0,0,0.25544402,-4.2957215,-39.608197)">
    <path
       id="path283"
       style="fill:none;stroke:#000000;stroke-width:2.51806617;stroke-linecap:square;stroke-linejoin:miter;stroke-miterlimit:100;stroke-dasharray:none"
       d="m 90,567 558,0"
       inkscape:connector-curvature="0" />
  </g>
  <g
     style="stroke-width:1.46237326;stroke-linecap:butt;stroke-linejoin:round;stroke-miterlimit:100;stroke-dasharray:none"
     id="patch_11"
     transform="matrix(0.6803915,0,0,0.43985003,-29.707723,-144.4091)">
    <path
       id="path292"
       style="fill:none;stroke:#000000;stroke-width:1.46237326;stroke-linecap:square;stroke-linejoin:miter;stroke-miterlimit:100;stroke-dasharray:none"
       d="M 90,567 90,338.72727"
       inkscape:connector-curvature="0" />
  </g>
  <g
     id="xtick_9"
     style="stroke-linecap:butt;stroke-linejoin:round;stroke-miterlimit:100000"
     transform="matrix(0.6803915,0,0,0.43985003,-29.707723,-139.6091)">
    <g
       id="line2d_39"
       style="stroke-linecap:butt;stroke-linejoin:round;stroke-miterlimit:100000">
      <g
         id="g297"
         style="stroke-linecap:butt;stroke-linejoin:round;stroke-miterlimit:100000">
        <use
           height="100%"
           width="100%"
           style="stroke:#000000;stroke-width:0.91398329;stroke-linecap:butt;stroke-linejoin:round;stroke-miterlimit:100000"
           x="90"
           xlink:href="#mf5351705c4"
           y="567"
           id="use299" />
      </g>
    </g>
    <g
       id="line2d_40"
       style="stroke-linecap:butt;stroke-linejoin:round;stroke-miterlimit:100000">
      <g
         id="g302"
         style="stroke-linecap:butt;stroke-linejoin:round;stroke-miterlimit:100000">
        <use
           height="100%"
           width="100%"
           style="stroke:#000000;stroke-width:0.91398329;stroke-linecap:butt;stroke-linejoin:round;stroke-miterlimit:100000"
           x="90"
           xlink:href="#m797722c7dd"
           y="338.72726"
           id="use304" />
      </g>
    </g>
    <g
       id="text_20"
       style="stroke-linecap:butt;stroke-linejoin:round;stroke-miterlimit:100000">
      <text
         style="font-style:normal;font-weight:400;font-size:12px;font-family:'Bitstream Vera Sans';text-anchor:middle;stroke-linecap:butt;stroke-linejoin:round;stroke-miterlimit:100000"
         x="90"
         y="580.1181"
         id="text307">0</text>
    </g>
  </g>
  <g
     id="xtick_10"
     style="stroke-linecap:butt;stroke-linejoin:round;stroke-miterlimit:100000"
     transform="matrix(0.6803915,0,0,0.43985003,-52.017046,-139.6091)">
    <g
       id="line2d_41"
       style="stroke-linecap:butt;stroke-linejoin:round;stroke-miterlimit:100000">
      <g
         id="g311"
         style="stroke-linecap:butt;stroke-linejoin:round;stroke-miterlimit:100000">
        <use
           height="100%"
           width="100%"
           style="stroke:#000000;stroke-width:0.91398329;stroke-linecap:butt;stroke-linejoin:round;stroke-miterlimit:100000"
           x="164.39999"
           xlink:href="#mf5351705c4"
           y="567"
           id="use313" />
      </g>
    </g>
    <g
       id="line2d_42"
       style="stroke-linecap:butt;stroke-linejoin:round;stroke-miterlimit:100000">
      <g
         id="g316"
         style="stroke-linecap:butt;stroke-linejoin:round;stroke-miterlimit:100000">
        <use
           height="100%"
           width="100%"
           style="stroke:#000000;stroke-width:0.91398329;stroke-linecap:butt;stroke-linejoin:round;stroke-miterlimit:100000"
           x="164.39999"
           xlink:href="#m797722c7dd"
           y="338.72726"
           id="use318" />
      </g>
    </g>
    <g
       id="text_21"
       style="stroke-linecap:butt;stroke-linejoin:round;stroke-miterlimit:100000">
      <text
         style="font-style:normal;font-weight:400;font-size:12px;font-family:'Bitstream Vera Sans';text-anchor:middle;stroke-linecap:butt;stroke-linejoin:round;stroke-miterlimit:100000"
         x="164.39999"
         y="580.1181"
         id="text321">20</text>
    </g>
  </g>
  <g
     id="xtick_11"
     style="stroke-linecap:butt;stroke-linejoin:round;stroke-miterlimit:100000"
     transform="matrix(0.6803915,0,0,0.43985003,-74.326369,-139.6091)">
    <g
       id="line2d_43"
       style="stroke-linecap:butt;stroke-linejoin:round;stroke-miterlimit:100000">
      <g
         id="g325"
         style="stroke-linecap:butt;stroke-linejoin:round;stroke-miterlimit:100000">
        <use
           height="100%"
           width="100%"
           style="stroke:#000000;stroke-width:0.91398329;stroke-linecap:butt;stroke-linejoin:round;stroke-miterlimit:100000"
           x="238.8"
           xlink:href="#mf5351705c4"
           y="567"
           id="use327" />
      </g>
    </g>
    <g
       id="line2d_44"
       style="stroke-linecap:butt;stroke-linejoin:round;stroke-miterlimit:100000">
      <g
         id="g330"
         style="stroke-linecap:butt;stroke-linejoin:round;stroke-miterlimit:100000">
        <use
           height="100%"
           width="100%"
           style="stroke:#000000;stroke-width:0.91398329;stroke-linecap:butt;stroke-linejoin:round;stroke-miterlimit:100000"
           x="238.8"
           xlink:href="#m797722c7dd"
           y="338.72726"
           id="use332" />
      </g>
    </g>
    <g
       id="text_22"
       style="stroke-linecap:butt;stroke-linejoin:round;stroke-miterlimit:100000">
      <text
         style="font-style:normal;font-weight:400;font-size:12px;font-family:'Bitstream Vera Sans';text-anchor:middle;stroke-linecap:butt;stroke-linejoin:round;stroke-miterlimit:100000"
         x="238.8"
         y="580.1181"
         id="text335">40</text>
    </g>
  </g>
  <g
     id="xtick_12"
     style="stroke-linecap:butt;stroke-linejoin:round;stroke-miterlimit:100000"
     transform="matrix(0.6803915,0,0,0.43985003,-94.576369,-139.6091)">
    <g
       id="line2d_45"
       style="stroke-linecap:butt;stroke-linejoin:round;stroke-miterlimit:100000">
      <g
         id="g339"
         style="stroke-linecap:butt;stroke-linejoin:round;stroke-miterlimit:100000">
        <use
           height="100%"
           width="100%"
           style="stroke:#000000;stroke-width:0.91398329;stroke-linecap:butt;stroke-linejoin:round;stroke-miterlimit:100000"
           x="313.20001"
           xlink:href="#mf5351705c4"
           y="567"
           id="use341" />
      </g>
    </g>
    <g
       id="line2d_46"
       style="stroke-linecap:butt;stroke-linejoin:round;stroke-miterlimit:100000">
      <g
         id="g344"
         style="stroke-linecap:butt;stroke-linejoin:round;stroke-miterlimit:100000">
        <use
           height="100%"
           width="100%"
           style="stroke:#000000;stroke-width:0.91398329;stroke-linecap:butt;stroke-linejoin:round;stroke-miterlimit:100000"
           x="313.20001"
           xlink:href="#m797722c7dd"
           y="338.72726"
           id="use346" />
      </g>
    </g>
    <g
       id="text_23"
       style="stroke-linecap:butt;stroke-linejoin:round;stroke-miterlimit:100000">
      <text
         style="font-style:normal;font-weight:400;font-size:12px;font-family:'Bitstream Vera Sans';text-anchor:middle;stroke-linecap:butt;stroke-linejoin:round;stroke-miterlimit:100000"
         x="313.20001"
         y="580.1181"
         id="text349">60</text>
    </g>
  </g>
  <g
     id="xtick_13"
     style="stroke-linecap:butt;stroke-linejoin:round;stroke-miterlimit:100000"
     transform="matrix(0.6803915,0,0,0.43985003,-116.8857,-139.6091)">
    <g
       id="line2d_47"
       style="stroke-linecap:butt;stroke-linejoin:round;stroke-miterlimit:100000">
      <g
         id="g353"
         style="stroke-linecap:butt;stroke-linejoin:round;stroke-miterlimit:100000">
        <use
           height="100%"
           width="100%"
           style="stroke:#000000;stroke-width:0.91398329;stroke-linecap:butt;stroke-linejoin:round;stroke-miterlimit:100000"
           x="387.60001"
           xlink:href="#mf5351705c4"
           y="567"
           id="use355" />
      </g>
    </g>
    <g
       id="line2d_48"
       style="stroke-linecap:butt;stroke-linejoin:round;stroke-miterlimit:100000">
      <g
         id="g358"
         style="stroke-linecap:butt;stroke-linejoin:round;stroke-miterlimit:100000">
        <use
           height="100%"
           width="100%"
           style="stroke:#000000;stroke-width:0.91398329;stroke-linecap:butt;stroke-linejoin:round;stroke-miterlimit:100000"
           x="387.60001"
           xlink:href="#m797722c7dd"
           y="338.72726"
           id="use360" />
      </g>
    </g>
    <g
       id="text_24"
       style="stroke-linecap:butt;stroke-linejoin:round;stroke-miterlimit:100000">
      <text
         style="font-style:normal;font-weight:400;font-size:12px;font-family:'Bitstream Vera Sans';text-anchor:middle;stroke-linecap:butt;stroke-linejoin:round;stroke-miterlimit:100000"
         x="387.60001"
         y="580.1181"
         id="text363">80</text>
    </g>
  </g>
  <g
     id="text_28"
     style="stroke-linecap:butt;stroke-linejoin:round;stroke-miterlimit:100000"
     transform="matrix(0.6803915,0,0,0.43985003,-29.707723,-139.6091)">
    <text
       style="font-style:normal;font-weight:400;font-size:12px;font-family:'Bitstream Vera Sans';text-anchor:middle;stroke-linecap:butt;stroke-linejoin:round;stroke-miterlimit:100000"
       x="262.05759"
       y="606.09558"
       id="text408">\textit{x}, \si{\nm}</text>
  </g>
  <path
     style="fill:none;fill-rule:evenodd;stroke:#000000;stroke-width:0.79999995px;stroke-linecap:butt;stroke-linejoin:miter;stroke-miterlimit:100000;stroke-opacity:1"
     d="m 31.175,75.851695 4.976694,0"
     id="path5776"
     inkscape:connector-curvature="0" />
  <path
     inkscape:connector-curvature="0"
     id="path5778"
     d="m 31.175,45.451696 4.976694,0"
     style="fill:none;fill-rule:evenodd;stroke:#000000;stroke-width:0.79999995px;stroke-linecap:butt;stroke-linejoin:miter;stroke-miterlimit:100000;stroke-opacity:1" />
  <path
     style="fill:none;fill-rule:evenodd;stroke:#000000;stroke-width:0.79999995px;stroke-linecap:butt;stroke-linejoin:miter;stroke-miterlimit:100000;stroke-opacity:1"
     d="m 31.175,13.451698 4.976694,0"
     id="path5780"
     inkscape:connector-curvature="0" />
  <text
     xml:space="preserve"
     style="font-style:normal;font-weight:normal;font-size:7.99999952px;line-height:125%;font-family:sans-serif;text-align:end;letter-spacing:0px;word-spacing:0px;text-anchor:end;fill:#000000;fill-opacity:1;stroke:none;stroke-width:1px;stroke-linecap:butt;stroke-linejoin:miter;stroke-miterlimit:100000;stroke-opacity:1"
     x="26.205956"
     y="105.26024"
     id="text5782"
     sodipodi:linespacing="125%"><tspan
       sodipodi:role="line"
       id="tspan5784"
       style="text-align:end;text-anchor:end;stroke-linecap:butt;stroke-linejoin:round;stroke-miterlimit:100000"
       x="26.205954"
       y="105.26024">\num{e17}</tspan></text>
  <text
     sodipodi:linespacing="125%"
     id="text5786"
     y="77.722115"
     x="26.205956"
     style="font-style:normal;font-weight:normal;font-size:7.99999952px;line-height:125%;font-family:sans-serif;text-align:end;letter-spacing:0px;word-spacing:0px;text-anchor:end;fill:#000000;fill-opacity:1;stroke:none;stroke-width:1px;stroke-linecap:butt;stroke-linejoin:miter;stroke-miterlimit:100000;stroke-opacity:1"
     xml:space="preserve"><tspan
       y="77.722115"
       x="26.205954"
       style="text-align:end;text-anchor:end;stroke-linecap:butt;stroke-linejoin:round;stroke-miterlimit:100000"
       id="tspan5788"
       sodipodi:role="line">\num{e18}</tspan></text>
  <text
     xml:space="preserve"
     style="font-style:normal;font-weight:normal;font-size:7.99999952px;line-height:125%;font-family:sans-serif;text-align:end;letter-spacing:0px;word-spacing:0px;text-anchor:end;fill:#000000;fill-opacity:1;stroke:none;stroke-width:1px;stroke-linecap:butt;stroke-linejoin:miter;stroke-miterlimit:100000;stroke-opacity:1"
     x="26.205956"
     y="48.467884"
     id="text5790"
     sodipodi:linespacing="125%"><tspan
       sodipodi:role="line"
       id="tspan5792"
       style="text-align:end;text-anchor:end;stroke-linecap:butt;stroke-linejoin:round;stroke-miterlimit:100000"
       x="26.205954"
       y="48.467884">\num{e19}</tspan></text>
  <text
     sodipodi:linespacing="125%"
     id="text5794"
     y="18.183985"
     x="26.205956"
     style="font-style:normal;font-weight:normal;font-size:7.99999952px;line-height:125%;font-family:sans-serif;text-align:end;letter-spacing:0px;word-spacing:0px;text-anchor:end;fill:#000000;fill-opacity:1;stroke:none;stroke-width:1px;stroke-linecap:butt;stroke-linejoin:miter;stroke-miterlimit:100000;stroke-opacity:1"
     xml:space="preserve"><tspan
       y="18.183985"
       x="26.205954"
       style="text-align:end;text-anchor:end;stroke-linecap:butt;stroke-linejoin:round;stroke-miterlimit:100000"
       id="tspan5796"
       sodipodi:role="line">\num{e20}</tspan></text>
  <path
     inkscape:connector-curvature="0"
     id="path5800"
     d="m 147.59183,105.02541 0,-3.26059"
     style="fill:none;fill-rule:evenodd;stroke:#000000;stroke-width:0.79999995px;stroke-linecap:butt;stroke-linejoin:miter;stroke-miterlimit:100000;stroke-opacity:1" />
  <path
     style="fill:none;fill-rule:evenodd;stroke:#000000;stroke-width:0.79999995px;stroke-linecap:butt;stroke-linejoin:miter;stroke-miterlimit:100000;stroke-opacity:1"
     d="m 176.8444,105.02541 0,-3.26059"
     id="path5802"
     inkscape:connector-curvature="0" />
  <path
     inkscape:connector-curvature="0"
     id="path5804"
     d="m 235.34957,105.02541 0,-3.26059"
     style="fill:none;fill-rule:evenodd;stroke:#000000;stroke-width:0.79999995px;stroke-linecap:butt;stroke-linejoin:miter;stroke-miterlimit:100000;stroke-opacity:1" />
  <g
     transform="matrix(0.6803915,0,0,0.43985003,-267.55942,-268.31164)"
     style="stroke-linecap:butt;stroke-linejoin:round;stroke-miterlimit:100000"
     id="g5806">
    <text
       id="text5808"
       y="606.09558"
       x="415.4736"
       style="font-style:normal;font-weight:400;font-size:12px;font-family:'Bitstream Vera Sans';text-anchor:middle;stroke-linecap:butt;stroke-linejoin:round;stroke-miterlimit:100000">
      <tspan
         style="text-align:end;text-anchor:end;stroke-linecap:butt;stroke-linejoin:round;stroke-miterlimit:100000"
         id="tspan5810">\textit{p}, \si{\cm^{-3}}</tspan>
    </text>
  </g>
  <path
     clip-path="none"
     d="m 210.85536,564.2451 3.22896,-2.80411 2.3064,-2.2811 1.84512,-2.1103 1.84512,-2.46337 1.84512,-2.9025 1.84512,-3.39686 0.92256,-1.68376 1.38384,-1.95262 1.84512,-2.97152 4.6128,-7.65792 1.84512,-2.53821 1.84512,-2.16681 3.22896,-3.63455 1.84512,-2.4814 2.3064,-3.60888 3.22896,-5.49228 1.84512,-3.47167 1.84512,-3.9309 2.76768,-6.51561 2.3064,-5.95291 1.84512,-5.57228 2.3064,-7.97638 1.84512,-7.04798 1.38384,-6.00411 1.38384,-6.85945 1.38384,-7.81423 1.38384,-9.22559 0.92256,-7.44173 0.92256,-8.951 0.92256,-10.86488 1.38384,-20.02859 1.84512,-28.33593 0.92256,-9.9676 0.46128,-2.48504 0.46128,0.0605 0.46128,3.6569 0.46128,9.0213 0.92256,32.43299 1.38384,48.41136 0.92256,23.4658 0.46128,7.27431 0.46128,4.29404 0.46128,1.97687 0.46128,0.48909 0.46128,-0.29827 1.38384,-1.68573 0.46128,-0.21323 1.38384,-0.17284 0.46128,-0.28941 0.46128,-0.45843 0.92256,-1.396 2.76768,-5.08198 0.46128,-0.43569 0.46128,-0.20148 0.46128,0.0625 0.92256,0.46667 0.46128,0.072 0.46128,-0.0965 0.46128,-0.26679 0.92256,-0.97851 2.3064,-3.24636 0.46128,-0.41662 0.46128,-0.23746 0.46128,-0.0212 0.46128,0.22851 0.92256,0.77547 0.46128,0.21972 0.46128,0.0555 0.46128,-0.10593 0.92256,-0.62555 2.76768,-2.65788 0.46128,-0.12163 0.46128,0.0794 0.46128,0.31788 0.92256,0.93631 0.46128,0.29422 0.46128,0.12966 0.46128,-0.0311 0.46128,-0.17761 0.92256,-0.69298 1.84512,-1.70658 0.46128,-0.24287 0.46128,-0.0788 0.46128,0.1301 0.46128,0.38179 0.92256,1.10401 0.46128,0.38247 0.46128,0.2213 0.46128,0.0621 0.46128,-0.0856 0.92256,-0.52602 1.84512,-1.50759 0.46128,-0.22382 0.46128,-0.0696 0.46128,0.131 0.46128,0.37568 1.38384,1.45825 0.46128,0.22685 0.46128,0.0659 0.46128,-0.0892 0.92256,-0.57768 2.76768,-2.55508 0.46128,-0.0909 0.46128,0.12886 0.46128,0.3915 0.92256,1.14411 0.46128,0.39847 0.46128,0.22814 0.46128,0.0559 0.46128,-0.10626 0.92256,-0.60484 1.84512,-1.68145 0.46128,-0.24335 0.46128,-0.0756 0.46128,0.13752 0.46128,0.39307 0.92256,1.12286 0.46128,0.37514 0.46128,0.1996 0.46128,0.0263 0.46128,-0.13273 0.92256,-0.63413 1.84512,-1.63436 0.46128,-0.22164 0.46128,-0.0548 0.46128,0.15619 0.46128,0.40929 0.92256,1.13855 0.46128,0.38973 0.46128,0.21617 0.46128,0.0454 0.46128,-0.11152 0.92256,-0.59297 1.84512,-1.61674 0.46128,-0.23099 0.46128,-0.0638 0.46128,0.15294 0.46128,0.41721 0.92256,1.20192 0.46128,0.41604 0.46128,0.24413 0.46128,0.0738 0.46128,-0.0854 0.92256,-0.55782 1.84512,-1.62833 0.46128,-0.24152 0.46128,-0.0733 0.46128,0.14467 0.46128,0.40905 0.92256,1.18846 0.46128,0.41608 0.46128,0.24085 0.46128,0.0626 0.46128,-0.10681 0.92256,-0.62524 1.84512,-1.72195 0.46128,-0.22881 0.46128,-0.0429 0.46128,0.19158 0.46128,0.46994 0.92256,1.30956 0.46128,0.4664 0.46128,0.27971 0.46128,0.0931 0.46128,-0.0799 0.92256,-0.56352 1.84512,-1.54696 0.46128,-0.19695 0.46128,-0.0276 0.46128,0.1858 0.46128,0.44097 0.92256,1.21736 0.46128,0.41301 0.46128,0.23383 0.46128,0.0585 0.46128,-0.10236 0.92256,-0.59207 2.76768,-2.44413 0.46128,-0.0769 0.46128,0.14324 0.46128,0.41336 0.92256,1.20361 0.46128,0.43011 0.46128,0.26277 0.46128,0.0955 0.46128,-0.0634 0.92256,-0.52764 2.3064,-1.94111 0.46128,-0.0914 0.46128,0.13939 0.46128,0.42374 1.38384,1.73134 0.46128,0.29803 0.46128,0.12296 0.46128,-0.0453 0.92256,-0.50834 1.84512,-1.51618 0.46128,-0.1718 0.46128,0.0229 0.46128,0.26929 0.46128,0.56316 0.92256,1.54253 0.46128,0.56453 0.46128,0.36997 0.46128,0.17544 0.46128,-0.004 0.92256,-0.42201 1.84512,-1.2279 0.46128,-0.0946 0.46128,0.0889 0.46128,0.31964 0.46128,0.59617 1.38384,2.18486 0.46128,0.44293 0.46128,0.28258 0.92256,0.16597 1.38384,-0.26851 0.92256,-0.0665 0.46128,0.13265 0.46128,0.30772 0.46128,0.53374 0.92256,1.83875 0.92256,1.9014 0.92256,1.33973 0.92256,0.8383 1.38384,0.74074 0.92256,0.59956 0.46128,0.48097 0.46128,0.67804 0.46128,0.9354 0.92256,2.7638 1.38384,4.37455 1.38384,3.42761 3.22896,6.7952 0.92256,3.24625 2.76768,12.55427 3.22896,14.24003 1.38384,5.19193 0.92256,2.8581 0.92256,2.66856 1.84512,8.88999 1.84512,7.81277 2.3064,8.64529"
     style="fill:none;stroke:#0000ff;stroke-width:2.5106225;stroke-linecap:square;stroke-linejoin:round;stroke-miterlimit:100000"
     id="path280"
     inkscape:connector-curvature="0"
     transform="matrix(0.37291698,0,0,0.42542706,2.4609045,-136.48948)"
     sodipodi:nodetypes="cccccccccccccccccccccccccccccccccccccccccccccccccccccccccccccccccccccccccccccccccccccccccccccccccccccccccccccccccccccccccccccccccccccccccccccccccccccccccccccccccccccccccccccccccccccccccccccccccccccccccccccccccccccccccccccccccccccccccccccccccccc" />
  <path
     inkscape:connector-curvature="0"
     id="path4588"
     d="m 59.834075,105.02541 0,-3.26059"
     style="fill:none;fill-rule:evenodd;stroke:#000000;stroke-width:0.79999995px;stroke-linecap:butt;stroke-linejoin:miter;stroke-miterlimit:100000;stroke-opacity:1" />
  <path
     style="fill:none;fill-rule:evenodd;stroke:#000000;stroke-width:0.79999995px;stroke-linecap:butt;stroke-linejoin:miter;stroke-miterlimit:100000;stroke-opacity:1"
     d="m 89.086658,105.02541 0,-3.26059"
     id="path4590"
     inkscape:connector-curvature="0" />
  <path
     inkscape:connector-curvature="0"
     id="path4592"
     d="m 118.33924,105.02541 0,-3.26059"
     style="fill:none;fill-rule:evenodd;stroke:#000000;stroke-width:0.79999995px;stroke-linecap:butt;stroke-linejoin:miter;stroke-miterlimit:100000;stroke-opacity:1" />
  <g
     transform="matrix(0.6803915,0,0,0.43985003,-85.572134,-139.6091)"
     style="stroke-linecap:butt;stroke-linejoin:round;stroke-miterlimit:100000"
     id="g4594">
    <g
       style="stroke-linecap:butt;stroke-linejoin:round;stroke-miterlimit:100000"
       id="g4596">
      <g
         style="stroke-linecap:butt;stroke-linejoin:round;stroke-miterlimit:100000"
         id="g4598">
        <use
           id="use4600"
           y="567"
           xlink:href="#mf5351705c4"
           x="387.60001"
           style="stroke:#000000;stroke-width:0.91398329;stroke-linecap:butt;stroke-linejoin:round;stroke-miterlimit:100000"
           width="100%"
           height="100%" />
      </g>
    </g>
    <g
       style="stroke-linecap:butt;stroke-linejoin:round;stroke-miterlimit:100000"
       id="g4602">
      <g
         style="stroke-linecap:butt;stroke-linejoin:round;stroke-miterlimit:100000"
         id="g4604">
        <use
           id="use4606"
           y="338.72726"
           xlink:href="#m797722c7dd"
           x="387.60001"
           style="stroke:#000000;stroke-width:0.91398329;stroke-linecap:butt;stroke-linejoin:round;stroke-miterlimit:100000"
           width="100%"
           height="100%" />
      </g>
    </g>
    <g
       style="stroke-linecap:butt;stroke-linejoin:round;stroke-miterlimit:100000"
       id="g4608">
      <text
         id="text4610"
         y="580.1181"
         x="387.60001"
         style="font-style:normal;font-weight:400;font-size:12px;font-family:'Bitstream Vera Sans';text-anchor:middle;stroke-linecap:butt;stroke-linejoin:round;stroke-miterlimit:100000">100</text>
    </g>
  </g>
  <g
     id="g4612"
     style="stroke-linecap:butt;stroke-linejoin:round;stroke-miterlimit:100000"
     transform="matrix(0.6803915,0,0,0.43985003,-57.428066,-139.6091)">
    <g
       id="g4614"
       style="stroke-linecap:butt;stroke-linejoin:round;stroke-miterlimit:100000">
      <g
         id="g4616"
         style="stroke-linecap:butt;stroke-linejoin:round;stroke-miterlimit:100000">
        <use
           height="100%"
           width="100%"
           style="stroke:#000000;stroke-width:0.91398329;stroke-linecap:butt;stroke-linejoin:round;stroke-miterlimit:100000"
           x="387.60001"
           xlink:href="#mf5351705c4"
           y="567"
           id="use4618" />
      </g>
    </g>
    <g
       id="g4620"
       style="stroke-linecap:butt;stroke-linejoin:round;stroke-miterlimit:100000">
      <g
         id="g4622"
         style="stroke-linecap:butt;stroke-linejoin:round;stroke-miterlimit:100000">
        <use
           height="100%"
           width="100%"
           style="stroke:#000000;stroke-width:0.91398329;stroke-linecap:butt;stroke-linejoin:round;stroke-miterlimit:100000"
           x="387.60001"
           xlink:href="#m797722c7dd"
           y="338.72726"
           id="use4624" />
      </g>
    </g>
    <g
       id="g4626"
       style="stroke-linecap:butt;stroke-linejoin:round;stroke-miterlimit:100000">
      <text
         style="font-style:normal;font-weight:400;font-size:12px;font-family:'Bitstream Vera Sans';text-anchor:middle;stroke-linecap:butt;stroke-linejoin:round;stroke-miterlimit:100000"
         x="387.60001"
         y="580.1181"
         id="text4628">120</text>
    </g>
  </g>
  <g
     transform="matrix(0.6803915,0,0,0.43985003,-27.911116,-139.6091)"
     style="stroke-linecap:butt;stroke-linejoin:round;stroke-miterlimit:100000"
     id="g4630">
    <g
       style="stroke-linecap:butt;stroke-linejoin:round;stroke-miterlimit:100000"
       id="g4632">
      <g
         style="stroke-linecap:butt;stroke-linejoin:round;stroke-miterlimit:100000"
         id="g4634">
        <use
           id="use4636"
           y="567"
           xlink:href="#mf5351705c4"
           x="387.60001"
           style="stroke:#000000;stroke-width:0.91398329;stroke-linecap:butt;stroke-linejoin:round;stroke-miterlimit:100000"
           width="100%"
           height="100%" />
      </g>
    </g>
    <g
       style="stroke-linecap:butt;stroke-linejoin:round;stroke-miterlimit:100000"
       id="g4638">
      <g
         style="stroke-linecap:butt;stroke-linejoin:round;stroke-miterlimit:100000"
         id="g4640">
        <use
           id="use4642"
           y="338.72726"
           xlink:href="#m797722c7dd"
           x="387.60001"
           style="stroke:#000000;stroke-width:0.91398329;stroke-linecap:butt;stroke-linejoin:round;stroke-miterlimit:100000"
           width="100%"
           height="100%" />
      </g>
    </g>
    <g
       style="stroke-linecap:butt;stroke-linejoin:round;stroke-miterlimit:100000"
       id="g4644">
      <text
         id="text4646"
         y="580.1181"
         x="387.60001"
         style="font-style:normal;font-weight:400;font-size:12px;font-family:'Bitstream Vera Sans';text-anchor:middle;stroke-linecap:butt;stroke-linejoin:round;stroke-miterlimit:100000">140</text>
    </g>
  </g>
  <path
     inkscape:connector-curvature="0"
     id="path4970"
     d="m 206.09699,105.02541 0,-3.26059"
     style="fill:none;fill-rule:evenodd;stroke:#000000;stroke-width:0.79999995px;stroke-linecap:butt;stroke-linejoin:miter;stroke-miterlimit:100000;stroke-opacity:1" />
</svg>
