<?xml version="1.0" encoding="UTF-8" standalone="no"?>
<!-- Created with matplotlib (http://matplotlib.org/) -->

<svg
   xmlns:dc="http://purl.org/dc/elements/1.1/"
   xmlns:cc="http://creativecommons.org/ns#"
   xmlns:rdf="http://www.w3.org/1999/02/22-rdf-syntax-ns#"
   xmlns:svg="http://www.w3.org/2000/svg"
   xmlns="http://www.w3.org/2000/svg"
   xmlns:xlink="http://www.w3.org/1999/xlink"
   xmlns:sodipodi="http://sodipodi.sourceforge.net/DTD/sodipodi-0.dtd"
   xmlns:inkscape="http://www.inkscape.org/namespaces/inkscape"
   height="345pt"
   version="1.1"
   viewBox="0 0 432 345"
   width="432pt"
   id="svg2"
   inkscape:version="0.91 "
   sodipodi:docname="gan_n370_cv.svg">
  <metadata
     id="metadata244">
    <rdf:RDF>
      <cc:Work
         rdf:about="">
        <dc:format>image/svg+xml</dc:format>
        <dc:type
           rdf:resource="http://purl.org/dc/dcmitype/StillImage" />
      </cc:Work>
    </rdf:RDF>
  </metadata>
  <sodipodi:namedview
     pagecolor="#ffffff"
     bordercolor="#666666"
     borderopacity="1"
     objecttolerance="10"
     gridtolerance="10"
     guidetolerance="10"
     inkscape:pageopacity="0"
     inkscape:pageshadow="2"
     inkscape:window-width="1827"
     inkscape:window-height="1051"
     id="namedview242"
     showgrid="false"
     inkscape:zoom="1.5478465"
     inkscape:cx="394.66027"
     inkscape:cy="178.25937"
     inkscape:window-x="84"
     inkscape:window-y="-9"
     inkscape:window-maximized="1"
     inkscape:current-layer="legend_1" />
  <defs
     id="defs4">
    <style
       type="text/css"
       id="style6">
*{stroke-linecap:butt;stroke-linejoin:round;stroke-miterlimit:100000;}
  </style>
  </defs>
  <g
     id="figure_1">
    <g
       id="patch_1">
      <path
         d="M 0 345.6  L 432 345.6  L 432 0  L 0 0  z "
         style="fill:#ffffff;"
         id="path10" />
    </g>
    <g
       id="axes_1">
      <g
         id="patch_2">
        <path
           d="M 54 302.4  L 388.8 302.4  L 388.8 34.56  L 54 34.56  z "
           style="fill:#ffffff;"
           id="path14" />
      </g>
      <g
         id="line2d_1"
         style="stroke:#f38080;stroke-opacity:1">
        <path
           clip-path="url(#p729218e84b)"
           d="M 57.777214 58.838397  L 62.464414 84.884505  L 67.151614 101.174212  L 71.838814 109.711063  L 76.526014 113.282603  L 81.213214 115.373261  L 85.900414 117.115476  L 90.587614 118.509247  L 95.274814 119.815908  L 99.962014 121.035458  L 104.649214 122.080787  L 109.336414 123.039005  L 114.023614 124.084334  L 118.710814 125.042552  L 123.398014 126.00077  L 128.085214 127.046099  L 128.085214 127.046099  L 132.772414 128.004317  L 137.459614 128.962535  L 142.146814 130.094974  L 146.834014 131.227414  L 151.521214 132.534075  L 156.208414 134.014957  L 160.895614 135.408729  L 165.582814 137.063833  L 170.270014 138.806047  L 174.957214 140.635373  L 179.644414 142.63892  L 184.331614 144.990909  L 189.018814 147.43001  L 193.706014 150.130443  L 198.393214 153.266429  L 203.080414 156.315304  L 207.767614 159.625512  L 212.454814 163.371274  L 217.142014 166.768592  L 221.829214 170.340132  L 226.516414 173.824561  L 231.203614 176.873437  L 235.890814 179.57387  L 240.578014 182.187191  L 245.265214 184.190738  L 249.952414 186.020064  L 254.639614 187.588057  L 259.326814 189.068939  L 264.014014 190.201379  L 268.701214 191.420929  L 273.388414 192.292036  L 278.075614 193.076033  L 282.762814 193.772919  L 287.450014 194.469804  L 292.137214 194.992469  L 296.824414 195.602244  L 301.511614 196.037798  L 306.198814 196.734683  L 310.886014 197.431569  L 315.573214 198.041344  L 320.260414 198.476898  L 324.947614 199.173784  L 329.634814 199.522227  L 334.322014 200.044891  L 339.009214 200.480445  L 343.696414 201.003109  L 348.383614 201.351552  L 353.070814 201.787106  L 357.758014 202.30977  L 362.445214 202.745324  L 367.132414 203.267988  L 371.819614 203.703542  L 376.506814 204.226206  L 381.194014 204.574649  L 385.881214 204.748871  L 390.568414 205.010203  L 395.255614 204.923092  L 399.942814 204.835981  L 404.630014 204.66176  L 409.317214 204.574649  L 414.004414 204.400428  L 418.691614 204.051985  L 423.378814 203.790653  L 428.066014 203.529321  L 432.753214 203.355099  L 433 203.350513  "
           style="fill:none;stroke:#f38080;stroke-linecap:square;stroke-opacity:1"
           id="path17" />
      </g>
      <g
         id="line2d_2">
        <path
           clip-path="url(#p729218e84b)"
           d="M 57.777214 38.133988  L 62.464414 73.314134  L 67.151614 94.05488  L 71.838814 104.438627  L 76.526014 108.627802  L 81.213214 111.079798  L 85.900414 113.100616  L 90.587614 114.685645  L 95.274814 116.125173  L 99.962014 117.475345  L 104.649214 118.597566  L 109.336414 119.643468  L 114.023614 120.733683  L 118.710814 121.788066  L 123.398014 122.7806  L 128.085214 123.735304  L 128.085214 123.886743  L 132.772414 124.766172  L 137.459614 125.761172  L 142.146814 126.967168  L 146.834014 128.161072  L 151.521214 129.52584  L 156.208414 131.047714  L 160.895614 132.509275  L 165.582814 134.209081  L 170.270014 136.02407  L 174.957214 137.904041  L 179.644414 139.993489  L 184.331614 142.414059  L 189.018814 144.955505  L 193.706014 147.73159  L 198.393214 150.986036  L 203.080414 154.117408  L 207.767614 157.550281  L 212.454814 161.382201  L 217.142014 164.866179  L 221.829214 168.45141  L 226.516414 171.903866  L 231.203614 174.837896  L 235.890814 177.516187  L 240.578014 180.107754  L 245.265214 182.131612  L 249.952414 183.975021  L 254.639614 185.653167  L 259.326814 187.243831  L 264.014014 188.523669  L 268.701214 189.834933  L 273.388414 190.800788  L 278.075614 191.578172  L 282.762814 192.318338  L 287.450014 193.017981  L 292.137214 193.565887  L 296.824414 194.175583  L 301.511614 194.629454  L 306.198814 195.339162  L 310.886014 196.060838  L 315.573214 196.646537  L 320.260414 197.074221  L 324.947614 197.737079  L 329.634814 198.06411  L 334.322014 198.513989  L 339.009214 198.858416  L 343.696414 199.223653  L 348.383614 199.424299  L 353.070814 199.615138  L 357.758014 199.836981  L 362.445214 199.796181  L 367.132414 199.640164  L 371.819614 199.137364  L 376.506814 198.419019  L 381.194014 196.819045  L 385.881214 194.401887  L 390.568414 191.009279  L 395.255614 186.285406  L 399.942814 180.174186  L 404.630014 173.059353  L 409.317214 164.719183  L 414.004414 155.461619  L 418.691614 145.39617  L 423.378814 135.693725  L 428.066014 126.164554  L 432.753214 118.404209  L 433 118.083986  "
           style="fill:none;stroke:#0000ff;stroke-linecap:square;"
           id="path20" />
      </g>
      <g
         id="patch_3">
        <path
           d="M 54 34.56  L 388.8 34.56  "
           style="fill:none;stroke:#000000;stroke-linecap:square;stroke-linejoin:miter;"
           id="path23" />
      </g>
      <g
         id="patch_4">
        <path
           d="M 54 302.4  L 54 34.56  "
           style="fill:none;stroke:#000000;stroke-linecap:square;stroke-linejoin:miter;"
           id="path26" />
      </g>
      <g
         id="patch_5">
        <path
           d="M 388.8 302.4  L 388.8 34.56  "
           style="fill:none;stroke:#000000;stroke-linecap:square;stroke-linejoin:miter;"
           id="path29" />
      </g>
      <g
         id="patch_6">
        <path
           d="M 54 302.4  L 388.8 302.4  "
           style="fill:none;stroke:#000000;stroke-linecap:square;stroke-linejoin:miter;"
           id="path32" />
      </g>
      <g
         id="matplotlib.axis_1">
        <g
           id="xtick_1">
          <g
             id="line2d_3">
            <defs
               id="defs37">
              <path
                 d="M 0 0  L 0 -4  "
                 id="m3b82a1906e"
                 style="stroke:#000000;stroke-width:0.5;" />
            </defs>
            <g
               id="g40">
              <use
                 style="stroke:#000000;stroke-width:0.5;"
                 x="54.0"
                 xlink:href="#m3b82a1906e"
                 y="302.4"
                 id="use42" />
            </g>
          </g>
          <g
             id="line2d_4">
            <defs
               id="defs45">
              <path
                 d="M 0 0  L 0 4  "
                 id="me3070ffc61"
                 style="stroke:#000000;stroke-width:0.5;" />
            </defs>
            <g
               id="g48">
              <use
                 style="stroke:#000000;stroke-width:0.5;"
                 x="54.0"
                 xlink:href="#me3070ffc61"
                 y="34.56"
                 id="use50" />
            </g>
          </g>
          <g
             id="text_1">
            <text
               style="font-family:Bitstream Vera Sans;font-size:18.0px;font-style:normal;font-weight:400;text-anchor:middle;"
               transform="rotate(-0.000000, 54.000000, 320.077187)"
               x="54.0"
               y="320.0771875"
               id="text53">−1</text>
          </g>
        </g>
        <g
           id="xtick_2">
          <g
             id="line2d_5">
            <g
               id="g57">
              <use
                 style="stroke:#000000;stroke-width:0.5;"
                 x="120.96"
                 xlink:href="#m3b82a1906e"
                 y="302.4"
                 id="use59" />
            </g>
          </g>
          <g
             id="line2d_6">
            <g
               id="g62">
              <use
                 style="stroke:#000000;stroke-width:0.5;"
                 x="120.96"
                 xlink:href="#me3070ffc61"
                 y="34.56"
                 id="use64" />
            </g>
          </g>
          <g
             id="text_2">
            <text
               style="font-family:Bitstream Vera Sans;font-size:18.0px;font-style:normal;font-weight:400;text-anchor:middle;"
               transform="rotate(-0.000000, 120.960000, 320.077187)"
               x="120.96"
               y="320.0771875"
               id="text67">0</text>
          </g>
        </g>
        <g
           id="xtick_3">
          <g
             id="line2d_7">
            <g
               id="g71">
              <use
                 style="stroke:#000000;stroke-width:0.5;"
                 x="187.92"
                 xlink:href="#m3b82a1906e"
                 y="302.4"
                 id="use73" />
            </g>
          </g>
          <g
             id="line2d_8">
            <g
               id="g76">
              <use
                 style="stroke:#000000;stroke-width:0.5;"
                 x="187.92"
                 xlink:href="#me3070ffc61"
                 y="34.56"
                 id="use78" />
            </g>
          </g>
          <g
             id="text_3">
            <text
               style="font-family:Bitstream Vera Sans;font-size:18.0px;font-style:normal;font-weight:400;text-anchor:middle;"
               transform="rotate(-0.000000, 187.920000, 320.077187)"
               x="187.92"
               y="320.0771875"
               id="text81">1</text>
          </g>
        </g>
        <g
           id="xtick_4">
          <g
             id="line2d_9">
            <g
               id="g85">
              <use
                 style="stroke:#000000;stroke-width:0.5;"
                 x="254.88"
                 xlink:href="#m3b82a1906e"
                 y="302.4"
                 id="use87" />
            </g>
          </g>
          <g
             id="line2d_10">
            <g
               id="g90">
              <use
                 style="stroke:#000000;stroke-width:0.5;"
                 x="254.88"
                 xlink:href="#me3070ffc61"
                 y="34.56"
                 id="use92" />
            </g>
          </g>
          <g
             id="text_4">
            <text
               style="font-family:Bitstream Vera Sans;font-size:18.0px;font-style:normal;font-weight:400;text-anchor:middle;"
               transform="rotate(-0.000000, 254.880000, 320.077187)"
               x="254.88"
               y="320.0771875"
               id="text95">2</text>
          </g>
        </g>
        <g
           id="xtick_5">
          <g
             id="line2d_11">
            <g
               id="g99">
              <use
                 style="stroke:#000000;stroke-width:0.5;"
                 x="321.84"
                 xlink:href="#m3b82a1906e"
                 y="302.4"
                 id="use101" />
            </g>
          </g>
          <g
             id="line2d_12">
            <g
               id="g104">
              <use
                 style="stroke:#000000;stroke-width:0.5;"
                 x="321.84"
                 xlink:href="#me3070ffc61"
                 y="34.56"
                 id="use106" />
            </g>
          </g>
          <g
             id="text_5">
            <text
               style="font-family:Bitstream Vera Sans;font-size:18.0px;font-style:normal;font-weight:400;text-anchor:middle;"
               transform="rotate(-0.000000, 321.840000, 320.077187)"
               x="321.84"
               y="320.0771875"
               id="text109">3</text>
          </g>
        </g>
        <g
           id="xtick_6">
          <g
             id="line2d_13">
            <g
               id="g113">
              <use
                 style="stroke:#000000;stroke-width:0.5;"
                 x="388.8"
                 xlink:href="#m3b82a1906e"
                 y="302.4"
                 id="use115" />
            </g>
          </g>
          <g
             id="line2d_14">
            <g
               id="g118">
              <use
                 style="stroke:#000000;stroke-width:0.5;"
                 x="388.8"
                 xlink:href="#me3070ffc61"
                 y="34.56"
                 id="use120" />
            </g>
          </g>
          <g
             id="text_6">
            <text
               style="font-family:Bitstream Vera Sans;font-size:18.0px;font-style:normal;font-weight:400;text-anchor:middle;"
               transform="rotate(-0.000000, 388.800000, 320.077187)"
               x="388.8"
               y="320.0771875"
               id="text123">4</text>
          </g>
        </g>
        <g
           id="text_7">
          <text
             style="font-family:Bitstream Vera Sans;font-size:18.0px;font-style:normal;font-weight:400;text-anchor:middle;"
             transform="rotate(-0.000000, 221.400000, 342.497812)"
             x="221.4"
             y="342.4978125"
             id="text126">$V$, \si{\volt}</text>
        </g>
      </g>
      <g
         id="matplotlib.axis_2">
        <g
           id="ytick_1">
          <g
             id="line2d_15">
            <defs
               id="defs131">
              <path
                 d="M 0 0  L 4 0  "
                 id="m432260ba5c"
                 style="stroke:#000000;stroke-width:0.5;" />
            </defs>
            <g
               id="g134">
              <use
                 style="stroke:#000000;stroke-width:0.5;"
                 x="54.0"
                 xlink:href="#m432260ba5c"
                 y="302.4"
                 id="use136" />
            </g>
          </g>
          <g
             id="line2d_16">
            <defs
               id="defs139">
              <path
                 d="M 0 0  L -4 0  "
                 id="ma2fc9bf5d6"
                 style="stroke:#000000;stroke-width:0.5;" />
            </defs>
            <g
               id="g142">
              <use
                 style="stroke:#000000;stroke-width:0.5;"
                 x="388.8"
                 xlink:href="#ma2fc9bf5d6"
                 y="302.4"
                 id="use144" />
            </g>
          </g>
          <g
             id="text_8">
            <text
               style="font-family:Bitstream Vera Sans;font-size:18.0px;font-style:normal;font-weight:400;text-anchor:end;"
               transform="rotate(-0.000000, 50.000000, 307.366875)"
               x="50.0"
               y="307.366875"
               id="text147">0.0</text>
          </g>
        </g>
        <g
           id="ytick_2">
          <g
             id="line2d_17">
            <g
               id="g151">
              <use
                 style="stroke:#000000;stroke-width:0.5;"
                 x="54.0"
                 xlink:href="#m432260ba5c"
                 y="248.832"
                 id="use153" />
            </g>
          </g>
          <g
             id="line2d_18">
            <g
               id="g156">
              <use
                 style="stroke:#000000;stroke-width:0.5;"
                 x="388.8"
                 xlink:href="#ma2fc9bf5d6"
                 y="248.832"
                 id="use158" />
            </g>
          </g>
          <g
             id="text_9">
            <text
               style="font-family:Bitstream Vera Sans;font-size:18.0px;font-style:normal;font-weight:400;text-anchor:end;"
               transform="rotate(-0.000000, 50.000000, 253.798875)"
               x="50.0"
               y="253.798875"
               id="text161">0.1</text>
          </g>
        </g>
        <g
           id="ytick_3">
          <g
             id="line2d_19">
            <g
               id="g165">
              <use
                 style="stroke:#000000;stroke-width:0.5;"
                 x="54.0"
                 xlink:href="#m432260ba5c"
                 y="195.264"
                 id="use167" />
            </g>
          </g>
          <g
             id="line2d_20">
            <g
               id="g170">
              <use
                 style="stroke:#000000;stroke-width:0.5;"
                 x="388.8"
                 xlink:href="#ma2fc9bf5d6"
                 y="195.264"
                 id="use172" />
            </g>
          </g>
          <g
             id="text_10">
            <text
               style="font-family:Bitstream Vera Sans;font-size:18.0px;font-style:normal;font-weight:400;text-anchor:end;"
               transform="rotate(-0.000000, 50.000000, 200.230875)"
               x="50.0"
               y="200.230875"
               id="text175">0.2</text>
          </g>
        </g>
        <g
           id="ytick_4">
          <g
             id="line2d_21">
            <g
               id="g179">
              <use
                 style="stroke:#000000;stroke-width:0.5;"
                 x="54.0"
                 xlink:href="#m432260ba5c"
                 y="141.696"
                 id="use181" />
            </g>
          </g>
          <g
             id="line2d_22">
            <g
               id="g184">
              <use
                 style="stroke:#000000;stroke-width:0.5;"
                 x="388.8"
                 xlink:href="#ma2fc9bf5d6"
                 y="141.696"
                 id="use186" />
            </g>
          </g>
          <g
             id="text_11">
            <text
               style="font-family:Bitstream Vera Sans;font-size:18.0px;font-style:normal;font-weight:400;text-anchor:end;"
               transform="rotate(-0.000000, 50.000000, 146.662875)"
               x="50.0"
               y="146.662875"
               id="text189">0.3</text>
          </g>
        </g>
        <g
           id="ytick_5">
          <g
             id="line2d_23">
            <g
               id="g193">
              <use
                 style="stroke:#000000;stroke-width:0.5;"
                 x="54.0"
                 xlink:href="#m432260ba5c"
                 y="88.128"
                 id="use195" />
            </g>
          </g>
          <g
             id="line2d_24">
            <g
               id="g198">
              <use
                 style="stroke:#000000;stroke-width:0.5;"
                 x="388.8"
                 xlink:href="#ma2fc9bf5d6"
                 y="88.128"
                 id="use200" />
            </g>
          </g>
          <g
             id="text_12">
            <text
               style="font-family:Bitstream Vera Sans;font-size:18.0px;font-style:normal;font-weight:400;text-anchor:end;"
               transform="rotate(-0.000000, 50.000000, 93.094875)"
               x="50.0"
               y="93.094875"
               id="text203">0.4</text>
          </g>
        </g>
        <g
           id="ytick_6">
          <g
             id="line2d_25">
            <g
               id="g207">
              <use
                 style="stroke:#000000;stroke-width:0.5;"
                 x="54.0"
                 xlink:href="#m432260ba5c"
                 y="34.56"
                 id="use209" />
            </g>
          </g>
          <g
             id="line2d_26">
            <g
               id="g212">
              <use
                 style="stroke:#000000;stroke-width:0.5;"
                 x="388.8"
                 xlink:href="#ma2fc9bf5d6"
                 y="34.56"
                 id="use214" />
            </g>
          </g>
          <g
             id="text_13">
            <text
               style="font-family:Bitstream Vera Sans;font-size:18.0px;font-style:normal;font-weight:400;text-anchor:end;"
               transform="rotate(-0.000000, 50.000000, 39.526875)"
               x="50.0"
               y="39.526875"
               id="text217">0.5</text>
          </g>
        </g>
        <g
           id="text_14">
          <text
             style="font-family:Bitstream Vera Sans;font-size:18.0px;font-style:normal;font-weight:400;text-anchor:middle;"
             transform="rotate(-90.000000, 12.630938, 168.480000)"
             x="12.6309375"
             y="168.48"
             id="text220">$C$, \si{\micro\farad/\cm^{2}}</text>
        </g>
      </g>
      <g
         id="legend_1">
        <g
           id="line2d_27"
           style="stroke:#f38080;stroke-opacity:1">
          <path
             d="M 254.17125 58.215938  L 290.17125 58.215938  "
             style="fill:none;stroke:#f38080;stroke-linecap:square;stroke-opacity:1"
             id="path224" />
        </g>
        <g
           id="line2d_28" />
        <g
           id="text_15">
          <text
             style="font-family:Bitstream Vera Sans;font-size:18.0px;font-style:normal;font-weight:400;text-anchor:start;"
             transform="rotate(-0.000000, 304.571250, 64.515938)"
             x="304.57125"
             y="64.5159375"
             id="text228">$C_|p|$</text>
        </g>
        <g
           id="line2d_29">
          <path
             d="M 254.17125 85.215938  L 290.17125 85.215938  "
             style="fill:none;stroke:#0000ff;stroke-linecap:square;"
             id="path231" />
        </g>
        <g
           id="line2d_30" />
        <g
           id="text_16">
          <text
             style="font-family:Bitstream Vera Sans;font-size:18.0px;font-style:normal;font-weight:400;text-anchor:start;"
             transform="rotate(-0.000000, 304.571250, 91.515938)"
             x="304.57125"
             y="91.5159375"
             id="text235">$C_|s|$</text>
        </g>
      </g>
    </g>
  </g>
  <defs
     id="defs237">
    <clipPath
       id="p729218e84b">
      <rect
         height="267.84"
         width="334.8"
         x="54.0"
         y="34.56"
         id="rect240" />
    </clipPath>
  </defs>
</svg>
