<?xml version="1.0" encoding="utf-8" standalone="no"?>
<!DOCTYPE svg PUBLIC "-//W3C//DTD SVG 1.1//EN"
  "http://www.w3.org/Graphics/SVG/1.1/DTD/svg11.dtd">
<!-- Created with matplotlib (http://matplotlib.org/) -->
<svg height="345pt" version="1.1" viewBox="0 0 432 345" width="432pt" xmlns="http://www.w3.org/2000/svg" xmlns:xlink="http://www.w3.org/1999/xlink">
 <defs>
  <style type="text/css">
*{stroke-linecap:butt;stroke-linejoin:round;stroke-miterlimit:100000;}
  </style>
 </defs>
 <g id="figure_1">
  <g id="patch_1">
   <path d="M 0 345.6 
L 432 345.6 
L 432 0 
L 0 0 
z
" style="fill:#ffffff;"/>
  </g>
  <g id="axes_1">
   <g id="patch_2">
    <path d="M 54 302.4 
L 388.8 302.4 
L 388.8 34.56 
L 54 34.56 
z
" style="fill:#ffffff;"/>
   </g>
   <g id="line2d_1">
    <path clip-path="url(#pde8c0ff4f4)" d="M 54 302.4 
L 64.077592 302.4 
L 65.197324 299.99316 
L 66.317057 288.99928 
L 67.436789 283.601976 
L 68.556522 279.440206 
L 69.676254 275.924756 
L 71.915719 270.019275 
L 74.155184 265.03579 
L 76.394649 260.64288 
L 78.634114 256.670033 
L 81.993311 251.286508 
L 85.352508 246.418321 
L 88.711706 241.94086 
L 92.070903 237.772863 
L 96.549833 232.60163 
L 101.028763 227.787949 
L 105.507692 223.266544 
L 111.106355 217.954539 
L 116.705017 212.95746 
L 122.303679 208.225162 
L 129.022074 202.842888 
L 135.740468 197.737031 
L 143.578595 192.078461 
L 151.416722 186.696297 
L 160.374582 180.836691 
L 169.332441 175.246827 
L 179.410033 169.238417 
L 189.487625 163.489651 
L 200.68495 157.369144 
L 211.882274 151.496676 
L 224.199331 145.290281 
L 237.63612 138.787956 
L 251.07291 132.534354 
L 265.629431 126.009634 
L 281.305686 119.24277 
L 296.98194 112.717157 
L 313.777926 105.965845 
L 331.693645 99.011309 
L 350.729097 91.873686 
L 369.764548 84.970246 
L 388.8 78.279347 
L 388.8 78.279347 
" style="fill:none;stroke:#008000;stroke-dasharray:3.000000,5.000000,1.000000,5.000000;stroke-dashoffset:0.0;"/>
   </g>
   <g id="line2d_2">
    <path clip-path="url(#pde8c0ff4f4)" d="M 54 302.4 
L 65.197324 302.399296 
L 67.436789 302.066267 
L 69.676254 301.472541 
L 73.035452 300.281117 
L 76.394649 298.818225 
L 79.753846 297.138886 
L 84.232776 294.622128 
L 88.711706 291.839411 
L 94.310368 288.048872 
L 99.90903 283.966995 
L 106.627425 278.748804 
L 113.345819 273.240684 
L 121.183946 266.5152 
L 130.141806 258.513344 
L 140.219398 249.202866 
L 152.536455 237.507653 
L 169.332441 221.224819 
L 215.241472 176.540476 
L 230.917726 161.666246 
L 245.474247 148.167626 
L 258.911037 136.022902 
L 271.228094 125.186306 
L 283.545151 114.654718 
L 294.742475 105.359572 
L 305.939799 96.340738 
L 317.137124 87.606224 
L 328.334448 79.16212 
L 339.531773 71.012807 
L 350.729097 63.161142 
L 361.926421 55.608623 
L 372.004013 49.067382 
L 382.081605 42.768144 
L 388.8 38.702536 
L 388.8 38.702536 
" style="fill:none;stroke:#008000;stroke-dasharray:6.000000,6.000000;stroke-dashoffset:0.0;"/>
   </g>
   <g id="line2d_3">
    <path clip-path="url(#pde8c0ff4f4)" d="M 54 302.4 
L 104.38796 302.4 
L 105.507692 262.945521 
L 143.578595 262.945521 
L 144.698328 229.288562 
L 174.931104 229.288562 
L 176.050836 199.859 
L 202.924415 199.859 
L 204.044147 173.808631 
L 227.558528 173.808631 
L 228.678261 150.57554 
L 251.07291 150.57554 
L 252.192642 129.749729 
L 273.467559 129.749729 
L 274.587291 111.014519 
L 294.742475 111.014519 
L 295.862207 94.115937 
L 316.017391 94.115937 
L 317.137124 78.844784 
L 335.052843 78.844784 
L 336.172575 65.02527 
L 354.088294 65.02527 
L 355.208027 52.50739 
L 372.004013 52.50739 
L 373.123746 41.16155 
L 388.8 41.16155 
L 388.8 41.16155 
" style="fill:none;stroke:#008000;stroke-linecap:square;"/>
   </g>
   <g id="patch_3">
    <path d="M 54 302.4 
L 54 34.56 
" style="fill:none;stroke:#000000;stroke-linecap:square;stroke-linejoin:miter;"/>
   </g>
   <g id="patch_4">
    <path d="M 54 302.4 
L 388.8 302.4 
" style="fill:none;stroke:#000000;stroke-linecap:square;stroke-linejoin:miter;"/>
   </g>
   <g id="patch_5">
    <path d="M 388.8 302.4 
L 388.8 34.56 
" style="fill:none;stroke:#000000;stroke-linecap:square;stroke-linejoin:miter;"/>
   </g>
   <g id="patch_6">
    <path d="M 54 34.56 
L 388.8 34.56 
" style="fill:none;stroke:#000000;stroke-linecap:square;stroke-linejoin:miter;"/>
   </g>
   <g id="matplotlib.axis_1">
    <g id="xtick_1">
     <g id="line2d_4">
      <defs>
       <path d="M 0 0 
L 0 -4 
" id="m0f5e6de5e3" style="stroke:#000000;stroke-width:0.5;"/>
      </defs>
      <g>
       <use style="stroke:#000000;stroke-width:0.5;" x="54.0" xlink:href="#m0f5e6de5e3" y="302.4"/>
      </g>
     </g>
     <g id="line2d_5">
      <defs>
       <path d="M 0 0 
L 0 4 
" id="m24c1440f37" style="stroke:#000000;stroke-width:0.5;"/>
      </defs>
      <g>
       <use style="stroke:#000000;stroke-width:0.5;" x="54.0" xlink:href="#m24c1440f37" y="34.56"/>
      </g>
     </g>
     <g id="text_1">
      <text style="font-family:Bitstream Vera Sans;font-size:18.0px;font-style:normal;font-weight:400;text-anchor:middle;" transform="rotate(-0.000000, 54.000000, 320.077187)" x="54.0" y="320.0771875">0</text>
     </g>
    </g>
    <g id="xtick_2">
     <g id="line2d_6">
      <g>
       <use style="stroke:#000000;stroke-width:0.5;" x="165.6" xlink:href="#m0f5e6de5e3" y="302.4"/>
      </g>
     </g>
     <g id="line2d_7">
      <g>
       <use style="stroke:#000000;stroke-width:0.5;" x="165.6" xlink:href="#m24c1440f37" y="34.56"/>
      </g>
     </g>
     <g id="text_2">
      <text style="font-family:Bitstream Vera Sans;font-size:18.0px;font-style:normal;font-weight:400;text-anchor:middle;" transform="rotate(-0.000000, 165.600000, 320.077187)" x="165.6" y="320.0771875">0.05</text>
     </g>
    </g>
    <g id="xtick_3">
     <g id="line2d_8">
      <g>
       <use style="stroke:#000000;stroke-width:0.5;" x="277.2" xlink:href="#m0f5e6de5e3" y="302.4"/>
      </g>
     </g>
     <g id="line2d_9">
      <g>
       <use style="stroke:#000000;stroke-width:0.5;" x="277.2" xlink:href="#m24c1440f37" y="34.56"/>
      </g>
     </g>
     <g id="text_3">
      <text style="font-family:Bitstream Vera Sans;font-size:18.0px;font-style:normal;font-weight:400;text-anchor:middle;" transform="rotate(-0.000000, 277.200000, 320.077187)" x="277.2" y="320.0771875">0.1</text>
     </g>
    </g>
    <g id="xtick_4">
     <g id="text_4">
      <text style="font-family:Bitstream Vera Sans;font-size:18.0px;font-style:normal;font-weight:400;text-anchor:middle;" transform="rotate(-0.000000, 388.800000, 320.077187)" x="388.8" y="320.0771875">0.15</text>
     </g>
    </g>
    <g id="text_5">
     <text style="font-family:Bitstream Vera Sans;font-size:18.0px;font-style:normal;font-weight:400;text-anchor:middle;" transform="rotate(-0.000000, 221.400000, 342.497812)" x="221.4" y="342.4978125">$E$, \si{\eV}</text>
    </g>
   </g>
   <g id="matplotlib.axis_2">
    <g id="ytick_1">
     <g id="line2d_10">
      <defs>
       <path d="M 0 0 
L 4 0 
" id="m2592a8e74a" style="stroke:#000000;stroke-width:0.5;"/>
      </defs>
      <g>
       <use style="stroke:#000000;stroke-width:0.5;" x="54.0" xlink:href="#m2592a8e74a" y="302.4"/>
      </g>
     </g>
     <g id="line2d_11">
      <defs>
       <path d="M 0 0 
L -4 0 
" id="m9723c8db25" style="stroke:#000000;stroke-width:0.5;"/>
      </defs>
      <g>
       <use style="stroke:#000000;stroke-width:0.5;" x="388.8" xlink:href="#m9723c8db25" y="302.4"/>
      </g>
     </g>
     <g id="text_6">
      <text style="font-family:Bitstream Vera Sans;font-size:18.0px;font-style:normal;font-weight:400;text-anchor:end;" transform="rotate(-0.000000, 50.000000, 307.366875)" x="50.0" y="307.366875">0</text>
     </g>
    </g>
    <g id="ytick_2">
     <g id="line2d_12">
      <g>
       <use style="stroke:#000000;stroke-width:0.5;" x="54.0" xlink:href="#m2592a8e74a" y="216.0"/>
      </g>
     </g>
     <g id="line2d_13">
      <g>
       <use style="stroke:#000000;stroke-width:0.5;" x="388.8" xlink:href="#m9723c8db25" y="216.0"/>
      </g>
     </g>
     <g id="text_7">
      <text style="font-family:Bitstream Vera Sans;font-size:18.0px;font-style:normal;font-weight:400;text-anchor:end;" transform="rotate(-0.000000, 50.000000, 220.966875)" x="50.0" y="220.966875">1</text>
     </g>
    </g>
    <g id="ytick_3">
     <g id="line2d_14">
      <g>
       <use style="stroke:#000000;stroke-width:0.5;" x="54.0" xlink:href="#m2592a8e74a" y="129.6"/>
      </g>
     </g>
     <g id="line2d_15">
      <g>
       <use style="stroke:#000000;stroke-width:0.5;" x="388.8" xlink:href="#m9723c8db25" y="129.6"/>
      </g>
     </g>
     <g id="text_8">
      <text style="font-family:Bitstream Vera Sans;font-size:18.0px;font-style:normal;font-weight:400;text-anchor:end;" transform="rotate(-0.000000, 50.000000, 134.566875)" x="50.0" y="134.566875">2</text>
     </g>
    </g>
    <g id="ytick_4">
     <g id="line2d_16">
      <g>
       <use style="stroke:#000000;stroke-width:0.5;" x="54.0" xlink:href="#m2592a8e74a" y="43.2"/>
      </g>
     </g>
     <g id="line2d_17">
      <g>
       <use style="stroke:#000000;stroke-width:0.5;" x="388.8" xlink:href="#m9723c8db25" y="43.2"/>
      </g>
     </g>
     <g id="text_9">
      <text style="font-family:Bitstream Vera Sans;font-size:18.0px;font-style:normal;font-weight:400;text-anchor:end;" transform="rotate(-0.000000, 50.000000, 48.166875)" x="50.0" y="48.166875">3</text>
     </g>
    </g>
    <g id="ytick_5">
     <g id="line2d_18">
      <defs>
       <path d="M 0 0 
L 2 0 
" id="mdf6e566e59" style="stroke:#000000;stroke-width:0.5;"/>
      </defs>
      <g>
       <use style="stroke:#000000;stroke-width:0.5;" x="54.0" xlink:href="#mdf6e566e59" y="302.4"/>
      </g>
     </g>
     <g id="line2d_19">
      <defs>
       <path d="M 0 0 
L -2 0 
" id="m403b4a3689" style="stroke:#000000;stroke-width:0.5;"/>
      </defs>
      <g>
       <use style="stroke:#000000;stroke-width:0.5;" x="388.8" xlink:href="#m403b4a3689" y="302.4"/>
      </g>
     </g>
    </g>
    <g id="ytick_6">
     <g id="line2d_20">
      <g>
       <use style="stroke:#000000;stroke-width:0.5;" x="54.0" xlink:href="#mdf6e566e59" y="259.2"/>
      </g>
     </g>
     <g id="line2d_21">
      <g>
       <use style="stroke:#000000;stroke-width:0.5;" x="388.8" xlink:href="#m403b4a3689" y="259.2"/>
      </g>
     </g>
    </g>
    <g id="ytick_7">
     <g id="line2d_22">
      <g>
       <use style="stroke:#000000;stroke-width:0.5;" x="54.0" xlink:href="#mdf6e566e59" y="216.0"/>
      </g>
     </g>
     <g id="line2d_23">
      <g>
       <use style="stroke:#000000;stroke-width:0.5;" x="388.8" xlink:href="#m403b4a3689" y="216.0"/>
      </g>
     </g>
    </g>
    <g id="ytick_8">
     <g id="line2d_24">
      <g>
       <use style="stroke:#000000;stroke-width:0.5;" x="54.0" xlink:href="#mdf6e566e59" y="172.8"/>
      </g>
     </g>
     <g id="line2d_25">
      <g>
       <use style="stroke:#000000;stroke-width:0.5;" x="388.8" xlink:href="#m403b4a3689" y="172.8"/>
      </g>
     </g>
    </g>
    <g id="ytick_9">
     <g id="line2d_26">
      <g>
       <use style="stroke:#000000;stroke-width:0.5;" x="54.0" xlink:href="#mdf6e566e59" y="129.6"/>
      </g>
     </g>
     <g id="line2d_27">
      <g>
       <use style="stroke:#000000;stroke-width:0.5;" x="388.8" xlink:href="#m403b4a3689" y="129.6"/>
      </g>
     </g>
    </g>
    <g id="ytick_10">
     <g id="line2d_28">
      <g>
       <use style="stroke:#000000;stroke-width:0.5;" x="54.0" xlink:href="#mdf6e566e59" y="86.4"/>
      </g>
     </g>
     <g id="line2d_29">
      <g>
       <use style="stroke:#000000;stroke-width:0.5;" x="388.8" xlink:href="#m403b4a3689" y="86.4"/>
      </g>
     </g>
    </g>
    <g id="ytick_11">
     <g id="line2d_30">
      <g>
       <use style="stroke:#000000;stroke-width:0.5;" x="54.0" xlink:href="#mdf6e566e59" y="43.2"/>
      </g>
     </g>
     <g id="line2d_31">
      <g>
       <use style="stroke:#000000;stroke-width:0.5;" x="388.8" xlink:href="#m403b4a3689" y="43.2"/>
      </g>
     </g>
    </g>
    <g id="text_10">
     <text style="font-family:Bitstream Vera Sans;font-size:18.0px;font-style:normal;font-weight:400;text-anchor:middle;" transform="rotate(-90.000000, 29.804063, 168.480000)" x="29.8040625" y="168.48">$\rho(z,\,E)$, \si{\eV^{-1}\cm^{-3}}</text>
    </g>
   </g>
  </g>
  <g id="legend_1">
   <g id="line2d_32">
    <path d="M 69.921563 58.64625 
L 95.121563 58.64625 
" style="fill:none;stroke:#008000;stroke-dasharray:3.000000,5.000000,1.000000,5.000000;stroke-dashoffset:0.0;"/>
   </g>
   <g id="line2d_33"/>
   <g id="text_11">
    <text style="font-family:Bitstream Vera Sans;font-size:18.0px;font-style:normal;font-weight:400;text-anchor:start;" transform="rotate(-0.000000, 114.921562, 64.946250)" x="114.9215625" y="64.94625">\LDA</text>
   </g>
   <g id="line2d_34">
    <path d="M 69.921563 85.066875 
L 95.121563 85.066875 
" style="fill:none;stroke:#008000;stroke-dasharray:6.000000,6.000000;stroke-dashoffset:0.0;"/>
   </g>
   <g id="line2d_35"/>
   <g id="text_12">
    <text style="font-family:Bitstream Vera Sans;font-size:18.0px;font-style:normal;font-weight:400;text-anchor:start;" transform="rotate(-0.000000, 114.921562, 91.366875)" x="114.9215625" y="91.366875">\modified</text>
   </g>
   <g id="line2d_36">
    <path d="M 69.921563 111.4875 
L 95.121563 111.4875 
" style="fill:none;stroke:#008000;stroke-linecap:square;"/>
   </g>
   <g id="line2d_37"/>
   <g id="text_13">
    <text style="font-family:Bitstream Vera Sans;font-size:18.0px;font-style:normal;font-weight:400;text-anchor:start;" transform="rotate(-0.000000, 114.921562, 117.787500)" x="114.9215625" y="117.7875">\Exact</text>
   </g>
  </g>
 </g>
 <defs>
  <clipPath id="pde8c0ff4f4">
   <rect height="267.84" width="334.8" x="54.0" y="34.56"/>
  </clipPath>
 </defs>
</svg>
