<?xml version="1.0" encoding="UTF-8" standalone="no"?>
<!-- Created with matplotlib (http://matplotlib.org/) -->

<svg
   xmlns:dc="http://purl.org/dc/elements/1.1/"
   xmlns:cc="http://creativecommons.org/ns#"
   xmlns:rdf="http://www.w3.org/1999/02/22-rdf-syntax-ns#"
   xmlns:svg="http://www.w3.org/2000/svg"
   xmlns="http://www.w3.org/2000/svg"
   xmlns:xlink="http://www.w3.org/1999/xlink"
   xmlns:sodipodi="http://sodipodi.sourceforge.net/DTD/sodipodi-0.dtd"
   xmlns:inkscape="http://www.inkscape.org/namespaces/inkscape"
   height="345pt"
   version="1.1"
   viewBox="0 0 432 345"
   width="432pt"
   id="svg2"
   inkscape:version="0.91 "
   sodipodi:docname="IP_InAs_carrier_density_m.svg">
  <metadata
     id="metadata413">
    <rdf:RDF>
      <cc:Work
         rdf:about="">
        <dc:format>image/svg+xml</dc:format>
        <dc:type
           rdf:resource="http://purl.org/dc/dcmitype/StillImage" />
      </cc:Work>
    </rdf:RDF>
  </metadata>
  <sodipodi:namedview
     pagecolor="#ffffff"
     bordercolor="#666666"
     borderopacity="1"
     objecttolerance="10"
     gridtolerance="10"
     guidetolerance="10"
     inkscape:pageopacity="0"
     inkscape:pageshadow="2"
     inkscape:window-width="1827"
     inkscape:window-height="1051"
     id="namedview411"
     showgrid="false"
     inkscape:zoom="1.0944928"
     inkscape:cx="14.941124"
     inkscape:cy="206.01289"
     inkscape:window-x="84"
     inkscape:window-y="-9"
     inkscape:window-maximized="1"
     inkscape:current-layer="figure_1" />
  <defs
     id="defs4">
    <style
       type="text/css"
       id="style6">
*{stroke-linecap:butt;stroke-linejoin:round;stroke-miterlimit:100000;}
  </style>
    <clipPath
       id="p92ce579f3f">
      <rect
         height="267.84"
         width="334.79999"
         x="54"
         y="34.560001"
         id="rect412" />
    </clipPath>
  </defs>
  <g
     id="g4758">
    <path
       style="fill:#000000;fill-opacity:1;fill-rule:evenodd;stroke:#898989;stroke-width:0.40000001;stroke-linecap:butt;stroke-linejoin:miter;stroke-miterlimit:100;stroke-dasharray:none;stroke-opacity:1"
       d="m 101.81889,298.90239 0,-263.851848"
       id="path4854-2"
       inkscape:connector-curvature="0" />
    <path
       inkscape:connector-curvature="0"
       id="path4748"
       d="m 149.66384,298.90239 0,-263.851848"
       style="fill:#000000;fill-opacity:1;fill-rule:evenodd;stroke:#898989;stroke-width:0.40000001;stroke-linecap:butt;stroke-linejoin:miter;stroke-miterlimit:100;stroke-dasharray:none;stroke-opacity:1" />
    <path
       style="fill:#000000;fill-opacity:1;fill-rule:evenodd;stroke:#898989;stroke-width:0.40000001;stroke-linecap:butt;stroke-linejoin:miter;stroke-miterlimit:100;stroke-dasharray:none;stroke-opacity:1"
       d="m 197.50879,298.90239 0,-263.851848"
       id="path4750"
       inkscape:connector-curvature="0" />
    <path
       inkscape:connector-curvature="0"
       id="path4752"
       d="m 245.35372,298.90239 0,-263.851848"
       style="fill:#000000;fill-opacity:1;fill-rule:evenodd;stroke:#898989;stroke-width:0.40000001;stroke-linecap:butt;stroke-linejoin:miter;stroke-miterlimit:100;stroke-dasharray:none;stroke-opacity:1" />
    <path
       style="fill:#000000;fill-opacity:1;fill-rule:evenodd;stroke:#898989;stroke-width:0.40000001;stroke-linecap:butt;stroke-linejoin:miter;stroke-miterlimit:100;stroke-dasharray:none;stroke-opacity:1"
       d="m 293.19867,298.90239 0,-263.851848"
       id="path4754"
       inkscape:connector-curvature="0" />
    <path
       inkscape:connector-curvature="0"
       id="path4756"
       d="m 341.04361,298.90239 0,-263.851848"
       style="fill:#000000;fill-opacity:1;fill-rule:evenodd;stroke:#898989;stroke-width:0.40000001;stroke-linecap:butt;stroke-linejoin:miter;stroke-miterlimit:100;stroke-dasharray:none;stroke-opacity:1" />
  </g>
  <g
     id="figure_1">
    <g
       style="stroke-linecap:butt;stroke-linejoin:round;stroke-miterlimit:100000"
       id="patch_2" />
    <g
       style="stroke-linecap:butt;stroke-linejoin:round;stroke-miterlimit:100000"
       id="patch_3">
      <path
         inkscape:connector-curvature="0"
         id="path26"
         style="fill:none;stroke:#000000;stroke-linecap:square;stroke-linejoin:miter;stroke-miterlimit:100000"
         d="m 54,302.4 334.8,0" />
    </g>
    <g
       style="stroke-linecap:butt;stroke-linejoin:round;stroke-miterlimit:100000"
       id="patch_4">
      <path
         inkscape:connector-curvature="0"
         id="path29"
         style="fill:none;stroke:#000000;stroke-linecap:square;stroke-linejoin:miter;stroke-miterlimit:100000"
         d="m 388.8,302.4 0,-267.84" />
    </g>
    <g
       style="stroke-linecap:butt;stroke-linejoin:round;stroke-miterlimit:100000"
       id="patch_5">
      <path
         inkscape:connector-curvature="0"
         id="path32"
         style="fill:none;stroke:#000000;stroke-linecap:square;stroke-linejoin:miter;stroke-miterlimit:100000"
         d="m 54,34.56 334.8,0" />
    </g>
    <g
       style="stroke-linecap:butt;stroke-linejoin:round;stroke-miterlimit:100000"
       id="patch_6">
      <path
         inkscape:connector-curvature="0"
         id="path35"
         style="fill:none;stroke:#000000;stroke-linecap:square;stroke-linejoin:miter;stroke-miterlimit:100000"
         d="M 54,302.4 54,34.56" />
    </g>
    <g
       style="stroke-linecap:butt;stroke-linejoin:round;stroke-miterlimit:100000"
       id="matplotlib.axis_1">
      <g
         style="stroke-linecap:butt;stroke-linejoin:round;stroke-miterlimit:100000"
         id="xtick_1">
        <g
           style="stroke-linecap:butt;stroke-linejoin:round;stroke-miterlimit:100000"
           id="line2d_4">
          <defs
             id="defs40">
            <path
               inkscape:connector-curvature="0"
               style="stroke:#000000;stroke-width:0.5;stroke-linecap:butt;stroke-linejoin:round;stroke-miterlimit:100000"
               id="ma53c056a7a"
               d="M 0,0 0,-4" />
          </defs>
          <g
             style="stroke-linecap:butt;stroke-linejoin:round;stroke-miterlimit:100000"
             id="g43">
            <use
               height="100%"
               width="100%"
               id="use45"
               y="302.39999"
               xlink:href="#ma53c056a7a"
               x="54"
               style="stroke:#000000;stroke-width:0.5;stroke-linecap:butt;stroke-linejoin:round;stroke-miterlimit:100000" />
          </g>
        </g>
        <g
           style="stroke-linecap:butt;stroke-linejoin:round;stroke-miterlimit:100000"
           id="text_1">
          <text
             id="text48"
             y="320.07718"
             x="54"
             style="font-style:normal;font-weight:400;font-size:18px;font-family:'Bitstream Vera Sans';text-anchor:middle;stroke-linecap:butt;stroke-linejoin:round;stroke-miterlimit:100000">0</text>
        </g>
      </g>
      <g
         style="stroke-linecap:butt;stroke-linejoin:round;stroke-miterlimit:100000"
         id="xtick_2">
        <g
           style="stroke-linecap:butt;stroke-linejoin:round;stroke-miterlimit:100000"
           id="line2d_5">
          <g
             style="stroke-linecap:butt;stroke-linejoin:round;stroke-miterlimit:100000"
             id="g52">
            <use
               height="100%"
               width="100%"
               id="use54"
               y="302.39999"
               xlink:href="#ma53c056a7a"
               x="101.82858"
               style="stroke:#000000;stroke-width:0.5;stroke-linecap:butt;stroke-linejoin:round;stroke-miterlimit:100000" />
          </g>
        </g>
        <g
           style="stroke-linecap:butt;stroke-linejoin:round;stroke-miterlimit:100000"
           id="text_2">
          <text
             id="text57"
             y="320.07718"
             x="101.82858"
             style="font-style:normal;font-weight:400;font-size:18px;font-family:'Bitstream Vera Sans';text-anchor:middle;stroke-linecap:butt;stroke-linejoin:round;stroke-miterlimit:100000">5</text>
        </g>
      </g>
      <g
         style="stroke-linecap:butt;stroke-linejoin:round;stroke-miterlimit:100000"
         id="xtick_3">
        <g
           style="stroke-linecap:butt;stroke-linejoin:round;stroke-miterlimit:100000"
           id="line2d_6">
          <g
             style="stroke-linecap:butt;stroke-linejoin:round;stroke-miterlimit:100000"
             id="g61">
            <use
               height="100%"
               width="100%"
               id="use63"
               y="302.39999"
               xlink:href="#ma53c056a7a"
               x="149.65715"
               style="stroke:#000000;stroke-width:0.5;stroke-linecap:butt;stroke-linejoin:round;stroke-miterlimit:100000" />
          </g>
        </g>
        <g
           style="stroke-linecap:butt;stroke-linejoin:round;stroke-miterlimit:100000"
           id="text_3">
          <text
             id="text66"
             y="320.07718"
             x="149.65715"
             style="font-style:normal;font-weight:400;font-size:18px;font-family:'Bitstream Vera Sans';text-anchor:middle;stroke-linecap:butt;stroke-linejoin:round;stroke-miterlimit:100000">10</text>
        </g>
      </g>
      <g
         style="stroke-linecap:butt;stroke-linejoin:round;stroke-miterlimit:100000"
         id="xtick_4">
        <g
           style="stroke-linecap:butt;stroke-linejoin:round;stroke-miterlimit:100000"
           id="line2d_7">
          <g
             style="stroke-linecap:butt;stroke-linejoin:round;stroke-miterlimit:100000"
             id="g70">
            <use
               height="100%"
               width="100%"
               id="use72"
               y="302.39999"
               xlink:href="#ma53c056a7a"
               x="197.48572"
               style="stroke:#000000;stroke-width:0.5;stroke-linecap:butt;stroke-linejoin:round;stroke-miterlimit:100000" />
          </g>
        </g>
        <g
           style="stroke-linecap:butt;stroke-linejoin:round;stroke-miterlimit:100000"
           id="text_4">
          <text
             id="text75"
             y="320.07718"
             x="197.48572"
             style="font-style:normal;font-weight:400;font-size:18px;font-family:'Bitstream Vera Sans';text-anchor:middle;stroke-linecap:butt;stroke-linejoin:round;stroke-miterlimit:100000">15</text>
        </g>
      </g>
      <g
         style="stroke-linecap:butt;stroke-linejoin:round;stroke-miterlimit:100000"
         id="xtick_5">
        <g
           style="stroke-linecap:butt;stroke-linejoin:round;stroke-miterlimit:100000"
           id="line2d_8">
          <g
             style="stroke-linecap:butt;stroke-linejoin:round;stroke-miterlimit:100000"
             id="g79">
            <use
               height="100%"
               width="100%"
               id="use81"
               y="302.39999"
               xlink:href="#ma53c056a7a"
               x="245.31429"
               style="stroke:#000000;stroke-width:0.5;stroke-linecap:butt;stroke-linejoin:round;stroke-miterlimit:100000" />
          </g>
        </g>
        <g
           style="stroke-linecap:butt;stroke-linejoin:round;stroke-miterlimit:100000"
           id="text_5">
          <text
             id="text84"
             y="320.07718"
             x="245.31429"
             style="font-style:normal;font-weight:400;font-size:18px;font-family:'Bitstream Vera Sans';text-anchor:middle;stroke-linecap:butt;stroke-linejoin:round;stroke-miterlimit:100000">20</text>
        </g>
      </g>
      <g
         style="stroke-linecap:butt;stroke-linejoin:round;stroke-miterlimit:100000"
         id="xtick_6">
        <g
           style="stroke-linecap:butt;stroke-linejoin:round;stroke-miterlimit:100000"
           id="line2d_9">
          <g
             style="stroke-linecap:butt;stroke-linejoin:round;stroke-miterlimit:100000"
             id="g88">
            <use
               height="100%"
               width="100%"
               id="use90"
               y="302.39999"
               xlink:href="#ma53c056a7a"
               x="293.14285"
               style="stroke:#000000;stroke-width:0.5;stroke-linecap:butt;stroke-linejoin:round;stroke-miterlimit:100000" />
          </g>
        </g>
        <g
           style="stroke-linecap:butt;stroke-linejoin:round;stroke-miterlimit:100000"
           id="text_6">
          <text
             id="text93"
             y="320.07718"
             x="293.14285"
             style="font-style:normal;font-weight:400;font-size:18px;font-family:'Bitstream Vera Sans';text-anchor:middle;stroke-linecap:butt;stroke-linejoin:round;stroke-miterlimit:100000">25</text>
        </g>
      </g>
      <g
         style="stroke-linecap:butt;stroke-linejoin:round;stroke-miterlimit:100000"
         id="xtick_7">
        <g
           style="stroke-linecap:butt;stroke-linejoin:round;stroke-miterlimit:100000"
           id="line2d_10">
          <g
             style="stroke-linecap:butt;stroke-linejoin:round;stroke-miterlimit:100000"
             id="g97">
            <use
               height="100%"
               width="100%"
               id="use99"
               y="302.39999"
               xlink:href="#ma53c056a7a"
               x="340.97144"
               style="stroke:#000000;stroke-width:0.5;stroke-linecap:butt;stroke-linejoin:round;stroke-miterlimit:100000" />
          </g>
        </g>
        <g
           style="stroke-linecap:butt;stroke-linejoin:round;stroke-miterlimit:100000"
           id="text_7">
          <text
             id="text102"
             y="320.07718"
             x="340.97144"
             style="font-style:normal;font-weight:400;font-size:18px;font-family:'Bitstream Vera Sans';text-anchor:middle;stroke-linecap:butt;stroke-linejoin:round;stroke-miterlimit:100000">30</text>
        </g>
      </g>
      <g
         style="stroke-linecap:butt;stroke-linejoin:round;stroke-miterlimit:100000"
         id="xtick_8">
        <g
           style="stroke-linecap:butt;stroke-linejoin:round;stroke-miterlimit:100000"
           id="line2d_11">
          <g
             style="stroke-linecap:butt;stroke-linejoin:round;stroke-miterlimit:100000"
             id="g106">
            <use
               height="100%"
               width="100%"
               id="use108"
               y="302.39999"
               xlink:href="#ma53c056a7a"
               x="388.79999"
               style="stroke:#000000;stroke-width:0.5;stroke-linecap:butt;stroke-linejoin:round;stroke-miterlimit:100000" />
          </g>
        </g>
        <g
           style="stroke-linecap:butt;stroke-linejoin:round;stroke-miterlimit:100000"
           id="text_8">
          <text
             id="text111"
             y="320.07718"
             x="388.79999"
             style="font-style:normal;font-weight:400;font-size:18px;font-family:'Bitstream Vera Sans';text-anchor:middle;stroke-linecap:butt;stroke-linejoin:round;stroke-miterlimit:100000">35</text>
        </g>
      </g>
      <g
         style="stroke-linecap:butt;stroke-linejoin:round;stroke-miterlimit:100000"
         id="text_9">
        <text
           id="text114"
           y="342.4978"
           x="221.39999"
           style="font-style:normal;font-weight:400;font-size:18px;font-family:'Bitstream Vera Sans';text-anchor:middle;stroke-linecap:butt;stroke-linejoin:round;stroke-miterlimit:100000">1000/\textit{T}, \si{\kelvin^{-1}}</text>
      </g>
    </g>
    <g
       style="stroke-linecap:butt;stroke-linejoin:round;stroke-miterlimit:100000"
       id="matplotlib.axis_2">
      <g
         style="stroke-linecap:butt;stroke-linejoin:round;stroke-miterlimit:100000"
         id="ytick_1">
        <g
           style="stroke-linecap:butt;stroke-linejoin:round;stroke-miterlimit:100000"
           id="line2d_12">
          <defs
             id="defs119">
            <path
               inkscape:connector-curvature="0"
               style="stroke:#000000;stroke-width:0.5;stroke-linecap:butt;stroke-linejoin:round;stroke-miterlimit:100000"
               id="m92e4155aa5"
               d="M 0,0 4,0" />
          </defs>
          <g
             style="stroke-linecap:butt;stroke-linejoin:round;stroke-miterlimit:100000"
             id="g122">
            <use
               height="100%"
               width="100%"
               id="use124"
               y="302.39999"
               xlink:href="#m92e4155aa5"
               x="54"
               style="stroke:#000000;stroke-width:0.5;stroke-linecap:butt;stroke-linejoin:round;stroke-miterlimit:100000" />
          </g>
        </g>
        <g
           style="stroke-linecap:butt;stroke-linejoin:round;stroke-miterlimit:100000"
           id="line2d_13">
          <defs
             id="defs127">
            <path
               inkscape:connector-curvature="0"
               style="stroke:#000000;stroke-width:0.5;stroke-linecap:butt;stroke-linejoin:round;stroke-miterlimit:100000"
               id="m068537bd10"
               d="M 0,0 -4,0" />
          </defs>
          <g
             style="stroke-linecap:butt;stroke-linejoin:round;stroke-miterlimit:100000"
             id="g130">
            <use
               height="100%"
               width="100%"
               id="use132"
               y="302.39999"
               xlink:href="#m068537bd10"
               x="388.79999"
               style="stroke:#000000;stroke-width:0.5;stroke-linecap:butt;stroke-linejoin:round;stroke-miterlimit:100000" />
          </g>
        </g>
        <g
           style="stroke-linecap:butt;stroke-linejoin:round;stroke-miterlimit:100000"
           id="text_10">
          <text
             id="text135"
             y="307.36688"
             x="50"
             style="font-style:normal;font-weight:400;font-size:18px;font-family:'Bitstream Vera Sans';text-anchor:end;stroke-linecap:butt;stroke-linejoin:round;stroke-miterlimit:100000">\num{e14}</text>
        </g>
      </g>
      <g
         style="stroke-linecap:butt;stroke-linejoin:round;stroke-miterlimit:100000"
         id="ytick_2">
        <g
           style="stroke-linecap:butt;stroke-linejoin:round;stroke-miterlimit:100000"
           id="line2d_14">
          <g
             style="stroke-linecap:butt;stroke-linejoin:round;stroke-miterlimit:100000"
             id="g139">
            <use
               height="100%"
               width="100%"
               id="use141"
               y="168.48"
               xlink:href="#m92e4155aa5"
               x="54"
               style="stroke:#000000;stroke-width:0.5;stroke-linecap:butt;stroke-linejoin:round;stroke-miterlimit:100000" />
          </g>
        </g>
        <g
           style="stroke-linecap:butt;stroke-linejoin:round;stroke-miterlimit:100000"
           id="line2d_15">
          <g
             style="stroke-linecap:butt;stroke-linejoin:round;stroke-miterlimit:100000"
             id="g144">
            <use
               height="100%"
               width="100%"
               id="use146"
               y="168.48"
               xlink:href="#m068537bd10"
               x="388.79999"
               style="stroke:#000000;stroke-width:0.5;stroke-linecap:butt;stroke-linejoin:round;stroke-miterlimit:100000" />
          </g>
        </g>
        <g
           style="stroke-linecap:butt;stroke-linejoin:round;stroke-miterlimit:100000"
           id="text_11">
          <text
             id="text149"
             y="173.44687"
             x="50"
             style="font-style:normal;font-weight:400;font-size:18px;font-family:'Bitstream Vera Sans';text-anchor:end;stroke-linecap:butt;stroke-linejoin:round;stroke-miterlimit:100000">\num{e15}</text>
        </g>
      </g>
      <g
         style="stroke-linecap:butt;stroke-linejoin:round;stroke-miterlimit:100000"
         id="ytick_3">
        <g
           style="stroke-linecap:butt;stroke-linejoin:round;stroke-miterlimit:100000"
           id="line2d_16">
          <g
             style="stroke-linecap:butt;stroke-linejoin:round;stroke-miterlimit:100000"
             id="g153">
            <use
               height="100%"
               width="100%"
               id="use155"
               y="34.560001"
               xlink:href="#m92e4155aa5"
               x="54"
               style="stroke:#000000;stroke-width:0.5;stroke-linecap:butt;stroke-linejoin:round;stroke-miterlimit:100000" />
          </g>
        </g>
        <g
           style="stroke-linecap:butt;stroke-linejoin:round;stroke-miterlimit:100000"
           id="line2d_17">
          <g
             style="stroke-linecap:butt;stroke-linejoin:round;stroke-miterlimit:100000"
             id="g158">
            <use
               height="100%"
               width="100%"
               id="use160"
               y="34.560001"
               xlink:href="#m068537bd10"
               x="388.79999"
               style="stroke:#000000;stroke-width:0.5;stroke-linecap:butt;stroke-linejoin:round;stroke-miterlimit:100000" />
          </g>
        </g>
        <g
           style="stroke-linecap:butt;stroke-linejoin:round;stroke-miterlimit:100000"
           id="text_12">
          <text
             id="text163"
             y="39.526875"
             x="50"
             style="font-style:normal;font-weight:400;font-size:18px;font-family:'Bitstream Vera Sans';text-anchor:end;stroke-linecap:butt;stroke-linejoin:round;stroke-miterlimit:100000">\num{e16}</text>
        </g>
      </g>
      <g
         style="stroke-linecap:butt;stroke-linejoin:round;stroke-miterlimit:100000"
         id="ytick_4">
        <g
           style="stroke-linecap:butt;stroke-linejoin:round;stroke-miterlimit:100000"
           id="line2d_18">
          <defs
             id="defs167">
            <path
               inkscape:connector-curvature="0"
               style="stroke:#000000;stroke-width:0.5;stroke-linecap:butt;stroke-linejoin:round;stroke-miterlimit:100000"
               id="me2512edc94"
               d="M 0,0 2,0" />
          </defs>
          <g
             style="stroke-linecap:butt;stroke-linejoin:round;stroke-miterlimit:100000"
             id="g170">
            <use
               height="100%"
               width="100%"
               id="use172"
               y="262.08606"
               xlink:href="#me2512edc94"
               x="54"
               style="stroke:#000000;stroke-width:0.5;stroke-linecap:butt;stroke-linejoin:round;stroke-miterlimit:100000" />
          </g>
        </g>
        <g
           style="stroke-linecap:butt;stroke-linejoin:round;stroke-miterlimit:100000"
           id="line2d_19">
          <defs
             id="defs175">
            <path
               inkscape:connector-curvature="0"
               style="stroke:#000000;stroke-width:0.5;stroke-linecap:butt;stroke-linejoin:round;stroke-miterlimit:100000"
               id="md3f116d3bd"
               d="M 0,0 -2,0" />
          </defs>
          <g
             style="stroke-linecap:butt;stroke-linejoin:round;stroke-miterlimit:100000"
             id="g178">
            <use
               height="100%"
               width="100%"
               id="use180"
               y="262.08606"
               xlink:href="#md3f116d3bd"
               x="388.79999"
               style="stroke:#000000;stroke-width:0.5;stroke-linecap:butt;stroke-linejoin:round;stroke-miterlimit:100000" />
          </g>
        </g>
      </g>
      <g
         style="stroke-linecap:butt;stroke-linejoin:round;stroke-miterlimit:100000"
         id="ytick_5">
        <g
           style="stroke-linecap:butt;stroke-linejoin:round;stroke-miterlimit:100000"
           id="line2d_20">
          <g
             style="stroke-linecap:butt;stroke-linejoin:round;stroke-miterlimit:100000"
             id="g184">
            <use
               height="100%"
               width="100%"
               id="use186"
               y="238.50392"
               xlink:href="#me2512edc94"
               x="54"
               style="stroke:#000000;stroke-width:0.5;stroke-linecap:butt;stroke-linejoin:round;stroke-miterlimit:100000" />
          </g>
        </g>
        <g
           style="stroke-linecap:butt;stroke-linejoin:round;stroke-miterlimit:100000"
           id="line2d_21">
          <g
             style="stroke-linecap:butt;stroke-linejoin:round;stroke-miterlimit:100000"
             id="g189">
            <use
               height="100%"
               width="100%"
               id="use191"
               y="238.50392"
               xlink:href="#md3f116d3bd"
               x="388.79999"
               style="stroke:#000000;stroke-width:0.5;stroke-linecap:butt;stroke-linejoin:round;stroke-miterlimit:100000" />
          </g>
        </g>
      </g>
      <g
         style="stroke-linecap:butt;stroke-linejoin:round;stroke-miterlimit:100000"
         id="ytick_6">
        <g
           style="stroke-linecap:butt;stroke-linejoin:round;stroke-miterlimit:100000"
           id="line2d_22">
          <g
             style="stroke-linecap:butt;stroke-linejoin:round;stroke-miterlimit:100000"
             id="g195">
            <use
               height="100%"
               width="100%"
               id="use197"
               y="221.77213"
               xlink:href="#me2512edc94"
               x="54"
               style="stroke:#000000;stroke-width:0.5;stroke-linecap:butt;stroke-linejoin:round;stroke-miterlimit:100000" />
          </g>
        </g>
        <g
           style="stroke-linecap:butt;stroke-linejoin:round;stroke-miterlimit:100000"
           id="line2d_23">
          <g
             style="stroke-linecap:butt;stroke-linejoin:round;stroke-miterlimit:100000"
             id="g200">
            <use
               height="100%"
               width="100%"
               id="use202"
               y="221.77213"
               xlink:href="#md3f116d3bd"
               x="388.79999"
               style="stroke:#000000;stroke-width:0.5;stroke-linecap:butt;stroke-linejoin:round;stroke-miterlimit:100000" />
          </g>
        </g>
      </g>
      <g
         style="stroke-linecap:butt;stroke-linejoin:round;stroke-miterlimit:100000"
         id="ytick_7">
        <g
           style="stroke-linecap:butt;stroke-linejoin:round;stroke-miterlimit:100000"
           id="line2d_24">
          <g
             style="stroke-linecap:butt;stroke-linejoin:round;stroke-miterlimit:100000"
             id="g206">
            <use
               height="100%"
               width="100%"
               id="use208"
               y="208.79393"
               xlink:href="#me2512edc94"
               x="54"
               style="stroke:#000000;stroke-width:0.5;stroke-linecap:butt;stroke-linejoin:round;stroke-miterlimit:100000" />
          </g>
        </g>
        <g
           style="stroke-linecap:butt;stroke-linejoin:round;stroke-miterlimit:100000"
           id="line2d_25">
          <g
             style="stroke-linecap:butt;stroke-linejoin:round;stroke-miterlimit:100000"
             id="g211">
            <use
               height="100%"
               width="100%"
               id="use213"
               y="208.79393"
               xlink:href="#md3f116d3bd"
               x="388.79999"
               style="stroke:#000000;stroke-width:0.5;stroke-linecap:butt;stroke-linejoin:round;stroke-miterlimit:100000" />
          </g>
        </g>
      </g>
      <g
         style="stroke-linecap:butt;stroke-linejoin:round;stroke-miterlimit:100000"
         id="ytick_8">
        <g
           style="stroke-linecap:butt;stroke-linejoin:round;stroke-miterlimit:100000"
           id="line2d_26">
          <g
             style="stroke-linecap:butt;stroke-linejoin:round;stroke-miterlimit:100000"
             id="g217">
            <use
               height="100%"
               width="100%"
               id="use219"
               y="198.18999"
               xlink:href="#me2512edc94"
               x="54"
               style="stroke:#000000;stroke-width:0.5;stroke-linecap:butt;stroke-linejoin:round;stroke-miterlimit:100000" />
          </g>
        </g>
        <g
           style="stroke-linecap:butt;stroke-linejoin:round;stroke-miterlimit:100000"
           id="line2d_27">
          <g
             style="stroke-linecap:butt;stroke-linejoin:round;stroke-miterlimit:100000"
             id="g222">
            <use
               height="100%"
               width="100%"
               id="use224"
               y="198.18999"
               xlink:href="#md3f116d3bd"
               x="388.79999"
               style="stroke:#000000;stroke-width:0.5;stroke-linecap:butt;stroke-linejoin:round;stroke-miterlimit:100000" />
          </g>
        </g>
      </g>
      <g
         style="stroke-linecap:butt;stroke-linejoin:round;stroke-miterlimit:100000"
         id="ytick_9">
        <g
           style="stroke-linecap:butt;stroke-linejoin:round;stroke-miterlimit:100000"
           id="line2d_28">
          <g
             style="stroke-linecap:butt;stroke-linejoin:round;stroke-miterlimit:100000"
             id="g228">
            <use
               height="100%"
               width="100%"
               id="use230"
               y="189.22447"
               xlink:href="#me2512edc94"
               x="54"
               style="stroke:#000000;stroke-width:0.5;stroke-linecap:butt;stroke-linejoin:round;stroke-miterlimit:100000" />
          </g>
        </g>
        <g
           style="stroke-linecap:butt;stroke-linejoin:round;stroke-miterlimit:100000"
           id="line2d_29">
          <g
             style="stroke-linecap:butt;stroke-linejoin:round;stroke-miterlimit:100000"
             id="g233">
            <use
               height="100%"
               width="100%"
               id="use235"
               y="189.22447"
               xlink:href="#md3f116d3bd"
               x="388.79999"
               style="stroke:#000000;stroke-width:0.5;stroke-linecap:butt;stroke-linejoin:round;stroke-miterlimit:100000" />
          </g>
        </g>
      </g>
      <g
         style="stroke-linecap:butt;stroke-linejoin:round;stroke-miterlimit:100000"
         id="ytick_10">
        <g
           style="stroke-linecap:butt;stroke-linejoin:round;stroke-miterlimit:100000"
           id="line2d_30">
          <g
             style="stroke-linecap:butt;stroke-linejoin:round;stroke-miterlimit:100000"
             id="g239">
            <use
               height="100%"
               width="100%"
               id="use241"
               y="181.45819"
               xlink:href="#me2512edc94"
               x="54"
               style="stroke:#000000;stroke-width:0.5;stroke-linecap:butt;stroke-linejoin:round;stroke-miterlimit:100000" />
          </g>
        </g>
        <g
           style="stroke-linecap:butt;stroke-linejoin:round;stroke-miterlimit:100000"
           id="line2d_31">
          <g
             style="stroke-linecap:butt;stroke-linejoin:round;stroke-miterlimit:100000"
             id="g244">
            <use
               height="100%"
               width="100%"
               id="use246"
               y="181.45819"
               xlink:href="#md3f116d3bd"
               x="388.79999"
               style="stroke:#000000;stroke-width:0.5;stroke-linecap:butt;stroke-linejoin:round;stroke-miterlimit:100000" />
          </g>
        </g>
      </g>
      <g
         style="stroke-linecap:butt;stroke-linejoin:round;stroke-miterlimit:100000"
         id="ytick_11">
        <g
           style="stroke-linecap:butt;stroke-linejoin:round;stroke-miterlimit:100000"
           id="line2d_32">
          <g
             style="stroke-linecap:butt;stroke-linejoin:round;stroke-miterlimit:100000"
             id="g250">
            <use
               height="100%"
               width="100%"
               id="use252"
               y="174.60785"
               xlink:href="#me2512edc94"
               x="54"
               style="stroke:#000000;stroke-width:0.5;stroke-linecap:butt;stroke-linejoin:round;stroke-miterlimit:100000" />
          </g>
        </g>
        <g
           style="stroke-linecap:butt;stroke-linejoin:round;stroke-miterlimit:100000"
           id="line2d_33">
          <g
             style="stroke-linecap:butt;stroke-linejoin:round;stroke-miterlimit:100000"
             id="g255">
            <use
               height="100%"
               width="100%"
               id="use257"
               y="174.60785"
               xlink:href="#md3f116d3bd"
               x="388.79999"
               style="stroke:#000000;stroke-width:0.5;stroke-linecap:butt;stroke-linejoin:round;stroke-miterlimit:100000" />
          </g>
        </g>
      </g>
      <g
         style="stroke-linecap:butt;stroke-linejoin:round;stroke-miterlimit:100000"
         id="ytick_12">
        <g
           style="stroke-linecap:butt;stroke-linejoin:round;stroke-miterlimit:100000"
           id="line2d_34">
          <g
             style="stroke-linecap:butt;stroke-linejoin:round;stroke-miterlimit:100000"
             id="g261">
            <use
               height="100%"
               width="100%"
               id="use263"
               y="128.16606"
               xlink:href="#me2512edc94"
               x="54"
               style="stroke:#000000;stroke-width:0.5;stroke-linecap:butt;stroke-linejoin:round;stroke-miterlimit:100000" />
          </g>
        </g>
        <g
           style="stroke-linecap:butt;stroke-linejoin:round;stroke-miterlimit:100000"
           id="line2d_35">
          <g
             style="stroke-linecap:butt;stroke-linejoin:round;stroke-miterlimit:100000"
             id="g266">
            <use
               height="100%"
               width="100%"
               id="use268"
               y="128.16606"
               xlink:href="#md3f116d3bd"
               x="388.79999"
               style="stroke:#000000;stroke-width:0.5;stroke-linecap:butt;stroke-linejoin:round;stroke-miterlimit:100000" />
          </g>
        </g>
      </g>
      <g
         style="stroke-linecap:butt;stroke-linejoin:round;stroke-miterlimit:100000"
         id="ytick_13">
        <g
           style="stroke-linecap:butt;stroke-linejoin:round;stroke-miterlimit:100000"
           id="line2d_36">
          <g
             style="stroke-linecap:butt;stroke-linejoin:round;stroke-miterlimit:100000"
             id="g272">
            <use
               height="100%"
               width="100%"
               id="use274"
               y="104.58392"
               xlink:href="#me2512edc94"
               x="54"
               style="stroke:#000000;stroke-width:0.5;stroke-linecap:butt;stroke-linejoin:round;stroke-miterlimit:100000" />
          </g>
        </g>
        <g
           style="stroke-linecap:butt;stroke-linejoin:round;stroke-miterlimit:100000"
           id="line2d_37">
          <g
             style="stroke-linecap:butt;stroke-linejoin:round;stroke-miterlimit:100000"
             id="g277">
            <use
               height="100%"
               width="100%"
               id="use279"
               y="104.58392"
               xlink:href="#md3f116d3bd"
               x="388.79999"
               style="stroke:#000000;stroke-width:0.5;stroke-linecap:butt;stroke-linejoin:round;stroke-miterlimit:100000" />
          </g>
        </g>
      </g>
      <g
         style="stroke-linecap:butt;stroke-linejoin:round;stroke-miterlimit:100000"
         id="ytick_14">
        <g
           style="stroke-linecap:butt;stroke-linejoin:round;stroke-miterlimit:100000"
           id="line2d_38">
          <g
             style="stroke-linecap:butt;stroke-linejoin:round;stroke-miterlimit:100000"
             id="g283">
            <use
               height="100%"
               width="100%"
               id="use285"
               y="87.852127"
               xlink:href="#me2512edc94"
               x="54"
               style="stroke:#000000;stroke-width:0.5;stroke-linecap:butt;stroke-linejoin:round;stroke-miterlimit:100000" />
          </g>
        </g>
        <g
           style="stroke-linecap:butt;stroke-linejoin:round;stroke-miterlimit:100000"
           id="line2d_39">
          <g
             style="stroke-linecap:butt;stroke-linejoin:round;stroke-miterlimit:100000"
             id="g288">
            <use
               height="100%"
               width="100%"
               id="use290"
               y="87.852127"
               xlink:href="#md3f116d3bd"
               x="388.79999"
               style="stroke:#000000;stroke-width:0.5;stroke-linecap:butt;stroke-linejoin:round;stroke-miterlimit:100000" />
          </g>
        </g>
      </g>
      <g
         style="stroke-linecap:butt;stroke-linejoin:round;stroke-miterlimit:100000"
         id="ytick_15">
        <g
           style="stroke-linecap:butt;stroke-linejoin:round;stroke-miterlimit:100000"
           id="line2d_40">
          <g
             style="stroke-linecap:butt;stroke-linejoin:round;stroke-miterlimit:100000"
             id="g294">
            <use
               height="100%"
               width="100%"
               id="use296"
               y="74.87394"
               xlink:href="#me2512edc94"
               x="54"
               style="stroke:#000000;stroke-width:0.5;stroke-linecap:butt;stroke-linejoin:round;stroke-miterlimit:100000" />
          </g>
        </g>
        <g
           style="stroke-linecap:butt;stroke-linejoin:round;stroke-miterlimit:100000"
           id="line2d_41">
          <g
             style="stroke-linecap:butt;stroke-linejoin:round;stroke-miterlimit:100000"
             id="g299">
            <use
               height="100%"
               width="100%"
               id="use301"
               y="74.87394"
               xlink:href="#md3f116d3bd"
               x="388.79999"
               style="stroke:#000000;stroke-width:0.5;stroke-linecap:butt;stroke-linejoin:round;stroke-miterlimit:100000" />
          </g>
        </g>
      </g>
      <g
         style="stroke-linecap:butt;stroke-linejoin:round;stroke-miterlimit:100000"
         id="ytick_16">
        <g
           style="stroke-linecap:butt;stroke-linejoin:round;stroke-miterlimit:100000"
           id="line2d_42">
          <g
             style="stroke-linecap:butt;stroke-linejoin:round;stroke-miterlimit:100000"
             id="g305">
            <use
               height="100%"
               width="100%"
               id="use307"
               y="64.269981"
               xlink:href="#me2512edc94"
               x="54"
               style="stroke:#000000;stroke-width:0.5;stroke-linecap:butt;stroke-linejoin:round;stroke-miterlimit:100000" />
          </g>
        </g>
        <g
           style="stroke-linecap:butt;stroke-linejoin:round;stroke-miterlimit:100000"
           id="line2d_43">
          <g
             style="stroke-linecap:butt;stroke-linejoin:round;stroke-miterlimit:100000"
             id="g310">
            <use
               height="100%"
               width="100%"
               id="use312"
               y="64.269981"
               xlink:href="#md3f116d3bd"
               x="388.79999"
               style="stroke:#000000;stroke-width:0.5;stroke-linecap:butt;stroke-linejoin:round;stroke-miterlimit:100000" />
          </g>
        </g>
      </g>
      <g
         style="stroke-linecap:butt;stroke-linejoin:round;stroke-miterlimit:100000"
         id="ytick_17">
        <g
           style="stroke-linecap:butt;stroke-linejoin:round;stroke-miterlimit:100000"
           id="line2d_44">
          <g
             style="stroke-linecap:butt;stroke-linejoin:round;stroke-miterlimit:100000"
             id="g316">
            <use
               height="100%"
               width="100%"
               id="use318"
               y="55.30447"
               xlink:href="#me2512edc94"
               x="54"
               style="stroke:#000000;stroke-width:0.5;stroke-linecap:butt;stroke-linejoin:round;stroke-miterlimit:100000" />
          </g>
        </g>
        <g
           style="stroke-linecap:butt;stroke-linejoin:round;stroke-miterlimit:100000"
           id="line2d_45">
          <g
             style="stroke-linecap:butt;stroke-linejoin:round;stroke-miterlimit:100000"
             id="g321">
            <use
               height="100%"
               width="100%"
               id="use323"
               y="55.30447"
               xlink:href="#md3f116d3bd"
               x="388.79999"
               style="stroke:#000000;stroke-width:0.5;stroke-linecap:butt;stroke-linejoin:round;stroke-miterlimit:100000" />
          </g>
        </g>
      </g>
      <g
         style="stroke-linecap:butt;stroke-linejoin:round;stroke-miterlimit:100000"
         id="ytick_18">
        <g
           style="stroke-linecap:butt;stroke-linejoin:round;stroke-miterlimit:100000"
           id="line2d_46">
          <g
             style="stroke-linecap:butt;stroke-linejoin:round;stroke-miterlimit:100000"
             id="g327">
            <use
               height="100%"
               width="100%"
               id="use329"
               y="47.538189"
               xlink:href="#me2512edc94"
               x="54"
               style="stroke:#000000;stroke-width:0.5;stroke-linecap:butt;stroke-linejoin:round;stroke-miterlimit:100000" />
          </g>
        </g>
        <g
           style="stroke-linecap:butt;stroke-linejoin:round;stroke-miterlimit:100000"
           id="line2d_47">
          <g
             style="stroke-linecap:butt;stroke-linejoin:round;stroke-miterlimit:100000"
             id="g332">
            <use
               height="100%"
               width="100%"
               id="use334"
               y="47.538189"
               xlink:href="#md3f116d3bd"
               x="388.79999"
               style="stroke:#000000;stroke-width:0.5;stroke-linecap:butt;stroke-linejoin:round;stroke-miterlimit:100000" />
          </g>
        </g>
      </g>
      <g
         style="stroke-linecap:butt;stroke-linejoin:round;stroke-miterlimit:100000"
         id="ytick_19">
        <g
           style="stroke-linecap:butt;stroke-linejoin:round;stroke-miterlimit:100000"
           id="line2d_48">
          <g
             style="stroke-linecap:butt;stroke-linejoin:round;stroke-miterlimit:100000"
             id="g338">
            <use
               height="100%"
               width="100%"
               id="use340"
               y="40.687843"
               xlink:href="#me2512edc94"
               x="54"
               style="stroke:#000000;stroke-width:0.5;stroke-linecap:butt;stroke-linejoin:round;stroke-miterlimit:100000" />
          </g>
        </g>
        <g
           style="stroke-linecap:butt;stroke-linejoin:round;stroke-miterlimit:100000"
           id="line2d_49">
          <g
             style="stroke-linecap:butt;stroke-linejoin:round;stroke-miterlimit:100000"
             id="g343">
            <use
               height="100%"
               width="100%"
               id="use345"
               y="40.687843"
               xlink:href="#md3f116d3bd"
               x="388.79999"
               style="stroke:#000000;stroke-width:0.5;stroke-linecap:butt;stroke-linejoin:round;stroke-miterlimit:100000" />
          </g>
        </g>
      </g>
      <g
         style="stroke-linecap:butt;stroke-linejoin:round;stroke-miterlimit:100000"
         id="text_13">
        <text
           id="text348"
           y="168.48"
           x="0.036562499"
           transform="matrix(0,-1,1,0,-168.44344,168.51656)"
           style="font-style:normal;font-weight:400;font-size:18px;font-family:'Bitstream Vera Sans';text-anchor:middle;stroke-linecap:butt;stroke-linejoin:round;stroke-miterlimit:100000">\textit{n}, \si{\cm^{-3}}</text>
      </g>
    </g>
    <g
       id="axes_2">
      <g
         id="patch_7">
        <path
           d="M 54 302.4  L 388.8 302.4  "
           style="fill:none;stroke:#000000;stroke-linecap:square;stroke-linejoin:miter;"
           id="path352" />
      </g>
      <g
         id="patch_8">
        <path
           d="M 388.8 302.4  L 388.8 34.56  "
           style="fill:none;stroke:#000000;stroke-linecap:square;stroke-linejoin:miter;"
           id="path355" />
      </g>
      <g
         id="patch_9">
        <path
           d="M 54 34.56  L 388.8 34.56  "
           style="fill:none;stroke:#000000;stroke-linecap:square;stroke-linejoin:miter;"
           id="path358" />
      </g>
      <g
         id="patch_10">
        <path
           d="M 54 302.4  L 54 34.56  "
           style="fill:none;stroke:#000000;stroke-linecap:square;stroke-linejoin:miter;"
           id="path361" />
      </g>
      <g
         id="matplotlib.axis_3">
        <g
           id="xtick_9"
           transform="translate(0,-4.0201271)"
           style="stroke-linecap:butt;stroke-linejoin:round;stroke-miterlimit:100000">
          <g
             id="line2d_50"
             style="stroke-linecap:butt;stroke-linejoin:round;stroke-miterlimit:100000">
            <defs
               id="defs366">
              <path
                 d="M 0,0 0,4"
                 id="mf1572999e1"
                 style="stroke:#000000;stroke-width:0.5;stroke-linecap:butt;stroke-linejoin:round;stroke-miterlimit:100000"
                 inkscape:connector-curvature="0" />
            </defs>
            <g
               id="g369"
               style="stroke-linecap:butt;stroke-linejoin:round;stroke-miterlimit:100000">
              <use
                 style="stroke:#000000;stroke-width:0.5;stroke-linecap:butt;stroke-linejoin:round;stroke-miterlimit:100000"
                 x="372.85715"
                 xlink:href="#mf1572999e1"
                 y="34.560001"
                 id="use371"
                 width="100%"
                 height="100%" />
            </g>
          </g>
          <g
             id="text_14"
             style="stroke-linecap:butt;stroke-linejoin:round;stroke-miterlimit:100000">
            <text
               style="font-style:normal;font-weight:400;font-size:18px;font-family:'Bitstream Vera Sans';text-anchor:middle;stroke-linecap:butt;stroke-linejoin:round;stroke-miterlimit:100000"
               x="372.85715"
               y="26.816563"
               id="text374">30</text>
          </g>
        </g>
        <g
           id="xtick_10"
           transform="translate(0,-4.0201271)"
           style="stroke-linecap:butt;stroke-linejoin:round;stroke-miterlimit:100000">
          <g
             id="line2d_51"
             style="stroke-linecap:butt;stroke-linejoin:round;stroke-miterlimit:100000">
            <g
               id="g378"
               style="stroke-linecap:butt;stroke-linejoin:round;stroke-miterlimit:100000">
              <use
                 style="stroke:#000000;stroke-width:0.5;stroke-linecap:butt;stroke-linejoin:round;stroke-miterlimit:100000"
                 x="190.65306"
                 xlink:href="#mf1572999e1"
                 y="34.560001"
                 id="use380"
                 width="100%"
                 height="100%" />
            </g>
          </g>
          <g
             id="text_15"
             style="stroke-linecap:butt;stroke-linejoin:round;stroke-miterlimit:100000">
            <text
               style="font-style:normal;font-weight:400;font-size:18px;font-family:'Bitstream Vera Sans';text-anchor:middle;stroke-linecap:butt;stroke-linejoin:round;stroke-miterlimit:100000"
               x="190.65306"
               y="26.816563"
               id="text383">70</text>
          </g>
        </g>
        <g
           id="xtick_11"
           transform="translate(0,-4.0201271)"
           style="stroke-linecap:butt;stroke-linejoin:round;stroke-miterlimit:100000">
          <g
             id="line2d_52"
             style="stroke-linecap:butt;stroke-linejoin:round;stroke-miterlimit:100000">
            <g
               id="g387"
               style="stroke-linecap:butt;stroke-linejoin:round;stroke-miterlimit:100000">
              <use
                 style="stroke:#000000;stroke-width:0.5;stroke-linecap:butt;stroke-linejoin:round;stroke-miterlimit:100000"
                 x="149.65715"
                 xlink:href="#mf1572999e1"
                 y="34.560001"
                 id="use389"
                 width="100%"
                 height="100%" />
            </g>
          </g>
          <g
             id="text_16"
             style="stroke-linecap:butt;stroke-linejoin:round;stroke-miterlimit:100000">
            <text
               style="font-style:normal;font-weight:400;font-size:18px;font-family:'Bitstream Vera Sans';text-anchor:middle;stroke-linecap:butt;stroke-linejoin:round;stroke-miterlimit:100000"
               x="149.65715"
               y="26.816563"
               id="text392">100</text>
          </g>
        </g>
        <g
           id="xtick_12"
           transform="translate(0,-4.0201271)"
           style="stroke-linecap:butt;stroke-linejoin:round;stroke-miterlimit:100000">
          <g
             id="line2d_53"
             style="stroke-linecap:butt;stroke-linejoin:round;stroke-miterlimit:100000">
            <g
               id="g396"
               style="stroke-linecap:butt;stroke-linejoin:round;stroke-miterlimit:100000">
              <use
                 style="stroke:#000000;stroke-width:0.5;stroke-linecap:butt;stroke-linejoin:round;stroke-miterlimit:100000"
                 x="85.885712"
                 xlink:href="#mf1572999e1"
                 y="34.560001"
                 id="use398"
                 width="100%"
                 height="100%" />
            </g>
          </g>
          <g
             id="text_17"
             style="stroke-linecap:butt;stroke-linejoin:round;stroke-miterlimit:100000">
            <text
               style="font-style:normal;font-weight:400;font-size:18px;font-family:'Bitstream Vera Sans';text-anchor:middle;stroke-linecap:butt;stroke-linejoin:round;stroke-miterlimit:100000"
               x="85.885712"
               y="26.816563"
               id="text401">300</text>
          </g>
        </g>
        <g
           id="text_18"
           transform="translate(0,-4.3855932)"
           style="stroke-linecap:butt;stroke-linejoin:round;stroke-miterlimit:100000">
          <text
             style="font-style:normal;font-weight:400;font-size:18px;font-family:'Bitstream Vera Sans';text-anchor:middle;stroke-linecap:butt;stroke-linejoin:round;stroke-miterlimit:100000"
             x="221.39999"
             y="8.1393747"
             id="text404">\textit{T}, \si{\kelvin}</text>
        </g>
      </g>
    </g>
    <g
       id="g4872"
       style="fill:#000000;fill-opacity:1;stroke:#898989;stroke-width:0.40218154;stroke-linecap:butt;stroke-linejoin:round;stroke-miterlimit:100;stroke-dasharray:none;stroke-opacity:1"
       transform="matrix(0.98918087,0,0,1,2.7412606,0)">
      <path
         inkscape:connector-curvature="0"
         id="path4854"
         d="m 54.088983,261.67373 334.401477,0"
         style="fill:#000000;fill-opacity:1;fill-rule:evenodd;stroke:#898989;stroke-width:0.40218154;stroke-linecap:butt;stroke-linejoin:miter;stroke-miterlimit:100;stroke-dasharray:none;stroke-opacity:1" />
      <path
         style="fill:#000000;fill-opacity:1;fill-rule:evenodd;stroke:#898989;stroke-width:0.40218154;stroke-linecap:butt;stroke-linejoin:miter;stroke-miterlimit:100;stroke-dasharray:none;stroke-opacity:1"
         d="m 54.088983,238.36441 334.401477,0"
         id="path4856"
         inkscape:connector-curvature="0" />
      <path
         inkscape:connector-curvature="0"
         id="path4858"
         d="m 54.088983,221.7357 334.401477,0"
         style="fill:#000000;fill-opacity:1;fill-rule:evenodd;stroke:#898989;stroke-width:0.40218154;stroke-linecap:butt;stroke-linejoin:miter;stroke-miterlimit:100;stroke-dasharray:none;stroke-opacity:1" />
      <path
         style="fill:#000000;fill-opacity:1;fill-rule:evenodd;stroke:#898989;stroke-width:0.40218154;stroke-linecap:butt;stroke-linejoin:miter;stroke-miterlimit:100;stroke-dasharray:none;stroke-opacity:1"
         d="m 54.088983,208.76165 334.401477,0"
         id="path4860"
         inkscape:connector-curvature="0" />
      <path
         inkscape:connector-curvature="0"
         id="path4862"
         d="m 54.088983,197.88903 334.401477,0"
         style="fill:#000000;fill-opacity:1;fill-rule:evenodd;stroke:#898989;stroke-width:0.40218154;stroke-linecap:butt;stroke-linejoin:miter;stroke-miterlimit:100;stroke-dasharray:none;stroke-opacity:1" />
      <path
         style="fill:#000000;fill-opacity:1;fill-rule:evenodd;stroke:#898989;stroke-width:0.40218154;stroke-linecap:butt;stroke-linejoin:miter;stroke-miterlimit:100;stroke-dasharray:none;stroke-opacity:1"
         d="m 54.088983,189.30058 334.401477,0"
         id="path4864"
         inkscape:connector-curvature="0" />
      <path
         inkscape:connector-curvature="0"
         id="path4866"
         d="m 54.088983,181.35169 334.401477,0"
         style="fill:#000000;fill-opacity:1;fill-rule:evenodd;stroke:#898989;stroke-width:0.40218154;stroke-linecap:butt;stroke-linejoin:miter;stroke-miterlimit:100;stroke-dasharray:none;stroke-opacity:1" />
      <path
         style="fill:#000000;fill-opacity:1;fill-rule:evenodd;stroke:#898989;stroke-width:0.40218154;stroke-linecap:butt;stroke-linejoin:miter;stroke-miterlimit:100;stroke-dasharray:none;stroke-opacity:1"
         d="m 54.088983,174.59057 334.401477,0"
         id="path4868"
         inkscape:connector-curvature="0" />
      <path
         inkscape:connector-curvature="0"
         id="path4870"
         d="m 54.088983,168.65175 334.401477,0"
         style="fill:#000000;fill-opacity:1;fill-rule:evenodd;stroke:#898989;stroke-width:0.40218154;stroke-linecap:butt;stroke-linejoin:miter;stroke-miterlimit:100;stroke-dasharray:none;stroke-opacity:1" />
    </g>
    <g
       id="g4883"
       transform="matrix(0.98797814,0,0,1.0041776,2.8430467,-134.53924)"
       style="fill:#000000;fill-opacity:1;stroke:#898989;stroke-width:0.40158829;stroke-linecap:butt;stroke-linejoin:round;stroke-miterlimit:100;stroke-dasharray:none;stroke-opacity:1">
      <path
         style="fill:#000000;fill-opacity:1;fill-rule:evenodd;stroke:#898989;stroke-width:0.40158829;stroke-linecap:butt;stroke-linejoin:miter;stroke-miterlimit:100;stroke-dasharray:none;stroke-opacity:1"
         d="m 54.088983,261.67373 334.401477,0"
         id="path4885"
         inkscape:connector-curvature="0" />
      <path
         inkscape:connector-curvature="0"
         id="path4887"
         d="m 54.088983,238.36441 334.401477,0"
         style="fill:#000000;fill-opacity:1;fill-rule:evenodd;stroke:#898989;stroke-width:0.40158829;stroke-linecap:butt;stroke-linejoin:miter;stroke-miterlimit:100;stroke-dasharray:none;stroke-opacity:1" />
      <path
         style="fill:#000000;fill-opacity:1;fill-rule:evenodd;stroke:#898989;stroke-width:0.40158829;stroke-linecap:butt;stroke-linejoin:miter;stroke-miterlimit:100;stroke-dasharray:none;stroke-opacity:1"
         d="m 54.088983,221.7357 334.401477,0"
         id="path4889"
         inkscape:connector-curvature="0" />
      <path
         inkscape:connector-curvature="0"
         id="path4891"
         d="m 54.088983,208.76165 334.401477,0"
         style="fill:#000000;fill-opacity:1;fill-rule:evenodd;stroke:#898989;stroke-width:0.40158829;stroke-linecap:butt;stroke-linejoin:miter;stroke-miterlimit:100;stroke-dasharray:none;stroke-opacity:1" />
      <path
         style="fill:#000000;fill-opacity:1;fill-rule:evenodd;stroke:#898989;stroke-width:0.40158829;stroke-linecap:butt;stroke-linejoin:miter;stroke-miterlimit:100;stroke-dasharray:none;stroke-opacity:1"
         d="m 54.088983,197.88903 334.401477,0"
         id="path4893"
         inkscape:connector-curvature="0" />
      <path
         inkscape:connector-curvature="0"
         id="path4895"
         d="m 54.088983,189.30058 334.401477,0"
         style="fill:#000000;fill-opacity:1;fill-rule:evenodd;stroke:#898989;stroke-width:0.40158829;stroke-linecap:butt;stroke-linejoin:miter;stroke-miterlimit:100;stroke-dasharray:none;stroke-opacity:1" />
      <path
         style="fill:#000000;fill-opacity:1;fill-rule:evenodd;stroke:#898989;stroke-width:0.40158829;stroke-linecap:butt;stroke-linejoin:miter;stroke-miterlimit:100;stroke-dasharray:none;stroke-opacity:1"
         d="m 54.088983,181.35169 334.401477,0"
         id="path4897"
         inkscape:connector-curvature="0" />
      <path
         inkscape:connector-curvature="0"
         id="path4899"
         d="m 54.088983,174.59057 334.401477,0"
         style="fill:#000000;fill-opacity:1;fill-rule:evenodd;stroke:#898989;stroke-width:0.40158829;stroke-linecap:butt;stroke-linejoin:miter;stroke-miterlimit:100;stroke-dasharray:none;stroke-opacity:1" />
    </g>
    <g
       style="stroke-linecap:butt;stroke-linejoin:round;stroke-miterlimit:4;stroke-width:1.2;stroke-dasharray:none"
       id="line2d_2">
      <path
         inkscape:connector-curvature="0"
         id="path20"
         style="fill:none;stroke:#ff0000;stroke-linecap:square;stroke-linejoin:round;stroke-miterlimit:4;stroke-width:1.2;stroke-dasharray:none"
         d="m 85.885714,302.4 0,-267.84"
         clip-path="url(#pf460c61251)" />
    </g>
    <g
       style="stroke-linecap:butt;stroke-linejoin:round;stroke-miterlimit:4;stroke-width:1.2;stroke-dasharray:none"
       id="line2d_3">
      <path
         inkscape:connector-curvature="0"
         id="path23"
         style="fill:none;stroke:#ff0000;stroke-linecap:square;stroke-linejoin:round;stroke-miterlimit:4;stroke-width:1.2;stroke-dasharray:none"
         d="m 190.65306,302.4 0,-267.84"
         clip-path="url(#pf460c61251)" />
    </g>
    <g
       style="stroke-linecap:butt;stroke-linejoin:round;stroke-miterlimit:4;stroke-width:1.4;stroke-dasharray:none"
       id="line2d_1">
      <path
         inkscape:connector-curvature="0"
         id="path17"
         style="fill:none;stroke:#0000ff;stroke-width:1.4;stroke-linecap:square;stroke-linejoin:round;stroke-miterlimit:4;stroke-dasharray:none"
         d="m 372.85714,224.38665 -88.12052,-20.01052 -39.61442,-8.73103 -28.00505,-5.9169 -20.84681,-4.18756 -20.71369,-3.9064 -15.44867,-2.70276 -14.54583,-2.34461 -14.74306,-2.14506 -13.17559,-1.6928 -12.63661,-1.40298 -9.507497,-1.06897 -1.491467,-0.3687 -0.936146,-0.38121 -0.893338,-0.56475 -0.8534,-0.83991 -0.816083,-1.23083 -0.78116,-1.75318 -0.748432,-2.40388 -0.717719,-3.15398 -0.688859,-3.95113 -0.98287,-7.37303 L 85.66296,139.39749 84.506044,125.9457 83.173596,107.70619 81.492449,81.561934 79.209603,42.314123 76.859172,-1 l 0,0"
         clip-path="url(#pf460c61251)" />
    </g>
  </g>
  <defs
     id="defs406">
    <clipPath
       id="pf460c61251">
      <rect
         height="267.84"
         width="334.8"
         x="54.0"
         y="34.56"
         id="rect409" />
    </clipPath>
  </defs>
</svg>
