

$totallayer  
1

$ivnfile     
Si-B_5_result.ivn

$wvinpfile   
Si-B_5_result.wv

$n2dresfile  
Si-B_5_result.n2d

$outfile     
Si-B_5_result.out


$gatebias     
0  0  -0.2    


$Schottky     
0.66    


$body-V       
0.45    


$opertemp       
300.0    


$calcgrid       
1001    


$fermifile       
fermi.dat    


$1Dparameters     
  4.00000E+04  0.660  0.300  16.200  0.561  0.561  0.330  0.046   3.90000E+03   1.90000E+03   1.00000E-08   1.00000E-08 


$background 
36
  2.985e+01   -1.543e+18
  5.970e+01   -2.799e+18
  5.970e+01   -2.955e+18
  5.970e+01   -5.977e+18
  5.970e+01   -6.310e+18
  8.955e+01   -7.836e+18
  8.955e+01   -1.027e+19
  5.970e+01   -1.276e+19
  1.194e+02   -1.766e+19
  8.955e+01   -2.078e+19
  8.955e+01   -2.445e+19
  8.955e+01   -2.725e+19
  1.194e+02   -2.445e+19
  8.955e+01   -2.078e+19
  2.985e+01   -1.673e+19
  2.985e+01   -1.501e+19
  2.985e+01   -1.501e+19
  5.970e+01   -1.027e+19
  2.985e+01   -9.733e+18
  5.970e+01   -7.423e+18
  2.985e+01   -5.662e+18
  5.971e+01   -3.875e+18
  0.000e+00   -3.293e+18
  5.970e+01   -2.135e+18
  2.985e+01   -2.022e+18
  5.970e+01   -8.973e+17
  0.000e+00   -8.973e+17
  8.955e+01   -5.817e+17
  0.000e+00   -5.817e+17
  8.955e+01   -3.205e+17
  0.000e+00   -3.205e+17
  8.956e+01   -1.276e+17
  0.000e+00   -1.276e+17
  1.791e+02   -2.022e+16
  2.985e+01   -2.022e+16
  9.764e+04   -1.000e+15




$doping
1
  1.000e+01   -1.524e+9   0.00


$dirrecombine     
  6.40000E-14  


$ifschockley     


$UseAuger     
  0.00000E+00  


$schrodnoiter   

