====== B into Al/SiO2/Silicon                   =======
        SRIM-2013.00
==================================================
      ION and final RECOIL ATOM Distributions     
 See  SRIM Outputs\TDATA.txt for calculation details
==================================================
See file :  SRIM Outputs\TDATA.txt   for details of calculation
 Ion    =  B   Energy = 20  keV
============= TARGET MATERIAL ======================================
Layer  1 : Aluminium
Layer Width =     1.E+00 A   Layer # 1- Density = 6.003E22 atoms/cm3 = 2.69 g/cm3
  Layer # 1- Al = 100  Atomic Percent = 100  Mass Percent
Layer  2 : SiO@2
Layer Width =     1.E+00 A   Layer # 2- Density = 7.015E22 atoms/cm3 = 2.33 g/cm3
  Layer # 2- Si = 33.3 Atomic Percent = 46.6 Mass Percent
  Layer # 2-  O = 66.6 Atomic Percent = 53.3 Mass Percent
Layer  3 : Silicon
Layer Width =     9.E+03 A   Layer # 3- Density = 4.989E22 atoms/cm3 = 2.32 g/cm3
  Layer # 3- Si = 100  Atomic Percent = 100  Mass Percent
====================================================================
 Total Ions calculated =20346.53
 Ion Average Range =   788.9E+00 A   Straggling =   313.3E+00 A
 Ion Lateral Range =   274.1E+00 A   Straggling =   341.7E+00 A
 Ion Radial  Range =   432.6E+00 A   Straggling =   219.5E+00 A
====================================================================
 Transmitted Ions =;  Backscattered Ions =351
 (These are not included in Skewne- and Kurtosis below.)

 Range Skewne- = -000.1089  &= [-(X-Rp)^3]/[N*Straggle^3]
 Range Kurtosis = 002.5748  &= [-(X-Rp)^4]/[N*Straggle^4]
 Statistical definitions above are those used in VLSI implant modelling.
====================================================================
=================================================================
  Table Distribution Units are >>>  (Atoms/cm3) / (Atoms/cm2)  <<<  
=================================================================
   DEPTH          B         Al         Si          O    
   (Ang.)       Ions     Tgt. Atoms  Tgt. Atoms  Tgt. Atoms
-----------  ----------  ----------  ----------  ----------
400100.E-04  7.6180E+03  7.1633E+04  8.3504E+06  7.7285E+04
800100.E-04  1.3639E+04  0.0000E+00  1.3356E+07  0.0000E+00
120010.E-03  1.7079E+04  0.0000E+00  1.5307E+07  0.0000E+00
160010.E-03  2.4820E+04  0.0000E+00  1.6682E+07  0.0000E+00
200010.E-03  3.0226E+04  0.0000E+00  1.7470E+07  0.0000E+00
240010.E-03  3.0349E+04  0.0000E+00  1.8393E+07  0.0000E+00
280010.E-03  3.4650E+04  0.0000E+00  1.9341E+07  0.0000E+00
320010.E-03  3.9319E+04  0.0000E+00  2.0069E+07  0.0000E+00
360010.E-03  4.5831E+04  0.0000E+00  2.1200E+07  0.0000E+00
400010.E-03  5.3326E+04  0.0000E+00  2.1931E+07  0.0000E+00
440010.E-03  6.0698E+04  0.0000E+00  2.2130E+07  0.0000E+00
480010.E-03  6.5736E+04  0.0000E+00  2.2597E+07  0.0000E+00
520010.E-03  7.9497E+04  0.0000E+00  2.2903E+07  0.0000E+00
560010.E-03  8.1832E+04  0.0000E+00  2.2854E+07  0.0000E+00
600010.E-03  9.2153E+04  0.0000E+00  2.2872E+07  0.0000E+00
640010.E-03  9.8173E+04  0.0000E+00  2.2536E+07  0.0000E+00
680010.E-03  1.0297E+05  0.0000E+00  2.1963E+07  0.0000E+00
720010.E-03  1.1439E+05  0.0000E+00  2.1355E+07  0.0000E+00
760010.E-03  1.1771E+05  0.0000E+00  1.9964E+07  0.0000E+00
800010.E-03  1.1697E+05  0.0000E+00  1.8420E+07  0.0000E+00
840010.E-03  1.2287E+05  0.0000E+00  1.7393E+07  0.0000E+00
880010.E-03  1.2422E+05  0.0000E+00  1.6276E+07  0.0000E+00
920010.E-03  1.1415E+05  0.0000E+00  1.4341E+07  0.0000E+00
960010.E-03  1.0849E+05  0.0000E+00  1.2697E+07  0.0000E+00
100001.E-02  1.0935E+05  0.0000E+00  1.1073E+07  0.0000E+00
104001.E-02  9.8542E+04  0.0000E+00  9.7336E+06  0.0000E+00
108001.E-02  9.4241E+04  0.0000E+00  8.0702E+06  0.0000E+00
112001.E-02  8.7606E+04  0.0000E+00  6.6798E+06  0.0000E+00
116001.E-02  7.3845E+04  0.0000E+00  5.6652E+06  0.0000E+00
120001.E-02  7.2371E+04  0.0000E+00  4.4595E+06  0.0000E+00
124001.E-02  5.0500E+04  0.0000E+00  3.2103E+06  0.0000E+00
128001.E-02  4.4602E+04  0.0000E+00  2.4017E+06  0.0000E+00
132001.E-02  3.4158E+04  0.0000E+00  1.7948E+06  0.0000E+00
136001.E-02  2.8506E+04  0.0000E+00  1.2591E+06  0.0000E+00
140001.E-02  1.9537E+04  0.0000E+00  9.2960E+05  0.0000E+00
144001.E-02  1.6710E+04  0.0000E+00  6.0652E+05  0.0000E+00
148001.E-02  9.4611E+03  0.0000E+00  4.0930E+05  0.0000E+00
152001.E-02  9.5839E+03  0.0000E+00  2.6049E+05  0.0000E+00
156001.E-02  3.9319E+03  0.0000E+00  1.6526E+05  0.0000E+00
160001.E-02  4.1776E+03  0.0000E+00  1.0813E+05  0.0000E+00
164001.E-02  1.4745E+03  0.0000E+00  4.0302E+04  0.0000E+00
168001.E-02  4.9148E+02  0.0000E+00  1.4130E+04  0.0000E+00
172001.E-02  3.6861E+02  0.0000E+00  9.3382E+03  0.0000E+00
176001.E-02  3.6861E+02  0.0000E+00  7.0036E+03  0.0000E+00
180001.E-02  2.2287E+02  0.0000E+00  4.7920E+03  0.0000E+00
188001.E-02  0.5000E+01  0.0000E+00  1.2287E+02  0.0000E+00
998001.E-01  0.5000E+01  0.0000E+00  1.2287E+02  0.0000E+00